%!PS-Adobe-3.0 EPSF-3.0
%%Creator: graphviz version 2.36.0 (20140111.2315)
%%Title: codecmap
%%Pages: 1
%%BoundingBox: 36 36 536 350
%%EndComments
save
%%BeginProlog
/DotDict 200 dict def
DotDict begin

/setupLatin1 {
mark
/EncodingVector 256 array def
 EncodingVector 0

ISOLatin1Encoding 0 255 getinterval putinterval
EncodingVector 45 /hyphen put

% Set up ISO Latin 1 character encoding
/starnetISO {
        dup dup findfont dup length dict begin
        { 1 index /FID ne { def }{ pop pop } ifelse
        } forall
        /Encoding EncodingVector def
        currentdict end definefont
} def
/Times-Roman starnetISO def
/Times-Italic starnetISO def
/Times-Bold starnetISO def
/Times-BoldItalic starnetISO def
/Helvetica starnetISO def
/Helvetica-Oblique starnetISO def
/Helvetica-Bold starnetISO def
/Helvetica-BoldOblique starnetISO def
/Courier starnetISO def
/Courier-Oblique starnetISO def
/Courier-Bold starnetISO def
/Courier-BoldOblique starnetISO def
cleartomark
} bind def

%%BeginResource: procset graphviz 0 0
/coord-font-family /Times-Roman def
/default-font-family /Times-Roman def
/coordfont coord-font-family findfont 8 scalefont def

/InvScaleFactor 1.0 def
/set_scale {
       dup 1 exch div /InvScaleFactor exch def
       scale
} bind def

% styles
/solid { [] 0 setdash } bind def
/dashed { [9 InvScaleFactor mul dup ] 0 setdash } bind def
/dotted { [1 InvScaleFactor mul 6 InvScaleFactor mul] 0 setdash } bind def
/invis {/fill {newpath} def /stroke {newpath} def /show {pop newpath} def} bind def
/bold { 2 setlinewidth } bind def
/filled { } bind def
/unfilled { } bind def
/rounded { } bind def
/diagonals { } bind def
/tapered { } bind def

% hooks for setting color 
/nodecolor { sethsbcolor } bind def
/edgecolor { sethsbcolor } bind def
/graphcolor { sethsbcolor } bind def
/nopcolor {pop pop pop} bind def

/beginpage {	% i j npages
	/npages exch def
	/j exch def
	/i exch def
	/str 10 string def
	npages 1 gt {
		gsave
			coordfont setfont
			0 0 moveto
			(\() show i str cvs show (,) show j str cvs show (\)) show
		grestore
	} if
} bind def

/set_font {
	findfont exch
	scalefont setfont
} def

% draw text fitted to its expected width
/alignedtext {			% width text
	/text exch def
	/width exch def
	gsave
		width 0 gt {
			[] 0 setdash
			text stringwidth pop width exch sub text length div 0 text ashow
		} if
	grestore
} def

/boxprim {				% xcorner ycorner xsize ysize
		4 2 roll
		moveto
		2 copy
		exch 0 rlineto
		0 exch rlineto
		pop neg 0 rlineto
		closepath
} bind def

/ellipse_path {
	/ry exch def
	/rx exch def
	/y exch def
	/x exch def
	matrix currentmatrix
	newpath
	x y translate
	rx ry scale
	0 0 1 0 360 arc
	setmatrix
} bind def

/endpage { showpage } bind def
/showpage { } def

/layercolorseq
	[	% layer color sequence - darkest to lightest
		[0 0 0]
		[.2 .8 .8]
		[.4 .8 .8]
		[.6 .8 .8]
		[.8 .8 .8]
	]
def

/layerlen layercolorseq length def

/setlayer {/maxlayer exch def /curlayer exch def
	layercolorseq curlayer 1 sub layerlen mod get
	aload pop sethsbcolor
	/nodecolor {nopcolor} def
	/edgecolor {nopcolor} def
	/graphcolor {nopcolor} def
} bind def

/onlayer { curlayer ne {invis} if } def

/onlayers {
	/myupper exch def
	/mylower exch def
	curlayer mylower lt
	curlayer myupper gt
	or
	{invis} if
} def

/curlayer 0 def

%%EndResource
%%EndProlog
%%BeginSetup
14 default-font-family set_font
1 setmiterlimit
% /arrowlength 10 def
% /arrowwidth 5 def

% make sure pdfmark is harmless for PS-interpreters other than Distiller
/pdfmark where {pop} {userdict /pdfmark /cleartomark load put} ifelse
% make '<<' and '>>' safe on PS Level 1 devices
/languagelevel where {pop languagelevel}{1} ifelse
2 lt {
    userdict (<<) cvn ([) cvn load put
    userdict (>>) cvn ([) cvn load put
} if

%%EndSetup
setupLatin1
%%Page: 1 1
%%PageBoundingBox: 36 36 536 350
%%PageOrientation: Portrait
0 0 1 beginpage
gsave
36 36 500 314 boxprim clip newpath
1 1 set_scale 0 rotate 40 40 translate
% alice1
gsave
1 setlinewidth
0 0 0 nodecolor
193 180 27.9 18 ellipse_path stroke
0 0 0 nodecolor
14 /Times-Roman set_font
179.5 176.3 moveto 27 (alice) alignedtext
grestore
% bob1
gsave
1 setlinewidth
0 0 0 nodecolor
299 234 27 18 ellipse_path stroke
0 0 0 nodecolor
14 /Times-Roman set_font
288 230.3 moveto 22 (bob) alignedtext
grestore
% alice1->bob1
gsave
1 setlinewidth
0 0 0 edgecolor
newpath 215.3 191.06 moveto
230.54 198.97 251.27 209.73 268.16 218.5 curveto
stroke
0 0 0 edgecolor
newpath 266.6 221.64 moveto
277.09 223.14 lineto
269.82 215.43 lineto
closepath fill
1 setlinewidth
solid
0 0 0 edgecolor
newpath 266.6 221.64 moveto
277.09 223.14 lineto
269.82 215.43 lineto
closepath stroke
0 0 0 edgecolor
14 /Times-Roman set_font
240.5 211.8 moveto 11 (to) alignedtext
grestore
% carol1
gsave
1 setlinewidth
0 0 0 nodecolor
299 180 28.7 18 ellipse_path stroke
0 0 0 nodecolor
14 /Times-Roman set_font
285 176.3 moveto 28 (carol) alignedtext
grestore
% alice1->carol1
gsave
1 setlinewidth
0 0 0 edgecolor
newpath 221.05 180 moveto
233.02 180 247.3 180 260.29 180 curveto
stroke
0 0 0 edgecolor
newpath 260.36 183.5 moveto
270.36 180 lineto
260.36 176.5 lineto
closepath fill
1 setlinewidth
solid
0 0 0 edgecolor
newpath 260.36 183.5 moveto
270.36 180 lineto
260.36 176.5 lineto
closepath stroke
0 0 0 edgecolor
14 /Times-Roman set_font
240.5 183.8 moveto 11 (to) alignedtext
grestore
% alice2
gsave
1 setlinewidth
0 0 0 nodecolor
299 126 27.9 18 ellipse_path stroke
0 0 0 nodecolor
14 /Times-Roman set_font
285.5 122.3 moveto 27 (alice) alignedtext
grestore
% file2
gsave
1 setlinewidth
0 0 0 nodecolor
459 126 27 18 ellipse_path stroke
0 0 0 nodecolor
14 /Times-Roman set_font
450 122.3 moveto 18 (file) alignedtext
grestore
% alice2->file2
gsave
1 setlinewidth
0 0 0 edgecolor
newpath 327.16 126 moveto
353.33 126 393.08 126 421.9 126 curveto
stroke
0 0 0 edgecolor
newpath 421.98 129.5 moveto
431.98 126 lineto
421.98 122.5 lineto
closepath fill
1 setlinewidth
solid
0 0 0 edgecolor
newpath 421.98 129.5 moveto
431.98 126 lineto
421.98 122.5 lineto
closepath stroke
0 0 0 edgecolor
14 /Times-Roman set_font
346 129.8 moveto 62 (with codec) alignedtext
grestore
% alice3
gsave
1 setlinewidth
0 0 0 nodecolor
299 72 27.9 18 ellipse_path stroke
0 0 0 nodecolor
14 /Times-Roman set_font
285.5 68.3 moveto 27 (alice) alignedtext
grestore
% chat2
gsave
1 setlinewidth
0 0 0 nodecolor
459 72 27 18 ellipse_path stroke
0 0 0 nodecolor
14 /Times-Roman set_font
447 68.3 moveto 24 (chat) alignedtext
grestore
% alice3->chat2
gsave
1 setlinewidth
0 0 0 edgecolor
newpath 327.16 72 moveto
353.33 72 393.08 72 421.9 72 curveto
stroke
0 0 0 edgecolor
newpath 421.98 75.5 moveto
431.98 72 lineto
421.98 68.5 lineto
closepath fill
1 setlinewidth
solid
0 0 0 edgecolor
newpath 421.98 75.5 moveto
431.98 72 lineto
421.98 68.5 lineto
closepath stroke
0 0 0 edgecolor
14 /Times-Roman set_font
346 75.8 moveto 62 (with codec) alignedtext
grestore
% image
gsave
1 setlinewidth
0 0 0 nodecolor
459 18 33.29 18 ellipse_path stroke
0 0 0 nodecolor
14 /Times-Roman set_font
441.5 14.3 moveto 35 (image) alignedtext
grestore
% alice3->image
gsave
1 setlinewidth
0 0 0 edgecolor
newpath 322.77 62.12 moveto
330.13 59.06 338.36 55.76 346 53 curveto
370.14 44.26 397.66 35.64 419.38 29.15 curveto
stroke
0 0 0 edgecolor
newpath 420.63 32.42 moveto
429.23 26.23 lineto
418.64 25.71 lineto
closepath fill
1 setlinewidth
solid
0 0 0 edgecolor
newpath 420.63 32.42 moveto
429.23 26.23 lineto
418.64 25.71 lineto
closepath stroke
0 0 0 edgecolor
14 /Times-Roman set_font
346 56.8 moveto 62 (with codec) alignedtext
grestore
% file1
gsave
1 setlinewidth
0 0 0 nodecolor
459 288 27 18 ellipse_path stroke
0 0 0 nodecolor
14 /Times-Roman set_font
450 284.3 moveto 18 (file) alignedtext
grestore
% bob1->file1
gsave
1 setlinewidth
0 0 0 edgecolor
newpath 322.31 243.68 moveto
329.78 246.8 338.2 250.18 346 253 curveto
371.91 262.38 401.72 271.62 424.06 278.25 curveto
stroke
0 0 0 edgecolor
newpath 423.18 281.64 moveto
433.76 281.1 lineto
425.15 274.92 lineto
closepath fill
1 setlinewidth
solid
0 0 0 edgecolor
newpath 423.18 281.64 moveto
433.76 281.1 lineto
425.15 274.92 lineto
closepath stroke
0 0 0 edgecolor
14 /Times-Roman set_font
346 275.8 moveto 62 (with codec) alignedtext
grestore
% plain
gsave
1 setlinewidth
0 0 0 nodecolor
459 234 28.7 18 ellipse_path stroke
0 0 0 nodecolor
14 /Times-Roman set_font
445 230.3 moveto 28 (plain) alignedtext
grestore
% bob1->plain
gsave
1 setlinewidth
0 0 0 edgecolor
newpath 326.09 234 moveto
351.7 234 391.02 234 420.08 234 curveto
stroke
0 0 0 edgecolor
newpath 420.28 237.5 moveto
430.28 234 lineto
420.28 230.5 lineto
closepath fill
1 setlinewidth
solid
0 0 0 edgecolor
newpath 420.28 237.5 moveto
430.28 234 lineto
420.28 230.5 lineto
closepath stroke
0 0 0 edgecolor
14 /Times-Roman set_font
346 237.8 moveto 62 (with codec) alignedtext
grestore
% bob2
gsave
1 setlinewidth
0 0 0 nodecolor
193 126 27 18 ellipse_path stroke
0 0 0 nodecolor
14 /Times-Roman set_font
182 122.3 moveto 22 (bob) alignedtext
grestore
% bob2->alice2
gsave
1 setlinewidth
0 0 0 edgecolor
newpath 220.24 126 moveto
232.49 126 247.3 126 260.68 126 curveto
stroke
0 0 0 edgecolor
newpath 261.04 129.5 moveto
271.04 126 lineto
261.04 122.5 lineto
closepath fill
1 setlinewidth
solid
0 0 0 edgecolor
newpath 261.04 129.5 moveto
271.04 126 lineto
261.04 122.5 lineto
closepath stroke
0 0 0 edgecolor
14 /Times-Roman set_font
240.5 129.8 moveto 11 (to) alignedtext
grestore
% chat1
gsave
1 setlinewidth
0 0 0 nodecolor
459 180 27 18 ellipse_path stroke
0 0 0 nodecolor
14 /Times-Roman set_font
447 176.3 moveto 24 (chat) alignedtext
grestore
% carol1->chat1
gsave
1 setlinewidth
0 0 0 edgecolor
newpath 327.88 180 moveto
353.96 180 393.07 180 421.6 180 curveto
stroke
0 0 0 edgecolor
newpath 421.97 183.5 moveto
431.97 180 lineto
421.97 176.5 lineto
closepath fill
1 setlinewidth
solid
0 0 0 edgecolor
newpath 421.97 183.5 moveto
431.97 180 lineto
421.97 176.5 lineto
closepath stroke
0 0 0 edgecolor
14 /Times-Roman set_font
346 183.8 moveto 62 (with codec) alignedtext
grestore
% carol2
gsave
1 setlinewidth
0 0 0 nodecolor
193 72 28.7 18 ellipse_path stroke
0 0 0 nodecolor
14 /Times-Roman set_font
179 68.3 moveto 28 (carol) alignedtext
grestore
% carol2->alice3
gsave
1 setlinewidth
0 0 0 edgecolor
newpath 221.87 72 moveto
233.72 72 247.71 72 260.44 72 curveto
stroke
0 0 0 edgecolor
newpath 260.77 75.5 moveto
270.77 72 lineto
260.77 68.5 lineto
closepath fill
1 setlinewidth
solid
0 0 0 edgecolor
newpath 260.77 75.5 moveto
270.77 72 lineto
260.77 68.5 lineto
closepath stroke
0 0 0 edgecolor
14 /Times-Roman set_font
240.5 75.8 moveto 11 (to) alignedtext
grestore
% Codecmap
gsave
1 setlinewidth
0 0 0 nodecolor
50 126 49.29 18 ellipse_path stroke
0 0 0 nodecolor
14 /Times-Roman set_font
20 122.3 moveto 60 (Codecmap) alignedtext
grestore
% Codecmap->alice1
gsave
1 setlinewidth
0 0 0 edgecolor
newpath 84.77 138.93 moveto
107.34 147.58 136.88 158.89 159.23 167.45 curveto
stroke
0 0 0 edgecolor
newpath 158.05 170.75 moveto
168.64 171.05 lineto
160.55 164.21 lineto
closepath fill
1 setlinewidth
solid
0 0 0 edgecolor
newpath 158.05 170.75 moveto
168.64 171.05 lineto
160.55 164.21 lineto
closepath stroke
0 0 0 edgecolor
14 /Times-Roman set_font
118 163.8 moveto 28 (from) alignedtext
grestore
% Codecmap->bob2
gsave
1 setlinewidth
0 0 0 edgecolor
newpath 99.52 126 moveto
118 126 138.7 126 155.83 126 curveto
stroke
0 0 0 edgecolor
newpath 155.98 129.5 moveto
165.98 126 lineto
155.98 122.5 lineto
closepath fill
1 setlinewidth
solid
0 0 0 edgecolor
newpath 155.98 129.5 moveto
165.98 126 lineto
155.98 122.5 lineto
closepath stroke
0 0 0 edgecolor
14 /Times-Roman set_font
118 129.8 moveto 28 (from) alignedtext
grestore
% Codecmap->carol2
gsave
1 setlinewidth
0 0 0 edgecolor
newpath 84.77 113.07 moveto
107.2 104.48 136.51 93.25 158.81 84.71 curveto
stroke
0 0 0 edgecolor
newpath 160.12 87.96 moveto
168.21 81.11 lineto
157.62 81.42 lineto
closepath fill
1 setlinewidth
solid
0 0 0 edgecolor
newpath 160.12 87.96 moveto
168.21 81.11 lineto
157.62 81.42 lineto
closepath stroke
0 0 0 edgecolor
14 /Times-Roman set_font
118 102.8 moveto 28 (from) alignedtext
grestore
endpage
showpage
grestore
%%PageTrailer
%%EndPage: 1
%%Trailer
end
restore
%%EOF
