<?xml version="1.0" encoding="UTF-8" standalone="no"?>
<graphml xmlns="http://graphml.graphdrawing.org/xmlns" xmlns:java="http://www.yworks.com/xml/yfiles-common/1.0/java" xmlns:sys="http://www.yworks.com/xml/yfiles-common/markup/primitives/2.0" xmlns:x="http://www.yworks.com/xml/yfiles-common/markup/2.0" xmlns:xsi="http://www.w3.org/2001/XMLSchema-instance" xmlns:y="http://www.yworks.com/xml/graphml" xmlns:yed="http://www.yworks.com/xml/yed/3" xsi:schemaLocation="http://graphml.graphdrawing.org/xmlns http://www.yworks.com/xml/schema/graphml/1.1/ygraphml.xsd">
  <!--Created by yEd 3.14.1-->
  <key attr.name="Beschreibung" attr.type="string" for="graph" id="d0"/>
  <key for="port" id="d1" yfiles.type="portgraphics"/>
  <key for="port" id="d2" yfiles.type="portgeometry"/>
  <key for="port" id="d3" yfiles.type="portuserdata"/>
  <key attr.name="url" attr.type="string" for="node" id="d4"/>
  <key attr.name="description" attr.type="string" for="node" id="d5"/>
  <key for="node" id="d6" yfiles.type="nodegraphics"/>
  <key for="graphml" id="d7" yfiles.type="resources"/>
  <key attr.name="url" attr.type="string" for="edge" id="d8"/>
  <key attr.name="description" attr.type="string" for="edge" id="d9"/>
  <key for="edge" id="d10" yfiles.type="edgegraphics"/>
  <graph edgedefault="directed" id="G">
    <data key="d0"/>
    <node id="n0">
      <data key="d6">
        <y:ImageNode>
          <y:Geometry height="113.56250000000011" width="140.9062500000001" x="82.04687499999994" y="21.0"/>
          <y:Fill color="#CCCCFF" transparent="false"/>
          <y:BorderStyle color="#000000" type="line" width="1.0"/>
          <y:NodeLabel alignment="center" autoSizePolicy="content" fontFamily="Dialog" fontSize="12" fontStyle="plain" hasBackgroundColor="false" hasLineColor="false" height="18.1328125" modelName="custom" textColor="#000000" visible="true" width="27.54296875" x="56.68164062500006" y="61.427001953125114">LAN<y:LabelModel>
              <y:SmartNodeLabelModel distance="4.0"/>
            </y:LabelModel>
            <y:ModelParameter>
              <y:SmartNodeLabelModelParameter labelRatioX="0.0" labelRatioY="0.5" nodeRatioX="0.0" nodeRatioY="0.2005817453219596" offsetX="0.0" offsetY="0.0" upX="0.0" upY="-1.0"/>
            </y:ModelParameter>
          </y:NodeLabel>
          <y:Image alphaImage="true" refid="1"/>
        </y:ImageNode>
      </data>
    </node>
    <node id="n1">
      <data key="d6">
        <y:ImageNode>
          <y:Geometry height="92.56250000000011" width="109.90625000000011" x="97.54687499999994" y="164.5625000000001"/>
          <y:Fill color="#CCCCFF" transparent="false"/>
          <y:BorderStyle color="#000000" type="line" width="1.0"/>
          <y:NodeLabel alignment="center" autoSizePolicy="content" fontFamily="Dialog" fontSize="12" fontStyle="plain" hasBackgroundColor="false" hasLineColor="false" height="32.265625" modelName="custom" textColor="#000000" visible="true" width="76.09375" x="16.906250000000057" y="61.7813128280639">STUN Client
192.168.0.2<y:LabelModel>
              <y:SmartNodeLabelModel distance="4.0"/>
            </y:LabelModel>
            <y:ModelParameter>
              <y:SmartNodeLabelModelParameter labelRatioX="0.0" labelRatioY="0.4539932101713886" nodeRatioX="0.0" nodeRatioY="0.5" offsetX="0.0" offsetY="0.0" upX="0.0" upY="-1.0"/>
            </y:ModelParameter>
          </y:NodeLabel>
          <y:Image alphaImage="true" refid="2"/>
        </y:ImageNode>
      </data>
    </node>
    <node id="n2">
      <data key="d5"/>
      <data key="d6">
        <y:SVGNode>
          <y:Geometry height="81.98199844360363" width="33.0302987670899" x="655.0210224914556" y="150.58050155639654"/>
          <y:Fill color="#CCCCFF" transparent="false"/>
          <y:BorderStyle color="#000000" type="line" width="1.0"/>
          <y:NodeLabel alignment="center" autoSizePolicy="content" fontFamily="Dialog" fontSize="12" fontStyle="plain" hasBackgroundColor="false" hasLineColor="false" height="32.265625" modelName="custom" textColor="#000000" visible="true" width="76.09375" x="-21.531725616455105" y="85.98199844360363">STUN Server
89.89.89.89<y:LabelModel>
              <y:SmartNodeLabelModel distance="4.0"/>
            </y:LabelModel>
            <y:ModelParameter>
              <y:SmartNodeLabelModelParameter labelRatioX="0.0" labelRatioY="-0.5" nodeRatioX="0.0" nodeRatioY="0.5" offsetX="0.0" offsetY="4.0" upX="0.0" upY="-1.0"/>
            </y:ModelParameter>
          </y:NodeLabel>
          <y:SVGNodeProperties usingVisualBounds="true"/>
          <y:SVGModel svgBoundsPolicy="0">
            <y:SVGContent refid="3"/>
          </y:SVGModel>
        </y:SVGNode>
      </data>
    </node>
    <node id="n3">
      <data key="d5"/>
      <data key="d6">
        <y:SVGNode>
          <y:Geometry height="177.93174934387218" width="62.095298767089844" x="386.057044982911" y="54.63075065612799"/>
          <y:Fill color="#CCCCFF" transparent="false"/>
          <y:BorderStyle color="#000000" type="line" width="1.0"/>
          <y:NodeLabel alignment="center" autoSizePolicy="content" fontFamily="Dialog" fontSize="12" fontStyle="plain" hasBackgroundColor="false" hasLineColor="false" height="18.1328125" modelName="custom" textColor="#000000" visible="true" width="87.77734375" x="-12.841022491455078" y="-22.1328125">NAPT Gateway<y:LabelModel>
              <y:SmartNodeLabelModel distance="4.0"/>
            </y:LabelModel>
            <y:ModelParameter>
              <y:SmartNodeLabelModelParameter labelRatioX="0.0" labelRatioY="0.5" nodeRatioX="0.0" nodeRatioY="-0.5" offsetX="0.0" offsetY="-4.0" upX="0.0" upY="-1.0"/>
            </y:ModelParameter>
          </y:NodeLabel>
          <y:SVGNodeProperties usingVisualBounds="true"/>
          <y:SVGModel svgBoundsPolicy="0">
            <y:SVGContent refid="3"/>
          </y:SVGModel>
        </y:SVGNode>
      </data>
    </node>
    <node id="n4">
      <data key="d6">
        <y:ImageNode>
          <y:Geometry height="113.56250000000011" width="140.9062500000001" x="600.1230468750005" y="21.0"/>
          <y:Fill color="#CCCCFF" transparent="false"/>
          <y:BorderStyle color="#000000" type="line" width="1.0"/>
          <y:NodeLabel alignment="center" autoSizePolicy="content" fontFamily="Dialog" fontSize="12" fontStyle="plain" hasBackgroundColor="false" hasLineColor="false" height="18.1328125" modelName="custom" textColor="#000000" visible="true" width="31.41015625" x="54.748046875" y="61.427001953125114">WAN<y:LabelModel>
              <y:SmartNodeLabelModel distance="4.0"/>
            </y:LabelModel>
            <y:ModelParameter>
              <y:SmartNodeLabelModelParameter labelRatioX="0.0" labelRatioY="0.5" nodeRatioX="0.0" nodeRatioY="0.2005817453219596" offsetX="0.0" offsetY="0.0" upX="0.0" upY="-1.0"/>
            </y:ModelParameter>
          </y:NodeLabel>
          <y:Image alphaImage="true" refid="1"/>
        </y:ImageNode>
      </data>
    </node>
    <node id="n5">
      <data key="d5"/>
      <data key="d6">
        <y:ShapeNode>
          <y:Geometry height="30.0" width="129.83999999999997" x="486.6666831207283" y="227.12500000000023"/>
          <y:Fill color="#C0C0C0" transparent="false"/>
          <y:BorderStyle color="#000000" type="line" width="1.0"/>
          <y:NodeLabel alignment="center" autoSizePolicy="content" fontFamily="Dialog" fontSize="12" fontStyle="plain" hasBackgroundColor="false" hasLineColor="false" height="32.265625" modelName="custom" textColor="#000000" visible="true" width="117.830078125" x="6.004960937500016" y="-1.1328125">MAPPED-ADDRESS:
88.88.88.88:10060<y:LabelModel>
              <y:SmartNodeLabelModel distance="4.0"/>
            </y:LabelModel>
            <y:ModelParameter>
              <y:SmartNodeLabelModelParameter labelRatioX="0.0" labelRatioY="0.0" nodeRatioX="0.0" nodeRatioY="0.0" offsetX="0.0" offsetY="0.0" upX="0.0" upY="-1.0"/>
            </y:ModelParameter>
          </y:NodeLabel>
          <y:Shape type="rectangle"/>
        </y:ShapeNode>
      </data>
    </node>
    <node id="n6">
      <data key="d5"/>
      <data key="d6">
        <y:ShapeNode>
          <y:Geometry height="30.0" width="129.83999999999997" x="231.83508499145557" y="227.12500000000023"/>
          <y:Fill color="#C0C0C0" transparent="false"/>
          <y:BorderStyle color="#000000" type="line" width="1.0"/>
          <y:NodeLabel alignment="center" autoSizePolicy="content" bottomInset="3" fontFamily="Dialog" fontSize="12" fontStyle="plain" hasBackgroundColor="false" hasLineColor="false" height="34.265625" leftInset="3" modelName="custom" rightInset="3" textColor="#000000" topInset="3" visible="true" width="119.830078125" x="5.004960937499959" y="-2.1328125">MAPPED-ADDRESS:
88.88.88.88:10060<y:LabelModel>
              <y:SmartNodeLabelModel distance="4.0"/>
            </y:LabelModel>
            <y:ModelParameter>
              <y:SmartNodeLabelModelParameter labelRatioX="0.0" labelRatioY="0.0" nodeRatioX="0.0" nodeRatioY="0.0" offsetX="0.0" offsetY="0.0" upX="0.0" upY="-1.0"/>
            </y:ModelParameter>
          </y:NodeLabel>
          <y:Shape type="rectangle"/>
        </y:ShapeNode>
      </data>
    </node>
    <edge id="e0" source="n0" target="n1">
      <data key="d9"/>
      <data key="d10">
        <y:PolyLineEdge>
          <y:Path sx="0.0" sy="31.483678203125095" tx="0.0" ty="-46.092529296875"/>
          <y:LineStyle color="#000000" type="line" width="1.0"/>
          <y:Arrows source="none" target="none"/>
          <y:BendStyle smoothed="false"/>
        </y:PolyLineEdge>
      </data>
    </edge>
    <edge id="e1" source="n0" target="n3">
      <data key="d9"/>
      <data key="d10">
        <y:PolyLineEdge>
          <y:Path sx="61.64189312500031" sy="0.0" tx="-0.37605253949033113" ty="-65.81537532806402"/>
          <y:LineStyle color="#000000" type="line" width="1.0"/>
          <y:Arrows source="none" target="none"/>
          <y:EdgeLabel alignment="center" configuration="AutoFlippingLabel" distance="2.0" fontFamily="Dialog" fontSize="12" fontStyle="plain" hasBackgroundColor="false" hasLineColor="false" height="18.1328125" modelName="custom" preferredPlacement="anywhere" ratio="0.5" textColor="#000000" visible="true" width="76.09375" x="52.26686477661178" y="-39.06640624999994">192.168.0.1<y:LabelModel>
              <y:SmartEdgeLabelModel autoRotationEnabled="false" defaultAngle="0.0" defaultDistance="10.0"/>
            </y:LabelModel>
            <y:ModelParameter>
              <y:SmartEdgeLabelModelParameter angle="0.0" distance="30.0" distanceToCenter="true" position="left" ratio="0.5" segment="0"/>
            </y:ModelParameter>
            <y:PreferredPlacementDescriptor angle="0.0" angleOffsetOnRightSide="0" angleReference="absolute" angleRotationOnRightSide="co" distance="-1.0" frozen="true" placement="anywhere" side="anywhere" sideReference="relative_to_edge_flow"/>
          </y:EdgeLabel>
          <y:BendStyle smoothed="false"/>
        </y:PolyLineEdge>
      </data>
    </edge>
    <edge id="e2" source="n3" target="n4">
      <data key="d9"/>
      <data key="d10">
        <y:PolyLineEdge>
          <y:Path sx="-2.376052539490331" sy="-64.78197556243884" tx="-64.94054762616008" ty="1.0333997656251768"/>
          <y:LineStyle color="#000000" type="line" width="1.0"/>
          <y:Arrows source="none" target="none"/>
          <y:EdgeLabel alignment="center" configuration="AutoFlippingLabel" distance="2.0" fontFamily="Dialog" fontSize="12" fontStyle="plain" hasBackgroundColor="false" hasLineColor="false" height="18.1328125" modelName="custom" preferredPlacement="anywhere" ratio="0.5" textColor="#000000" visible="true" width="76.09375" x="37.94412231445381" y="-39.06640797363258">88.88.88.88<y:LabelModel>
              <y:SmartEdgeLabelModel autoRotationEnabled="false" defaultAngle="0.0" defaultDistance="10.0"/>
            </y:LabelModel>
            <y:ModelParameter>
              <y:SmartEdgeLabelModelParameter angle="0.0" distance="30.0" distanceToCenter="true" position="left" ratio="0.5" segment="0"/>
            </y:ModelParameter>
            <y:PreferredPlacementDescriptor angle="0.0" angleOffsetOnRightSide="0" angleReference="absolute" angleRotationOnRightSide="co" distance="-1.0" frozen="true" placement="anywhere" side="anywhere" sideReference="relative_to_edge_flow"/>
          </y:EdgeLabel>
          <y:BendStyle smoothed="false"/>
        </y:PolyLineEdge>
      </data>
    </edge>
    <edge id="e3" source="n2" target="n4">
      <data key="d9"/>
      <data key="d10">
        <y:PolyLineEdge>
          <y:Path sx="0.0" sy="0.0" tx="0.0" ty="31.062222889647273"/>
          <y:LineStyle color="#000000" type="line" width="1.0"/>
          <y:Arrows source="none" target="none"/>
          <y:BendStyle smoothed="false"/>
        </y:PolyLineEdge>
      </data>
    </edge>
    <edge id="e4" source="n3" target="n1">
      <data key="d9"/>
      <data key="d10">
        <y:PolyLineEdge>
          <y:Path sx="-31.081256866456158" sy="25.579737922299017" tx="43.499999999999915" ty="-41.667386749637075"/>
          <y:LineStyle color="#000000" type="line" width="1.0"/>
          <y:Arrows source="standard" target="none"/>
          <y:EdgeLabel alignment="center" configuration="AutoFlippingLabel" distance="2.0" fontFamily="Dialog" fontSize="12" fontStyle="plain" hasBackgroundColor="false" hasLineColor="false" height="32.265625" modelName="custom" preferredPlacement="anywhere" ratio="0.5" textColor="#000000" visible="true" width="135.068359375" x="-156.80253219604447" y="-16.13281033362128">Binding Request
von 192.168.0.2:5060<y:LabelModel>
              <y:SmartEdgeLabelModel autoRotationEnabled="false" defaultAngle="0.0" defaultDistance="10.0"/>
            </y:LabelModel>
            <y:ModelParameter>
              <y:SmartEdgeLabelModelParameter angle="6.283185307179586" distance="9.52" distanceToCenter="true" position="center" ratio="0.5" segment="0"/>
            </y:ModelParameter>
            <y:PreferredPlacementDescriptor angle="0.0" angleOffsetOnRightSide="0" angleReference="absolute" angleRotationOnRightSide="co" distance="-1.0" frozen="true" placement="anywhere" side="anywhere" sideReference="relative_to_edge_flow"/>
          </y:EdgeLabel>
          <y:BendStyle smoothed="false"/>
        </y:PolyLineEdge>
      </data>
    </edge>
    <edge id="e5" source="n3" target="n2">
      <data key="d9"/>
      <data key="d10">
        <y:PolyLineEdge>
          <y:Path sx="-0.10469436645615815" sy="27.246847561583195" tx="1.7228158469575714" ty="-20.728027888551082"/>
          <y:LineStyle color="#000000" type="line" width="1.0"/>
          <y:Arrows source="none" target="standard"/>
          <y:EdgeLabel alignment="center" configuration="AutoFlippingLabel" distance="2.0" fontFamily="Dialog" fontSize="12" fontStyle="plain" hasBackgroundColor="false" hasLineColor="false" height="32.265625" modelName="custom" preferredPlacement="anywhere" ratio="0.5" textColor="#000000" visible="true" width="142.65625" x="32.13334449768138" y="-16.1328149521496">Binding Request
von 88.88.88.88:10060<y:LabelModel>
              <y:SmartEdgeLabelModel autoRotationEnabled="false" defaultAngle="0.0" defaultDistance="10.0"/>
            </y:LabelModel>
            <y:ModelParameter>
              <y:SmartEdgeLabelModelParameter angle="6.283185307179586" distance="10.799999999999889" distanceToCenter="true" position="center" ratio="0.5" segment="0"/>
            </y:ModelParameter>
            <y:PreferredPlacementDescriptor angle="0.0" angleOffsetOnRightSide="0" angleReference="absolute" angleRotationOnRightSide="co" distance="-1.0" frozen="true" placement="anywhere" side="anywhere" sideReference="relative_to_edge_flow"/>
          </y:EdgeLabel>
          <y:BendStyle smoothed="false"/>
        </y:PolyLineEdge>
      </data>
    </edge>
    <edge id="e6" source="n2" target="n3">
      <data key="d9"/>
      <data key="d10">
        <y:PolyLineEdge>
          <y:Path sx="-1.5467859924911913" sy="20.271972111448918" tx="9.895305633543842" ty="68.2468475615832"/>
          <y:LineStyle color="#000000" type="line" width="1.0"/>
          <y:Arrows source="none" target="standard"/>
          <y:EdgeLabel alignment="center" configuration="AutoFlippingLabel" distance="2.0" fontFamily="Dialog" fontSize="12" fontStyle="plain" hasBackgroundColor="false" hasLineColor="false" height="32.265625" modelName="custom" preferredPlacement="anywhere" ratio="0.5" textColor="#000000" visible="true" width="135.701171875" x="-171.2740956878655" y="-16.13281495214963">Binding Response
an 88.88.88.88:10060<y:LabelModel>
              <y:SmartEdgeLabelModel autoRotationEnabled="false" defaultAngle="0.0" defaultDistance="10.0"/>
            </y:LabelModel>
            <y:ModelParameter>
              <y:SmartEdgeLabelModelParameter angle="0.0" distance="30.0" distanceToCenter="true" position="center" ratio="0.5" segment="0"/>
            </y:ModelParameter>
            <y:PreferredPlacementDescriptor angle="0.0" angleOffsetOnRightSide="0" angleReference="absolute" angleRotationOnRightSide="co" distance="-1.0" frozen="true" placement="anywhere" side="anywhere" sideReference="relative_to_edge_flow"/>
          </y:EdgeLabel>
          <y:BendStyle smoothed="false"/>
        </y:PolyLineEdge>
      </data>
    </edge>
    <edge id="e7" source="n3" target="n1">
      <data key="d9"/>
      <data key="d10">
        <y:PolyLineEdge>
          <y:Path sx="-31.034381866456158" sy="67.24712467193609" tx="44.499999999999915" ty="0.0"/>
          <y:LineStyle color="#000000" type="line" width="1.0"/>
          <y:Arrows source="none" target="standard"/>
          <y:EdgeLabel alignment="center" configuration="AutoFlippingLabel" distance="2.0" fontFamily="Dialog" fontSize="12" fontStyle="plain" hasBackgroundColor="false" hasLineColor="false" height="32.265625" modelName="custom" preferredPlacement="anywhere" ratio="0.5" textColor="#000000" visible="true" width="128.11328125" x="-153.32569503784134" y="-16.132812499999858">Binding Response
an 192.168.0.2.5060<y:LabelModel>
              <y:SmartEdgeLabelModel autoRotationEnabled="false" defaultAngle="0.0" defaultDistance="10.0"/>
            </y:LabelModel>
            <y:ModelParameter>
              <y:SmartEdgeLabelModelParameter angle="0.0" distance="30.0" distanceToCenter="true" position="center" ratio="0.5" segment="0"/>
            </y:ModelParameter>
            <y:PreferredPlacementDescriptor angle="0.0" angleOffsetOnRightSide="0" angleReference="absolute" angleRotationOnRightSide="co" distance="-1.0" frozen="true" placement="anywhere" side="anywhere" sideReference="relative_to_edge_flow"/>
          </y:EdgeLabel>
          <y:BendStyle smoothed="false"/>
        </y:PolyLineEdge>
      </data>
    </edge>
  </graph>
  <data key="d7">
    <y:Resources>
      <y:Resource id="1" type="java.awt.image.BufferedImage">iVBORw0KGgoAAAANSUhEUgAAAgAAAAIACAYAAAD0eNT6AAAuBUlEQVR42u3dCXgkRd348d3lEBBF&#13;
BJFLAUFEFwFJ+phk01U9yQYnXb9KdnFAxYvXV0Q8eFXU96+CAVRULhUvQBRFQX0Ej1fFE/ECQZFD&#13;
EUU8UJBTRA6513/XJIjAHsl29cz0zPfzPPVwiDuTqkrXr6qrfrVgAQAAAAAAAAAAAAAAAAAAAAAA&#13;
AAAAAAAAAAAAAAAAAAAAAAAAAAAAAAAAAAAAAAAAAAAAAAAAAAAAAAAAAAAAAAAAAAAAAAAAAAAA&#13;
AAAAAAAAAAAAAAAAAAAAAAAAAAAAAAAAAAAAAAAAAAAAAAAAAAAAAAAAAAAAAAAAAAAAAAAAAAAA&#13;
AAAAAAAAAAAAAAAAAAAAAAAAAAAAAAAAAAAAAAAAAAAAAAAAAAAAAAAAAAAAAAAAAAAAAAAAAAAA&#13;
AAAAAAAAAAAAAAAAAAAAAAAAAAAAAAAAAAAAAAAAAAAAAAAAAAAAAAAAAAAAAAAAAAAAAAAAAAAA&#13;
AAAAAAAAAAAAAAAAAAAAAAAAAAAAAAAAAAAAAAAAAAAAAAAAAAAAAAAAFTAgslEwlj0tVKaWl2Wx&#13;
Mq+ItBwSpeaIQJv3B6l8Iv/nz0VKzgyU+Ur+998IdPbt/J+/FWr5apDIF2Mln4109sn8f/uY+//E&#13;
2k7n/+61oZIXRHUzHtdlz6H6xHZa6w2ocQAA2mOhG3zzAbkRp+Z1+SB9fJRkXx5UE5fmg/g/8n/+&#13;
VxvLirxcF2lzfpRmp+dBxrtdwBHrybHhpXZrmgoAgLWczcepHY60PTjWcmo+2P4s1NntbR7k174k&#13;
2c2Blu/ngckHQi0vr9VNyKoBAACPMFSf2jEf6F8W6+zj+V9/GSTZ/ZUZ7OdczL1hYn4aKntsHtws&#13;
j0btk2l5AEBfiXRjWzczDrQ5I0jkmt4b7OdWwhG5yu05iLXZd8mSbFN6BgCgpzSbzXUiZdN80Dsm&#13;
Utmv+nXAX12ZXfU4L6+nQwMlQV5tC+k5AIDKce+849Ta1q76JLuZQX6eAYEyN8TafjTWRi+Ynl5E&#13;
jwIAdPVMP0yzvfIB7LRKbdrr/v0Df80DgRPyv1/CygAAoGtEo3a31ln7JLuewbrsMvFnl9vAHYmk&#13;
5wEA2m638fHHuo18kZILGJQ7UFT2QJTYb0ap7D0wcMB69EgAQKlq2u4UpvLBDiTfoaxmv0AejL3H&#13;
na6ghwIAvHKb0VopdN3Mk0G3a3MNtPZfpGZ3eiwAoIiFbok5UHIRg2u1SpzId2vaPpcuDACYs9a5&#13;
fW1flM/2L2cwrXqxF7vjmPRqAMBqZ/zu5rtQZ79j4OyxFQEtF7IiAAB4lCg1E262yGDZ4yXJfuyy&#13;
MtLjAaDPuTvuIyU/YHDss3sIlHx9MLXP4DcAAPpMoCe2DFL5RE/s6m/9DBN/doGMu2Ao/3fH5+V/&#13;
I2X2D7VMhXWph9oOugFvYEyeOrzUbj00vmwLdwFPOLpss4GR5VvFemr7cHRi50Gd7Rql2UCQmlF3&#13;
SU+UykF5Ocxd7Zv/+9NDZX7iMvPlf/6KXjg1EKdy3B566gn8RgBAj3NJY8LUvjnQ2W3VG+jlH24A&#13;
zgf1k+PUvMG903ZXCXciEY6768AFFC71cR5cvCZK7Unuut8okTsqGAzcFGpzoNv8yW8IAPSgWn1y&#13;
KNbyy4rM6u9pDfbKHhum5oVudr6gGnnwF7pkSXFql+dBwftaP0Mid1fitYA2v3CvhPhNAYAe4ZZ4&#13;
AyUndveytbk3HyjPddfh1lJRtVpzw16p/0aj8Zg8IBh2Ky/u3Xugs392+bXER/dS/QNAX4qVkdl3&#13;
1t15sY2SD7vvqHVz435pE/f6wL06cBco5QHPb7tyNWBErnL7IPgNAoCKcRvcolQ+3YVL+5dH2h7p&#13;
NtrRSjPcPga3adEtwXdfe5lThoft42glAKgAN7vspll/Ppv8U+uymlG7G62zhrYbndg51ubtXbVX&#13;
Q8nv87/GtA4AdKnFzeb67lhXN7zrn33PfZp7n7+gGpv3ui8Y0HbQ7d3ohhMbgZb7Qm3ewUkBAOgy&#13;
rSNp3bCErLLL3bE4zpb7s9v4+GNDLS9vHTPseAKh1qmGHWgVAOiGmaKSF3T4/PkKt7s9qptxWqNc&#13;
gZIgVNnnZ3frdywfQ5TKJK0BAB3iEuDE2pzQ0fvnlTmFlLLt5zIXuuyEoc5u71TQFyt514Lp6UW0&#13;
BgC0Ua1utskfwud1aAZ450y63ca2tERnudMesbbTrVl5Z/rCt1w6ZVoCANoz+Icd2eXvsvOl8kF3&#13;
jwCt0GV9Yq+9nhil5t2deBUU6OyPZBAEgJK59/2BlrvaftmOMqe4i3Roge42MtJ4Uit9cpvTD7tT&#13;
H6Eyy2gBAChBPsM7ot2zuziR73J+v4KBYiI7RErObHegmAeor6f2AcATt9kvUvZTbT73fWWoxVD7&#13;
FQ8alU0H1cSlbQ0atTmBfAEAUJBLwxro7NttHPjvilI5zF1gQ+33BjcYx8q+Kkrk1vbdLChfdfkL&#13;
qH0AWJvZ26h9cluT+yT2m8FY9jRqvkdXkkaWbxVre1bbgoDE/NSdUqDmAWA+g79ubNuum+LyWf8t&#13;
YWpeQq33hzi1y9t2ikTJJUPjy7ag1gFgDtws3B2tas/7WnsWx/r6j0vVHGs5tU2rAVe4vBXUOgCs&#13;
hsuqFyRyTRuObd2WDwAvo8b7fTVA9ol09vfyg4DsD9whAACrECXm6W1amj2Pd/14UJBMPiUfnM8t&#13;
PejMA9uh+tSO1DgA/OdDOB+QI23/UvqlPVrewxEtPMr09KJI2f9X9iVD4Yj8yQUcVDgA5IbqE9u5&#13;
B2Opsy8lfwtTm1HbWJ2wLvU8SLyx3I2B9rfuhAu1DaC/B//xZVuEOvtdyQ/cn5PGF3PlZuixlgtL&#13;
Pnlymbu/gNoG0JdaSX6UXFTqLn8ln63VmhtS25gPlwgqSu1JJb+S+lnUaDye2gbQfw9YZb5XZl72&#13;
fBb3FmoaRUTaHty6DKq0IMB8x6W6pqYB9IuF+cPvc6XezKZlimqGD64vRUruLC9YNadQywD65YH6&#13;
zvI2+5kbanUTUsvwKVASBEl2fYkXCL2dWgbQ44O/fWl5F7Bkv+N8P8oS66nty0xPHabmhdQygN6c&#13;
RdVtEqnsnjIenq0rXzlahZK5PuZ28Je0b8X9biyhlgH01uDvsq2Vd776PJfbnVpGO7jje2UdE3Sv&#13;
GYaX2q2pZQA9QWu9QevIUylXrsq53LuOdnNHWCNtf1hWQLu42VyfWgZQ/dl/Kp8oa/AfENmIGkYn&#13;
uL4XaPl+SdcIf5gaBlBpsTKvKOkB+QNm/ug0rZsbR9qcX9KmwJdQwwAqqZZMPtudyS9h8L/APXip&#13;
YXQDt/8k0vbiUvJZpGZ3ahhApbjl0UEtvy5hp/Tl4eiyzahhdJORkcaT8v55RRn9nVTWACqljPf+&#13;
7sbAWt1sQ+2iG7m+Wc6V1vZD1C6ASohS2buE29NuqWnZhdpFV/f9UbtboLPb/O8H4CprAN3/AHxy&#13;
/sC6yXeClFoqitpFFYRptlcesN7nO8W1uzqb2gXQvQ8/LV8tIU/6ftQsqqSM0y+hkq9TswC686Gn&#13;
5WXeB38l76JmUUV5/z26hBMwL6ZmAXTXw24mR/otXh92iXxtwfT0ImoXVdRsNteJlPme39+J7GZ3&#13;
4oDaBdA9s/9UvuB3pmN/OzDW3ISaRZXNHA+c+LPfWy/tZ6hZAF0y+FvreZnzziCVxdQsekGgJAgT&#13;
udvn70hN2+dSswA6yqXj9X72WZn9qVn0kii1B/jOiUEqbACdfbBpOcrvjn85lVpFT64EJPJFr4Fy&#13;
at5NrQLoiJq2O7kz+j7f+zOrQc/+vuy11xN9rpa51wp52YGaBdD+2X8iX/OY6e++Wt2E1Cp6+ndG&#13;
2TQPmh/w9nuTyBepVQDtnv0/1+/Sv52mVtEXQUBq3+d1QyBZMoFqazQaj4mT7JmhFhNpe3Co7LH5&#13;
g+KkKM1OD5T5ijtPHCbmp/lM+bJBNXFpPpP4ef7f/TB/AHzDHQvK/3p8qMybQiUvyP8+HtCyeWlf&#13;
dnp6kfseHh9iP9Nar0svQD9Y3Gyu727583hq5hLyZQAV4a6zjZWRfLB/T/4LfM7se8EV3lOHarlx&#13;
5s+XY2Jt9g2Syad4+f7avtTf9zT31pLJZ9Mr0FfPAGVqPl8F5L/rL6dWgS60ZEm2qUvhGevs47N3&#13;
hq/wf2XonFPrXu122oepeaELROb7s+Qz9Q38JjaxR9JD0I/yoPwEn7/XbmWBWgW6QCsDmDv7q+Rb&#13;
bpbbqQF/DbfsPTDzGsEePDCyfKu5/Fz5f/tGj9/hCvfqg96CfqR1c2OvwXQqB1GrQIe4wWx2efyc&#13;
IMnu78pBf7XBgPmOWxlws/yV/XwDIhu5a0k9HvtL6TXoZ2FqM39XBmfXrup3F0BJIt3Y1t1aN/vO&#13;
/V9VL4GSv7mbzGI9tX1Zs/9QZZ+n5wB+j9Pm5X+oUaAd0bsyNXcJjjvD3gsD/6PPGGf3u4G6ltjn&#13;
tGb/SXa9p1v+7nBBEz0IcJuCJ3b29ZrQ/Y6STAso0aDOdo21+b9eHPRXVQa1/Npjut+30YuA/5xM&#13;
2GM9bqw9mBoFPBuqT2wXKfspn8d3+q0EiVxTqzU3pDcBD3FXX/t6hRjo7I/NZnMdahXwYObGOzna&#13;
95WefVlS+1/0KODRYmVf5W2VLZV9qFGg6C+lnhyLdPYHBm8vS/+/JGMZsIpVgIED1nOzd0/ZAS+g&#13;
RoECS3KziXsYvL3t/DfL6FnAqkXK7O/tdVvdJtQoMO+lOGm4M7UM2j6LvTiv2oX0LmDV3Lv7QMuV&#13;
fo7zmq9Qo8BcTU8vilJzRCdT9TL7B/p8AqLNfr6Se/m6/wPoaS5ff6jlbAbrMrIMyiXM/oF5TESU&#13;
+Y2fS4LMO6hQYDUCPbEHG/1K3PzHjmRgXvLJyCt9XRLExltgFaJUJgOd/bNCOfvvqVTmQWV/ywMI&#13;
mB+X099XXoCats+lRoFHRdn2pd1yaU8+qN8VaXN+HpB82i3bueuDa/XJofyXdyd3U1/UaDz+Yck9&#13;
3DJh/u9ccqJa3YRxapfnf84h+UPj5Nafo+TO7ggAzP70NGBtnk/5c8DPK7gzqU3gP2f+2h7c0c1+&#13;
idzqfjFnL9iJfd/lPbObeGKPWMlr8z//S4HObmv70r+Sq93ZZnobMH8DWjb3szpp7h0aX7YFNQq4&#13;
wX9mp3/7d8JrudHN0N0xQ98D/hofJvlAHNXNeJTak2Zv+2vDz2tfQ28Dijyr7El+MnDKQdQm+p67&#13;
trfNA/8Kd7ogL6Zb8nO74COfFTwvn118u6xVEHcrGXeTA8XkQfSgp9cAP6A20e+D/2vb904/uy1O&#13;
5Tj3Dr+b66SmZZfWLENl93hO+/sWehzgYRVA24t95AQYXmq3pjbRn4O/Nvu24xY/t5nPXe0Zji7b&#13;
rFoPmca2+YPmQz4uPMrr4JbhYfs4eh3g4XczlYP8HMc1r6M20XeC1Iz6nuGuLMKeuTugsW21Zxt5&#13;
IKDkw4UCgdQcQa8D/HD3kvg41RMq8xNqE302+MvisnfAu1vu4nQy6qlZRx4IhKn5yLwDp0TuqNrq&#13;
B1CBVYBP+9iPVPUJCjBnWjc3zjv9FWUm5YmUPbSXj7q5XOKxth+dRyBwDD0P8B0AmAlPJ5FeSW2i&#13;
T35pstNLfNd/ZS2ZfHa/1OXAmDw1/7k/trpAwL02cEmL6HmA59+/fJLh5fhukn2Z2kTPi5V9VXlL&#13;
/vYsl4WvLx9EeSCQP4hOdMlFVlIvH6XnASVNaJQ5xcfpJJJzoddn/gM+drOvbKNfmNo3U8MLFrgU&#13;
xDNJSmYCAXc/QV7nO1AzQEnPNZfIy8/9HCm1iZ7UaDQeU8Z7/1ZAkcre1PAjVlr01Pat+wfy2Qm1&#13;
AZRHa71u/iy6qXhWQPs+ahO9GSUrOdx/StvsdneUkNoF0NHnm5bTPOxfuoyaRO/NRpPsmd7P+yfZ&#13;
zS4dJ7ULoOPPOG328/FccxcNUZvoJQsjbX/o+ca+O9xVu1QtgG7gBm4fGU3j1FpqE70TGSvzCr9L&#13;
/+beMM32omYBdJNIyQXFr+o276Um0RNcwh931a7XG/xS80JqFkDXTXa0nfbwavPH1CR65BfCvN3v&#13;
pj95J7UKoBuFKhvxcarJnZiiNlFpe+ipJ0Q6+7u3JD+JfHfB9PQiahZAN9Jab+Bjs3Oc2mFqE9We&#13;
/St5l7f0viq7dmh82RbUKoBulj+vzvNwPfAbqElU1shI40nujL6v9/61VBS1CqACAcDRxZ952Sep&#13;
SVT4l8Ae6W/2LydSowAq8exLZdLDM+8iahKV5C60yDvxdZ6O/P11YKy5CbUKoArc6qeHjIB3NZvN&#13;
dahNVE6obNPjmf/nUaMAqsTtWSr67Ktp2YWaROXknfccTwHAOdQmgMpNgrScXXwjoOxDTaJSXNTq&#13;
8dx/TI0CqBqXza/4zYDmCGoS1Yp8lT3Wy5l/bf6P2gRQRZG2Lyqe9Mx+hppExSJfudpTut/dqU0A&#13;
lQwARu1uhQMAZX5CTaIyaol9jqd0v2dTmwCqanGzub6byBQ9AUVNojpRr5LDvSz/cx0mgIoLErmm&#13;
6EqoSy1MTaIqAcAlxa/ClKvJ9w+g6kItPyr6PBxM7TOoSXS9WE9t72fzn7yN2gRQ+QmRltMKvw5N&#13;
s72oSVQh2n2ll7S/yeRTqE0AlQ8AUnNE8aOA9r+oSVRgBUBOJf81AMwGAMrsX3wFwL6ZmkT3d3Yt&#13;
VxSOdpU9lJoE0CMrABPF90SZ91KT6Gp76KknFD/yIv+qJZPPpjYB9IJa3YTFJ0XmFGoS3R3pKrvU&#13;
y+5/AOgRQ/WpHQsHAEn2ZWoSXS3W5u0eNgB+jpoE0CvcNeYeAoAfU5PoRgvzDrokUHJipOQfxZP/&#13;
mDdQpQB6SaTNvQWfjVdQi+gaw0vt1lEqh0U6+4PHW/9c9r9hahdALwmS7HpejaL6s31ll8banhVo&#13;
uc/nwN86/pf/mbVac0OqGUAvCUfkTwWfj9dRi+gId6FFrOVlkcp+5XvQf/hO1+xX1DaAnlsB0HJl&#13;
wcnRLdQi2mq38fHHhsq8KVDZtaUO/P++9jL7PLUOoNfkE6hfFtsEKHdQi2iLAZGN3MAfarmxHQP/&#13;
Q+ku5TBqH0DPrQAouajo61FqEeUO/AMHrBdq+5pAmRvaOvA/FADsTSsA6DX58+28os/H/I9ZSE2i&#13;
FHFqlxd9T1U4A6CWXWgJAL3Gx5XAbi8WNQmvBnW2a5jIuZ0c+Gc3AN6jtV6XFgHQa/LJ1WUFn48P&#13;
UIvwRuvmxnnHOqaM43xr+Y7rMloFQC+KtP1LsWdk9ndqEV6Eqc2Kd0jfAYA5g5YB0KMrALcUOiE1&#13;
In+iFlFIba+9nph3ptO6aeD/d6Yrbd5OCwHoyRWARO4o9gpA/hFqOTmfuH0oTuW4/N8d5U5NxUpe&#13;
Gyp5gUvQVkvscwI9seUCNgvikfKO0nDZpLpx8A90dlvegVNaCUBPBgDF7wKYz+vUu9zdAXn5Rh44&#13;
fNid7ApVNuIuJaIl+ozWeoMwlQ/mnWFFVw38Su50iX/c6QP3HWkpAD1qYbc8d2dTEn+pledFmRon&#13;
C3qYO1ZXePepz86XyN2u80XaPt9lGaSFAPS6RqPxmG5ceZ1dff1n6xSYsodGaTawgNcHvSHWZt9Q&#13;
Z7d3vpOZe0MlX89n/C+OGo3H0zIA+ol77nVrAPCogMDdWqjsp1xSNi5mq6BWNr+ZJf9OD/zn553o&#13;
oHB02Wa0CoC+fSZr2bwqAcDDVmzzCWSs5LOxMsKrggpwg22g5fud6zTZ3wNt3k9GPwCYUaubbaoY&#13;
ADxsZUDJ3yIlHwhSWUyLdqE4yZ4ZjshVHeogV+RR4ivcJUK0BAA8JBjLnlb1AODht7aan4TavtTt&#13;
baB1u2HmX5d6lMitnegIcWrtAjaOAMDKVwC07NJLAcB/lOvCVN66ZEm2Ka3cqZm/Nvu6PPptf79f&#13;
N+PUPgCsYYKWmt17NACYKS7JkZIPuFcdtHY7B//UvK6t5/tVdnmoxVDzADA3gZKgpwOAhycgOn5o&#13;
fNkWtHr5M/+3t28DiLkhH/hf2Ww216HmAWDu8mfokn4IAB62IpCad3Psu7QOZY9s04z/AZdKcg89&#13;
9QRqHQDmr7VHq58CgP/IKZBPHF++YHp6Eb3AXzR5VHsa0F4cajtIjQPA2pu9h+Vf/VoCJRfFqR2m&#13;
JxQd/FM5rB2Z+9znuIRC1DgAFH5uT/ZzADBbVuSBwIlcSLTWM3/7xjYs+f/K7ViltgHA0wpAKvsQ&#13;
ADy4GpBd6wIiesU8uPcopZ/pT81HyP0MAN4nby9i8H9ESbPTWQ2Y0/KRmQi03FfibVC3uYsfqGkA&#13;
8M9NrAI9seXAyPKthpfarWdSAze2DZLJp7gyMCZPHapPbBfrqe3DRHZwmQOH6lM71rTdKUrM08PR&#13;
iZ0HU/uMQZ3t6m7sc9f4Rsqm7ir1KLUHxFre5lKwR0n25UE1cWnrmV6FjIIzVxMvoYescvDPBlpH&#13;
Kko81+86FjUNAL3DBRwuWVv+nD8kL6flAcNvu/SkwP35JPcIjpg/atmosa1LtVjeWc3sy1o3N6am&#13;
AaD3uQQ9oTLL4lSOc5O/rgoGlPneyEjjSbTSg0tGSi4qscKP5mwmAPRxQFCf2C7U5sBQy9llvmae&#13;
e5n4s8uayPKNNmeUldjHNThdHwDwIHeVvNtPkI8T57Q1vfwj9wUkcnekzP592xBlHfdzFes2jdDV&#13;
AQCrnIDOXF98lMvk17FAQMs7+67ia/XJoVKWYlq3NdmUrg0AmAuXDC5U8oJQm190Jgiwn1ncbK7f&#13;
P0sw2v7FfyVmt3PUAgCw1qsCqRkNdPbtDrwSOHd42D6u9wMALV8tY/AnBzMAwMs4pbKRSMkP2hkE&#13;
xFouXLIk27SHB39zYBl3M8faaLosAMCnSNml+RhzWbuCAJfgyB1j7L3Bf3Ri5zyiutPz4H9fqMXQ&#13;
TQEAZXDJe6JUDoqS7OY25Qr4jUtw1Ds1OD29KEzMT0tYMnkZ3RMAUDa3PJ8Pzqe06XXAL91+ud6Y&#13;
/St5vf8oSQ6nSwIA2sltFMzHn9+XvxJgfx41Go+v9uCfyA6+l/7dsQm6IQCgEwZENoq1/Wgb8gT8&#13;
qNK31+aD/7d8R0Va6w3oggCATopTa/Nx6aZyVwLkzEqmtI+0eZ7XTX/K3OCulaTbAQC6YjVgZPlW&#13;
bqZe8mrAMdVbIlFytc/8/u7dC90NANBV453LJpjKB0vdGKjsq6oz+0/NEX4rwB5JNwMAdKswNS/J&#13;
J6v3lBEABEl2fyVS3dfqZptAZ//0uRHCncWkewEAunr8S0UFWm4pJQhQ5oZIN7bt6gqIdfZxf8l+&#13;
stvcSQK6FQCgEkGAll0inf2hnNcB5vyuvTwoTrJntpYq/CVE+G+6EwCgSoaX2q3zMeyKcoIA+6Gu&#13;
/KHdkQV/1/vab9KNAABV5PL652PiJeVsCjTSXcseyeSz8y+2wtPZxztjPbU9XQgAUFUuhXCg5KIS&#13;
kgTdGI3aJ3fNDxqn8gWPP+AhdB0AQNUNaNk8UtnlJQQBZ+d//MLOD/5J9kx3Vt/Tmf/Ltdbr0m0A&#13;
AL3A7QkIR+SqEoKAV3b8h/N6S5KyS+kuAIBeMlSf2tF76uBEbnXBRed+qPFlW4SJ3O3pnONX6CYA&#13;
gF4UKlMLtNzleSXgSx37gWJtp32l+41GJ59FFwEA9Ko4lX28bZh/8FRAape3/QdxCQlmshN5OfN/&#13;
Kl0DANDr8jHvKL+rABN/bvvVwbORjI/sRvcO1Se2o1sAAHqdS2+fj3vf8RoEpHJYewOARL7rZ/nf&#13;
nEKXAAD0i9bxQG3/4m8DvdzZtrsCgrHsaT7eY7jUwTVtd6I7AAD6SayN9naEfqac1pYvnkcbh3v6&#13;
wp+jGwAA+jIIUOa9HgOAFYM627X8FQAtV/rZvTgZ0QUAAP1oYOCA9UJtfuHxVcCZ5Q7+SgIvWYwS&#13;
81OaHwDQz2qJfU4+qb7P1yqA+/NK+7Khssf6Ofpn9qPpAQD9zuergFDLV8tbAdDZHwtv/tNyi9Z6&#13;
A5odAND3qwC15oYe7wtYEaSy2P/sPzW7e5r9n0CTAwAwO75qmfK1CpAHAJ8o4Quad3gJAOqyJ80N&#13;
AMBD/OXXye4J9MSWXr9cpOzPPST++Q3NDADAw7ljfC4/jpeJtpJ3+Zv9jy7bzEfyH3eBEM0MAMBK&#13;
JtqpfNrTDbs3uGOGfpYmfOX+59Y/AABWaqg+taO3Y4Gp7O0pKrEnedj9fyXNCwDAaibcOvu4pyOB&#13;
Z3v5Qj6y/7kcAjQtAACrXwXwck9A/mcUvm13ZKTxJE/H/zRNCwDA6rm0vl5WAVJ5a7Evksqkj+sK&#13;
Fzeb69OsAACsYdzVEnu6H+CSQl8k1PKewl8isd+kSQEAmGsQYM73sgowOrFzgaUI873iyxD2zTQn&#13;
AABzHnv397MKYA8tshRxU/Grf+0wzQkAwNwMiGwUKflH8SDAXrxWX2B4qd26+Iebe7n8BwCA+Ym1&#13;
/aiPVYCBkeVbzf/DlTSK7/6XC2lGAADmJx9Dl/h5DWD2n38AkJo3FE9JKCfSjAAAzNvCIJFriufh&#13;
yT7foeUH82raEACAtVoFON5DJt5bFkxPL5pfAODhesI88hihCQEAmD+3id7PXTx2t3l9cDgifyp+&#13;
BnHZZjQhAADz12w214l09ncPlwMdNK8PLXo3cWvZAQAAFFgFkC8U3pCv5LNz/kA/RwDlZzQdAABr&#13;
z0dSILeiP+cPDLUdLJ4ASL5A0wEAsPbCRHbwsQ9gaHzZFnNbclBGiu88NO+n6QAAKCZQ2bWFx+TU&#13;
jM5tySG1/8UdAAAAdJ6PfQChktfP8cOKJwEKU/MSmg0AgGLyMfV/iq8AyCfm9mFKDi++69AIzQYA&#13;
QMEAQNm0bRvz8wDgAyQBAgCg8wa0bO4lI+BcxDr7eNszDwEAgJVPzLX5a+GbAceam6z5g1L5dNEP&#13;
qmm7E00GAICXAOA7Hvbm7b7GDwq0OaP4VcBT29NkAAAUF2o5uXAAoGVqzQFAIl8svAJQN9vQZAAA&#13;
eAgAUnmrh5TAr13jB8XanlX4XcPI8q1oMgAAPAQASl5QfGXeTs/hg7LPF047WJ/YjiYDAKC4Wiqq&#13;
+FFA+6E1fpCPTYBRYp5OkwEAUNygznb1kKL/jDV+kI9jgEEqi2kyAACKC/TElsVXAMx31vhBYWo+&#13;
UviD0myAJgMAoDit9boeAoDz1xwAKHts8c0Gk2M0GQAAfuQD+L3FjgGaX6zxQ2ItbyseAJh9aS4A&#13;
APwIdXZ7obFZZb+aw4eYAz0sNbya5gIAwNMKQJLdXGwFIPvdmgMAZZvFMw6Zd9BcAAB4CgAK3gcQ&#13;
K7l6zR/i4+rB1J5EcwEA4Eeo5cZiY3P2hzV+iI/zhnM6bgAAAOa2ApDIrQXH5ivW/CGNxuMLvwIY&#13;
katoLgAA/Ai03FVsE6BcMtcPuqXgbsN7FkxPL6LJAAAobGE+rj5QMAC4YG4BgJKLit8HMLUjbQYA&#13;
QDFLlmSbFl6ZT+TcOX1YHimcWfjDlFlGswEAUExN25083AZ41twCAC1HcxQQAIDOy8fUuPiYLCfP&#13;
6cNiLS8rfBJAyZk0GwAAxcSptcVP58lRc/uwuuxZ/OrB7I80GwAARQMA8zoPAcAhc/owrfUGQZLd&#13;
X/QDB0aWb0XTAQBQJACQ4zzc0bPfnD/QJQ3wkBDoeTQdAABrLx9Pv1Q4AEjt8Jw/MNDmDA9LDsfT&#13;
dAAAFAgAVHZ50fF4eKndeh4Rhz24eABgL6bpAABYO41G4zGBlvsK5gC4O/+jFs75Q0NtBz2sAKwI&#13;
9MSWNCEAAPOXj6F7FD+VZ387rw/VWq8bJXJH8Q82+9OEAADMX5ial3iYjH9p3h+c/5/OKb7xQL5A&#13;
EwIAMH+Rkg97yMtz+Np88OGFPziRW907DJoRAID5GVQTl3bkRF6tPjnkYenBHT+wNCMAAHM3MNbc&#13;
pPAtgHkZTO0z5v3hzWZzncJXA7dyENvP0JQAAMxdrKThISvvbQumpxet1RcIVfZ5H1/AZRekOQEA&#13;
mJtIyQc8jL/fXvsIxMfFQDM5AZ5PcwIAMDeBlis7ejPv0PiyLXzcCxAp8z2aEwCAOYy99akdvezB&#13;
05NjBZchzPd8JAWqabsTzQoAwOrFqXlD4eX/fPKudXPjYgFAag/wEYmEWt5DswIAsKaJt1zgYcz9&#13;
UeEvMqBl86K5iGdyAmQ312rNDWlaAABWMfvXU9v7Wf6Xt/mKRr7lZTNgKgfRvAAArGK81fK/XgKA&#13;
uuzp5QuFqXmhn9cA2e/W+kwiAAA9zsfu/yDJrl8wnxsAV6d1JaGSv3laBdibJgYA4OFibbSnPXcn&#13;
e45KzPt9fLE8urnMW2QCAECPcJlzvUy0lV3qNwBIZbGfpECtWwL3oakBAHhwkj2xZaSyezzM/m90&#13;
qfxLiE7kRz4CgEEtv2YvAAAAM6LUvNvTJPtjpXzBOLXLfa0CRMrsT5MDAPrdbuPjj/Vx+V7rNXvd&#13;
JuV8y3zW7nby+wkCzF8LZykCAKDiQiWv97TH7spylym0ebW3VQAtR9H0AIC+nv0rc4On5D9vKfXL&#13;
Dohs5LL6eTmqkMjdwVj2NLoAAKAfuUHb06r6vdGofXI7vvDbfK0CFLqvGACAihoYa27ia0IdJPLF&#13;
tnxp9+4+/8CbfAUBobYvpSsAAPpJqOyxvsbRWn1yqI1f3LzJ2yqAkr8NjS/bgu4AAOiLwX90YufW&#13;
sr2fcfS8tn55d7Nf/qHXeUsOpO1ZdAkAQD+IEvmatw31nUix727383giwO1g/G+6BQCgpwd/bZ7n&#13;
7xV6hy7Zc+kGI5X9ylsQkMgdblmE7gEA6EV76Kkn+Fw9j5S8uGM/TKwnx3yuAkTK/tzdPkg3AQD0&#13;
3Ow/tSd5HDOvKCXv/3wEynzFZxDg/SpDAAA6LB/bjNcJs7bP7/gPVdN2p0DLXewHAABgJTP/Uftk&#13;
d1Ofvxw6clnXXKoXpvJWr6sAidxdq5uQbgMAqLiF+eB/ts8xMkjNaNf8dFrrdQfVxKVef8Akuz7W&#13;
U9vTdwAAlZ39K3uo17FRma903Q8ZKAnyQft+nz/ooJZfu12TdCEAQNXUtH1upLIH/G2Uz+5xr927&#13;
M9LRcozfTQ6tdx3f52QAAKBK3GV3LtOt1/1xyry3a39gN1C7zQm+g4Aoyb7sXjPQpQAAXT/z32uv&#13;
J0bK/Mbr3rgRucpl4e3qH3xQZ7v6PhUwk+4wO71rdj0CALASi5vN9cNEzvU9Brq8O5WogDg1r/Me&#13;
ALTef5hTCAIAAF0pH5/cZNX/4C+nVqoevF528PByWsezHwEA8Mhxz2+mv9kTcXKNe6VQqYpYsiTb&#13;
NFLy+3JWAuRMt8xCdwMAdMXgX8Im+LysCOtSr2SFBHpij0Bn/ywpCPjW8LB9HN0OANBJcSrHlbTi&#13;
fXTFoyL7opIqxgUBl9TqZhu6HwCgAxbmY9HHyhnj7MU9sdJdYnTUej8SpmZ3+iEAoF0GBg5YL9T2&#13;
M+WMbdnfh+pTO/ZGTbmdkVq+VFYQEOrs9lDZJl0SAFA2l6E2H3vOKWlMW+FuDuytaElko1jLhaW9&#13;
Dph9X8IJAQBAWdwdNZHKLi9vHLNH9mTFuSsRA539seQg4JyBkeVb0U0BAH4H/8mxKMluLm81W77a&#13;
07luosQ8Pf9Brys5CLgpSmWS7goA8DP4y1t8X3j38Fv+5KLdxscf2/MV2UoX7PmShFVU6Inu1QNd&#13;
FwCwNga0bO5m5mWOVbGSq/tq5TrUdjBS8o+yg4BIZ3+IlF1KNwYAzG/WPzkWafPXUseoRG6tJZPP&#13;
7rvKzX/4JYHObis/CJjJpVy5dIoAgLbTurlxrM0Jbkd+yYP/HbX65FD/RljpZBRouaUdQYDbGxBq&#13;
cyAnBQAAKx2TlDTcknzZ41GYyN1Bakb7vsJdIp9Qy41tCgL+NagmLo2UTenqAABnYEyeGqfyhfaM&#13;
Q+beOLWWWp9V07KLy+rXriCgFYEp+Xpclz2pfQDo07Gn1tww1na6tHtrVjLzj5URav4RIt3YNtBy&#13;
WTuDgJn9AfasvtyEAQB9yuXZz2firw5Udm3bxhsld7qNhdT+qoKARuPx7qa/dgcBrfSLbkVAG00r&#13;
AEDvDvyhlpeHI/Knto4xM6feltACa6C1XjdvoJM7EAQ8WH6WBwL7NRqNx9AaAFB9A2PNTcLUvrmt&#13;
M/6H0vv+hVXmeYqVvNZtluhYIDCT8vH4aHTyWbQGAFRPa5N5aj7SnrwzK7/Wd3ip3ZqWWJsgILXD&#13;
pSdimFsegQvzhnxjkEw+hVYBgC6e7bey95kD23AB3ZrKN1xOAVqkSGOOLN8q1PKjTgcBD+0VMD/J&#13;
/3pIkMpiWgcAumXQty/Nx4qzAy33dXqciFLz7p6+2Ked3L4Ad01ipLIHuiQQ+HcOZ3fnQKhsk2Ue&#13;
AGjfmFCrmzBS9tBIm/O7ZWxw2W3zSeIyWqgEocpG2r57c36N7647Pi2PRF9TS0UtWZJtSqsBQDH5&#13;
YL9NPqueCLV5R5zId10a3W57/sdafuly2tBaZS71jDU3idLs9G4NAla2AzRK7DdjbT/qdqG61QIX&#13;
uQZj2dPcsUdaFEDfP9dFNhqqT2wXKAncM9Jdvxul9qT8GXrO7Ibsrn7Oh6l8UGu9AS3ZJi6VYruz&#13;
B5ZzPjS7x210DEfkqvzvL88j3F+0lrSS7McUCoXSC2V279R57tmWD/IXuWddpOT3rWe4kjur+vx2&#13;
aezziV3GiNwBbgbtZtal39pEoVAoFMrDy+eGxpdtwUjc6UBAy5I8iryEDkmhUCiUsl/rks+/20xP&#13;
L4pSe0A7bxakUCgUSn+UIMnuj7U5gb1b3b5JUMsxM+/W6bQUCoVCKbjDP5HvDupsV0bYygQC8lR3&#13;
p0AXJIWgUCgUSiU3+WW/y8eRKUbUihqqT+0YKfspt3xDh6ZQKBTKXJK8uVsDXcIhRtEeUNN2J3cp&#13;
RKCzf9LBKRQKhfKo9/wqu9YlcnPXBjNq9uKrAS2bR6kcFihzAx2eQqFQKC6Ln7tLYGDggPUYJfuA&#13;
y9oUa7NfmMi5/AJQKBRK35UVgc6+7VIM50PCQkbFPhWOTuwcpfZ9rApQKBRKz5fr3G19Lh07ox/+&#13;
rdlsrhPrybFWDuoK5J+mUCgUyhxKIncE2pwRpTLJxj7M5RXBujVtn5t3no+5HaH8ElEoFEqljvDd&#13;
Hik5M05lH3fZEKMa1lo0OvmsSNs3uoQQnCSgUCiULizK/CYf8I9zK7ns5Ec5JwkGDljPXekbp+YN&#13;
LsIMkux6fvkoFAqlnYN99kA+KbvYpefNy775M3kbRid0JigYWb5VVDfjecc8JErl065jBjq7jV9U&#13;
CoVCKXg+X8st+V/Pc7e/htocGCpT07q5MSMPuvyEwbLNQm0HQ2Wbead9U96Jj4m1nBol8rXW3dha&#13;
rnTJJ9ymw5l3VtxhQKFQengwd1lZE7nDPfOCRK5x6XYjJRfMPBOzT+b/zdGzE6m947rsuYeeegIj&#13;
CfrJQrcJkUKhUHqt8HgHAAAAAAAAAAAAAAAAAAAAAAAAAAAAAAAAAAAAAAAAAAAAAAAAAAAAAAAA&#13;
AAAAAAAAAAAAAAAAAAAAAAAAAAAAAAAAAAAAAAAAAAAAAAAAAAAAAAAAAAAAAAAAAAAAAAAAAAAA&#13;
AAAAAAAAAAAAAAAAAAAAAAAAAAAAAAAAAAAAAAAAAAAAAAAAAAAAAAAAAAAAAAAAAAAAAAAAAAAA&#13;
AAAAAAAAAAAAAAAAAAAAAAAAAAAAAAAAAAAAAAAAAAAAAAAAAAAAAAAAAAAAAAAAAAAAAAAAAAAA&#13;
AAAAAAAAAAAAAAAAAAAAAAAAAAAAAAAAAAAAAAAAAAAAAAAAAAAAAAAAAAAAAAAAAAAAAAAAAAAA&#13;
AAAAAAAAAAAAAAAAAAAA+sf/B8btNSKCk6vCAAAAAElFTkSuQmCC</y:Resource>
      <y:Resource id="2" type="java.awt.image.BufferedImage">iVBORw0KGgoAAAANSUhEUgAAAgAAAAIACAYAAAD0eNT6AAANYUlEQVR42u3d3YuUZRzH4ce1NFKq&#13;
RaOiUpESiQotJCkxNTETodBOevEgBMFCyCzIjCAo6EQ0MVlKUgqjkLSwDixPIkgyC6FEEBHMjMr3&#13;
TDDLrd+wailD7uzMtPPc93XB9w/ofu6d+bTqTFEAQHWDY/NjG2M/xU7F/rKW3++xXbE1sZmxi7r7&#13;
wMfEno0ti3WYmVm3VnnNnBcbmsAbf7/Yi7Hj3kyT2O7Y/f/1wEfGPndQZmZ1rfJ/ya/HBpT0zf+q&#13;
2BbPMcktjbWd/8Bvix12OGZmDdtXsYEle/Nvj2337JJex78f+KWxPQ7FzKzhW1WyANjgmWWx2Wce&#13;
+HyHYWbWlHXGRpTkzX+G55XNKr/xH1R56F84DDOzpm1hSQJgq2eV1V6oPPQjDsLMrGlbU4I3/5Ge&#13;
U3bbWTgEM7Ombn0JAmCu55TlHIKZWRP3QQkCYKnnJADMzCy/AHjTcxIAZmaWXwCs9pwEgJmZCQAT&#13;
AGZmJgBMAPyz/bEfzMwy23EBYLkHwNQCID8rBYAJAAABIABMAAAIAAFgAgBAAAgAEwAAAkAAmAAA&#13;
EAACwAQAgAAQACYAAASAADABACAABIAJAAABIABMAAAIAAFgAgBAAAgAEwAAAkAAmAAAEAACwAQA&#13;
gAAQAAJAAAAIABMAAgBAAJgAEAAAAsAEgAAABIAAMAEAIAAEgAkAAAEgAEwAAAgAAWACAEAACAAT&#13;
AAACQACYAAAQAALABACAABAAJgAABIAAMAEAIAD+zwA4Guuwlt5aAQAgABodALtcgZY3SgAACAAB&#13;
IAAEAIAAEAACQAAACAABIAAEAIAAEAACQAAACAABIAAEAIAAEAACQAAAAkAAIAAABIAAQAAACAAB&#13;
gAAAEAACAAEAIAAEAAIAQAAIAAQAgAAQAAgAAAEgABAAAAJAACAAAASAAEAAAAgAAYAAABAAAkAA&#13;
CAAAASAABIAAABAAPQqA3bHB1tKbIAAABECjA8DSmgAAEADeEAWAAAAQACYABACAADABIAAAASAA&#13;
TAAACAABYAIAQAAIABMAAAJAAJgAABAAAsAEAIAAEAAmAAAEgAAwAQAgAASACQAAASAATAAACAAB&#13;
YAIAQAAIABMAAAJAAJgAABAAAsAEAIAAEAAmAAAEgAAQAAIAQACYABAAAALABIAAAARA1gGwNzbW&#13;
WnqzBACAAGh0AOxyBVreKAEAIAAEgAAQAAACQAAIAAEAIAAEgAAQAAACQAAIAAEAIAAEgAAQAAAC&#13;
QAAIAAEACAABgAAAEAACAAEAIAAEAAIAQAAIAAQAgAAQAAgAAAEgABAAAAJAACAAAASAAEAAAAgA&#13;
AYAAABAAAgABACAABAACAEAACAABIAAABIAAEAACAEAA9CgADsaet5becgEAIAAaHQCW1gQAgADw&#13;
higABACAADABIAAABIAJAAEACAABYAIAQAAIABMAAAJAAJgAABAAAsAEAIAAEAAmAAAEgAAwAQAg&#13;
AASACQAAASAATAAACAABYAIAQAAIABMAAAJAAJgAABAAAsAEAIAAEAAmAAAEgAAwAQAgAASAABAA&#13;
AALABIAAABAAJgAEACAABIAJAAABIABMAAAIAAFgAgBAAAgAEwAAAkAAmAAAEAACwAQAgAAQACYA&#13;
AASAADABACAABIAJAAABIABMAAAIAAFgAgBAAAgAEwAAAkAAmAAAEAACwAQAgAAQAAJAAAAIABMA&#13;
AgBAAJgAEAAAAsAEgNcBQAAIABMAAAJAAJgAABAAAsAEAIAAEAAmAAAEgAAwAQAgAASACQAAASAA&#13;
TAAACAABYAIAQAAIABMAAAJAAJgAABAAAsAEAIAAEAAmAAAEgAAwAQAgAASAABAAAALABIAAABAA&#13;
JgAEAIAAMAEgAAABIABMAAAIAAFgAgBAAAgAEwAAAkAAmAAAEAACwAQAgAAQACYAAASAADABACAA&#13;
BIAJAAABIABMAAAIAAFgAgBAAAgAEwAAAkAAmAAAEAACwAQAgAAQAAJAAAAIABMAAgBAAJgAEAAA&#13;
AsAEgAAABIAAMAEAIAAEgAkAAAEgAEwAAAgAAWACAEAACIBe3dHYstiU2LWx9tiNsUdiG2KdAkAA&#13;
AAiAtPZObNAFzmJMbIcAEAAAAiCNvVTDeVwe2ywABACAACj33uvBmVwZ+1EACAAAAVDOHTv9Zt4T&#13;
jwoAAQAgAMq5FXWcS9/EfwsgAAAEQLJvcvf1wjMXAAACQAD08q6v82yeFAACAEAAlG/tdZ7NYwJA&#13;
AAAIgPJtWJ1ns0AACAAAAVC+PVDn2bwlAAQAgAAo31bXcS79YwcEgAAAEADl24nY0B6eyxMJn4sA&#13;
ABAAyX8S4CexthrPZFjssAAQAAACoNx7o4YIuCa2PYMzEQAAAiCLb7/bFBt+gbOYHtuXyXkIAAAB&#13;
kMUbXmUni64vB5oVGx0bERsXeyq2JaNzEAAAAiCrADABACAABIAAEAAAAsAEgAAAEAAmAAQAgAAw&#13;
ASAAAAEgAEwAAAgAAWACAEAACAATAAACQACYAAAQAAKgBfZd0fX9AItj78Z+EQACAEAApLsdsfFV&#13;
zqBfbF7suAAQAAACIK1VPuv/sgucxR2x3wSAAAAQAGnsWOy6bp7HHAEgAAAEQBpbUsN59I19LwAE&#13;
AIAAKP8m1ngmHQJAAAAIgPJvaI1n8owAEAAAAqD8u6HGM1kkAAQAgAAo/2bWeCZrBYAAABAA5d+6&#13;
Gs6jvcjjnwIKAAABkPybXWdsUjfPY0XhnwEKAAABkMwOxG6/wFksyOQsBACAAMjqo4BPxF4uzv1Q&#13;
oD6xsbGPMjoHAQAgALL9NsA9sW9jhzL97xcAAALA1+MKAAEAIABMAAgAAAFgAkAAAAJAAJgAABAA&#13;
AsAEAIAAEACWdAA8HhtlZpbZ1gkAyz0AzMxMAJgAMDMzAWACwMzMBIAJADMzASAATACYmQkAAWAC&#13;
wMxMAAgA640A6HQIZmZN23oBYK0aAAcdgplZ07ZSAFirBsDHDsHMrGmbLQCsVQNghkMwM2vKjsSu&#13;
EADWqgFQsdFBmJk1fHOLchAAGQdAe2yzwzAza9heKcpDAGQcABX9Ys/FfnYoZmY93texaUW5CIDM&#13;
A+CMttitRddX/k637PagH4q6ts0dynaTY0OKchIAAgCKgX4o6tomVwgBYAIAASAAQACYAEAACAAQ&#13;
ACYAEAACAASACQAEgAAAAWACAAEgAEAAmABAAAgAEAAmABAAAgAEgAkABIAAAAFgAgABIABAAJgA&#13;
QAAIABAAJgAQAAIABICBABAACAA/uwIABIAAQACYAEAAmABAAJgAQACYAEAAmABAAJgAQACYAEAA&#13;
mABAAJgAQAAIABAAJgAQAAIABIAJAASAAAABYAIAASAAQACYAEAACAAQACYAEAACAASACQAEgAAA&#13;
AWACAAEgAEAAmABAAAgAEAAmABAAAgAEgAkABIAAAAFgAgABIABAAAgAEAACAAFgAgABYAIAAWAC&#13;
AAFgAgABYAIAAWACAAFgAgABYAIAAWACAAEgAEAAmABAAAgAEAAmABAAAgAEgAkABIAAAAFgAqAs&#13;
ro6NiY1NbBP9UNS1LQneicpGxQb4sRcAJgBy9lBsm4tjGe5kbH3sZi8DAsAEQE76xt52YcyKE7GH&#13;
vSQIABMAuVjispid3Z+xu70sJGOVOy0AqO6WWKfLYnbOtsf6eHlIwmvuswCgulddFLOqG+/lIQlP&#13;
u8sCgOq2uihmVbfQy0MS7nSXs9t+1757drssZlW32MtDEtpie93nrNbh2nfPNy6LWdUt8vKQjAXu&#13;
c1Z/iXekK989/oKMWfVN8vKQjP6xHe50Flviunff6MK/AjA7fzuLrs/HIB2Vf/H0q7ud9L48HXvU&#13;
YIWLY3Z2p2JTvCwk6a7YIXc82Tf/Qa547S6Ove8CmRV/xOZ4SUja8Nhn7npSf+Zf+bX/Ja52z1U+&#13;
9GR2bJcLZRmu8sdgnxZdX4JFHqbFPowdd/9LuX2x5bERrnJj3RibHJtqlvjuLbo+8GewH/usfwN6&#13;
U2zC6dc9a93dExsXG+LaAgAAAAAAAAAAAAAAAAAAAAAAAAAAAAAAAAAAAAAAAAAAAAAAAAAAAAAA&#13;
AAAAAAAAAAAAAAAAAAAAAAAAAAAAAAAAAAAAAAAAAAAAAAAAAAAAAAAAAAAAAAAAAAAAAAAAAAAA&#13;
AAAAAAAAAAAAAAAAAAAAAAAAAAAAAAAAAAAAAAAAAAAAAAAAAAAAAAAAAAAAAAAAAAAAAAAAAAAA&#13;
AAAAAAAAAAAAAAAAAAAAAAAAAAAAAAAAAAAAAAAAAAAAAAAAAAAAAAAAAAAAAAAAAAAAAAAAAAAA&#13;
AAAAAAAAAAAAAAAAAAAAAAAAAAAAAAAAAAAAAAAAAAAAAAAAAAAAAAAAAAAAAAAAAAAAAAAAAAAA&#13;
AAAAAAAAAAAAAAAAAAAAAAAAAAAAAAAAAAAAAAAAAAAAAAAAAAAAAAAAAAAAAAAAAAAAAAAAAAAA&#13;
AAAAAAAAAAAAAAAAAAAAAAAAAAAAAAAAAAAAAAAAAAAAAAAAAAAAAAAAAAAAAAAAAAAAAAAAAAAA&#13;
AAAAAAAAAAAAAAAAAAAAAAAAAAAAAAAAAAAAAAAAAAAAAAAAAABAyf0NlHEfZz0HOQcAAAAASUVO&#13;
RK5CYII=</y:Resource>
      <y:Resource id="3">&lt;?xml version="1.0" encoding="utf-8"?&gt;
&lt;svg version="1.1"
	 xmlns="http://www.w3.org/2000/svg" xmlns:xlink="http://www.w3.org/1999/xlink"
	 x="0px" y="0px" width="36px" height="57px" viewBox="0 -0.741 36 57" enable-background="new 0 -0.741 36 57"
	 xml:space="preserve"&gt;
&lt;defs&gt;
&lt;/defs&gt;
&lt;linearGradient id="SVGID_1_" gradientUnits="userSpaceOnUse" x1="230.1768" y1="798.6021" x2="180.3346" y2="798.6021" gradientTransform="matrix(1 0 0 1 -195.2002 -770.8008)"&gt;
	&lt;stop  offset="0" style="stop-color:#4D4D4D"/&gt;
	&lt;stop  offset="1" style="stop-color:#8D8D8D"/&gt;
&lt;/linearGradient&gt;
&lt;rect y="0.943" fill="url(#SVGID_1_)" width="34.977" height="53.716"/&gt;
&lt;linearGradient id="SVGID_2_" gradientUnits="userSpaceOnUse" x1="224.6807" y1="798.6021" x2="200.6973" y2="798.6021" gradientTransform="matrix(1 0 0 1 -195.2002 -770.8008)"&gt;
	&lt;stop  offset="0.0319" style="stop-color:#848484"/&gt;
	&lt;stop  offset="0.1202" style="stop-color:#8C8C8C"/&gt;
	&lt;stop  offset="0.308" style="stop-color:#969696"/&gt;
	&lt;stop  offset="0.5394" style="stop-color:#999999"/&gt;
	&lt;stop  offset="0.5501" style="stop-color:#9C9C9C"/&gt;
	&lt;stop  offset="0.6256" style="stop-color:#B0B0B0"/&gt;
	&lt;stop  offset="0.7118" style="stop-color:#BEBEBE"/&gt;
	&lt;stop  offset="0.8178" style="stop-color:#C7C7C7"/&gt;
	&lt;stop  offset="1" style="stop-color:#C9C9C9"/&gt;
&lt;/linearGradient&gt;
&lt;path fill="url(#SVGID_2_)" d="M5.497,0.943c7.945-1.258,16.04-1.258,23.983,0c0,17.905,0,35.811,0,53.716
	c-7.943,1.258-16.039,1.258-23.983,0C5.497,36.753,5.497,18.848,5.497,0.943z"/&gt;
&lt;path fill="#515151" d="M5.497,14.621c7.995,0,15.989,0,23.983,0c0,13.346,0,26.693,0,40.037c-7.943,1.258-16.039,1.258-23.983,0
	C5.497,41.314,5.497,27.967,5.497,14.621z"/&gt;
&lt;path opacity="0.43" fill="#565656" d="M5.497,4.745c7.982-0.628,16.001-0.628,23.983,0c0,2.707,0,5.413,0,8.12
	c-7.994,0-15.989,0-23.983,0C5.497,10.158,5.497,7.452,5.497,4.745z"/&gt;
&lt;path opacity="0.43" fill="none" stroke="#4D4D4D" stroke-width="0.0999" stroke-miterlimit="10" d="M5.497,4.745
	c7.982-0.628,16.001-0.628,23.983,0c0,2.707,0,5.413,0,8.12c-7.994,0-15.989,0-23.983,0C5.497,10.158,5.497,7.452,5.497,4.745z"/&gt;
&lt;polygon opacity="0.43" fill="#565656" stroke="#4D4D4D" stroke-width="0.0135" stroke-miterlimit="10" enable-background="new    " points="
	6.496,5.746 9.869,5.606 9.869,6.661 6.496,6.799 "/&gt;
&lt;rect x="31.307" y="2.517" fill="#E7ED00" stroke="#717171" stroke-width="0.1926" stroke-miterlimit="10" width="3.692" height="1.505"/&gt;
&lt;rect x="31.307" y="5.8" fill="#C8FF00" stroke="#717171" stroke-width="0.1926" stroke-miterlimit="10" width="3.692" height="1.507"/&gt;
&lt;linearGradient id="SVGID_3_" gradientUnits="userSpaceOnUse" x1="29.4414" y1="35.1235" x2="5.4995" y2="35.1235"&gt;
	&lt;stop  offset="0" style="stop-color:#808080"/&gt;
	&lt;stop  offset="0.1907" style="stop-color:#828282"/&gt;
	&lt;stop  offset="0.2955" style="stop-color:#8A8A8A"/&gt;
	&lt;stop  offset="0.3795" style="stop-color:#989898"/&gt;
	&lt;stop  offset="0.4524" style="stop-color:#ACACAC"/&gt;
	&lt;stop  offset="0.5175" style="stop-color:#C5C5C5"/&gt;
	&lt;stop  offset="0.5273" style="stop-color:#C9C9C9"/&gt;
	&lt;stop  offset="0.5914" style="stop-color:#C9C9C9"/&gt;
	&lt;stop  offset="0.9681" style="stop-color:#C9C9C9"/&gt;
&lt;/linearGradient&gt;
&lt;path fill="url(#SVGID_3_)" d="M5.5,14.822c0,13.22,0,26.438,0,39.66c7.931,1.256,16.012,1.256,23.941,0c0-13.222,0-26.439,0-39.66
	C21.461,14.822,13.48,14.822,5.5,14.822z M28.396,18.703c-0.74,0.01-1.482,0.02-2.225,0.029c0-0.951,0-1.901-0.001-2.85
	c0.742-0.003,1.483-0.005,2.224-0.008C28.396,16.817,28.396,17.76,28.396,18.703z M16.354,42.496c0-0.961,0-1.924,0-2.885
	c0.744,0.006,1.489,0.006,2.233,0c0,0.961,0,1.924,0,2.885C17.843,42.503,17.098,42.503,16.354,42.496z M18.587,43.568
	c0,0.955,0,1.91,0,2.866c-0.744,0.009-1.489,0.009-2.234,0c0-0.956,0-1.911,0-2.866C17.098,43.574,17.843,43.574,18.587,43.568z
	 M18.586,27.742c0,0.961,0,1.922,0,2.886c-0.744,0.004-1.488,0.004-2.231,0c0-0.964,0-1.925,0-2.886
	C17.099,27.746,17.842,27.746,18.586,27.742z M16.354,26.671c0-0.955,0-1.91,0-2.865c0.743,0.002,1.487,0.002,2.23,0
	c0,0.955,0,1.91,0,2.865C17.842,26.675,17.099,26.675,16.354,26.671z M16.354,34.583c0-0.961,0-1.924,0-2.885
	c0.744,0.004,1.488,0.004,2.231,0c0,0.961,0,1.924,0,2.885C17.842,34.588,17.099,34.588,16.354,34.583z M18.586,35.656
	c0,0.961,0,1.924,0.001,2.885c-0.745,0.008-1.489,0.008-2.233,0c0-0.961,0-1.924,0-2.885C17.099,35.66,17.842,35.66,18.586,35.656z
	 M15.307,30.619c-0.742-0.01-1.484-0.021-2.227-0.039c0-0.957,0-1.916,0-2.875c0.742,0.014,1.485,0.023,2.226,0.029
	C15.307,28.695,15.307,29.656,15.307,30.619z M15.307,31.689c0,0.961,0,1.924,0,2.885c-0.742-0.012-1.485-0.025-2.227-0.047
	c0-0.959,0.001-1.92,0.001-2.877C13.822,31.667,14.565,31.68,15.307,31.689z M15.307,35.644c0,0.959,0,1.922-0.001,2.883
	c-0.742-0.012-1.485-0.031-2.228-0.056c0-0.959,0.001-1.918,0.001-2.877C13.821,35.617,14.564,35.633,15.307,35.644z M15.306,39.597
	c0,0.96,0,1.922,0,2.883c-0.742-0.016-1.486-0.037-2.228-0.064c0-0.959,0-1.916,0.001-2.877
	C13.82,39.564,14.563,39.585,15.306,39.597z M19.637,39.597c0.742-0.012,1.484-0.033,2.227-0.059c0,0.959,0,1.918,0,2.875
	c-0.741,0.029-1.483,0.052-2.227,0.064C19.637,41.519,19.637,40.559,19.637,39.597z M19.637,38.527c0-0.961,0-1.924,0-2.883
	c0.74-0.012,1.482-0.027,2.225-0.05c0,0.959,0,1.918,0.002,2.876C21.121,38.496,20.377,38.515,19.637,38.527z M19.637,34.572
	c0-0.961,0-1.922-0.002-2.883c0.741-0.01,1.483-0.021,2.225-0.039c0.002,0.957,0.002,1.916,0.002,2.875
	C21.119,34.547,20.376,34.564,19.637,34.572z M19.635,30.619c0-0.963,0-1.924,0-2.885c0.74-0.006,1.483-0.017,2.225-0.029
	c0,0.959,0,1.916,0,2.875C21.118,30.599,20.376,30.609,19.635,30.619z M19.633,26.666c0-0.955,0-1.909,0-2.864
	c0.741-0.005,1.483-0.013,2.227-0.021c0,0.951,0,1.903,0,2.856C21.118,26.65,20.375,26.66,19.633,26.666z M19.633,22.732
	c-0.001-0.963-0.001-1.924-0.001-2.885c0.741-0.002,1.483-0.006,2.226-0.012c0,0.959,0.002,1.918,0.002,2.877
	C21.116,22.72,20.374,22.728,19.633,22.732z M18.586,22.736c-0.744,0.002-1.487,0.002-2.23,0c0-0.963,0-1.924,0-2.887
	c0.743,0.002,1.487,0.002,2.23,0C18.586,20.813,18.586,21.773,18.586,22.736z M15.309,22.732c-0.742-0.004-1.483-0.012-2.226-0.02
	c0-0.959,0.001-1.918,0.001-2.877c0.742,0.006,1.484,0.01,2.226,0.012C15.31,20.808,15.309,21.769,15.309,22.732z M15.309,23.801
	c0,0.955,0,1.91,0,2.864c-0.742-0.006-1.483-0.016-2.227-0.027c0-0.953,0-1.906,0-2.859C13.825,23.789,14.566,23.796,15.309,23.801z
	 M12.036,26.617c-0.742-0.017-1.483-0.033-2.225-0.055c0-0.947,0-1.895,0.001-2.841c0.741,0.019,1.483,0.031,2.225,0.042
	C12.037,24.716,12.036,25.666,12.036,26.617z M12.035,27.683c0,0.957,0,1.916,0,2.873c-0.742-0.021-1.483-0.047-2.225-0.076
	c0-0.953,0-1.904,0-2.857C10.552,27.646,11.293,27.667,12.035,27.683z M12.035,31.621c0,0.957-0.001,1.914-0.001,2.871
	c-0.742-0.023-1.483-0.055-2.224-0.092c0-0.953,0-1.906,0-2.859C10.551,31.572,11.292,31.6,12.035,31.621z M12.033,35.56
	c0,0.956-0.001,1.914-0.001,2.871c-0.742-0.031-1.484-0.066-2.225-0.111c0-0.953,0.001-1.906,0.001-2.858
	C10.549,35.5,11.291,35.533,12.033,35.56z M12.031,39.498c0,0.955,0,1.914-0.001,2.869c-0.742-0.035-1.484-0.078-2.225-0.129
	c0-0.953,0-1.904,0.001-2.857C10.547,39.426,11.289,39.465,12.031,39.498z M12.03,43.435c0,0.951-0.001,1.901-0.001,2.854
	c-0.742-0.041-1.484-0.09-2.225-0.149c0-0.944,0.001-1.892,0.001-2.838C10.546,43.353,11.288,43.4,12.03,43.435z M13.077,43.482
	c0.743,0.031,1.486,0.053,2.228,0.067c0,0.956,0,1.91,0,2.864c-0.742-0.016-1.486-0.041-2.229-0.074
	C13.077,45.389,13.077,44.435,13.077,43.482z M15.305,47.486c0,0.961,0,1.922,0,2.883c-0.743-0.019-1.487-0.047-2.23-0.084
	c0-0.959,0-1.918,0.001-2.875C13.818,47.443,14.562,47.468,15.305,47.486z M16.353,47.504c0.745,0.009,1.49,0.009,2.234,0
	c0.001,0.96,0.001,1.924,0.001,2.883c-0.745,0.011-1.49,0.011-2.235,0C16.353,49.427,16.353,48.464,16.353,47.504z M19.639,47.486
	c0.741-0.018,1.483-0.043,2.227-0.076c0,0.957,0.002,1.916,0.002,2.875c-0.742,0.037-1.486,0.065-2.229,0.084
	C19.639,49.406,19.639,48.447,19.639,47.486z M19.637,46.414c0-0.954,0-1.908,0-2.864c0.742-0.015,1.484-0.036,2.229-0.067
	c0,0.953,0,1.905,0,2.857C21.122,46.373,20.379,46.398,19.637,46.414z M22.911,43.435c0.741-0.035,1.483-0.082,2.224-0.135
	c0,0.945,0,1.895,0.002,2.838c-0.74,0.059-1.482,0.107-2.226,0.15C22.911,45.336,22.911,44.386,22.911,43.435z M22.911,42.369
	c-0.001-0.957-0.001-1.914-0.002-2.871c0.741-0.032,1.483-0.069,2.225-0.117c0,0.954,0.001,1.906,0.001,2.857
	C24.395,42.289,23.652,42.333,22.911,42.369z M22.909,38.431c0-0.957-0.001-1.915-0.001-2.871c0.742-0.027,1.482-0.061,2.224-0.098
	c0.001,0.951,0.001,1.904,0.001,2.857C24.393,38.363,23.65,38.4,22.909,38.431z M22.908,34.494c0-0.957-0.002-1.916-0.002-2.871
	c0.742-0.021,1.482-0.051,2.225-0.079c0,0.952,0,1.903,0.001,2.856C24.391,34.437,23.648,34.468,22.908,34.494z M22.906,30.556
	c0-0.957,0-1.916-0.002-2.873c0.742-0.016,1.484-0.037,2.226-0.061c0,0.953,0.001,1.904,0.001,2.857
	C24.391,30.509,23.648,30.535,22.906,30.556z M22.904,26.617c0-0.951,0-1.901,0-2.854c0.74-0.011,1.482-0.025,2.224-0.042
	c0,0.946,0.001,1.894,0.001,2.841C24.389,26.583,23.646,26.601,22.904,26.617z M22.902,22.699c0-0.957,0-1.916,0-2.874
	c0.742-0.007,1.482-0.014,2.225-0.023c0.001,0.953,0.001,1.906,0.001,2.859C24.387,22.676,23.646,22.689,22.902,22.699z
	 M22.902,18.76C22.9,17.802,22.9,16.845,22.9,15.887c0.742,0,1.481-0.003,2.225-0.004c0.001,0.953,0.001,1.906,0.002,2.858
	C24.385,18.75,23.643,18.756,22.902,18.76z M21.855,18.767c-0.742,0.004-1.482,0.007-2.225,0.009c0-0.961,0-1.922,0-2.884
	c0.741,0,1.482-0.001,2.225-0.002C21.855,16.849,21.855,17.808,21.855,18.767z M18.585,18.779c-0.743,0.001-1.486,0.001-2.229,0
	c0-0.961,0-1.923,0-2.885c0.742,0,1.486,0,2.229,0C18.585,16.855,18.585,17.817,18.585,18.779z M15.31,18.777
	c-0.742-0.002-1.483-0.005-2.225-0.009c0-0.959,0-1.918,0-2.877c0.742,0,1.483,0.001,2.225,0.002
	C15.31,16.854,15.31,17.815,15.31,18.777z M12.039,18.76c-0.742-0.005-1.483-0.011-2.225-0.019c0-0.953,0-1.905,0.001-2.858
	c0.742,0.001,1.483,0.004,2.224,0.004C12.039,16.845,12.039,17.803,12.039,18.76z M12.039,19.827c0,0.957-0.001,1.915-0.001,2.872
	c-0.741-0.01-1.483-0.021-2.224-0.035c0-0.953,0-1.906,0-2.859C10.555,19.813,11.296,19.819,12.039,19.827z M8.768,22.64
	c-0.741-0.018-1.482-0.035-2.223-0.057c0-0.943,0-1.887,0-2.831c0.741,0.013,1.482,0.025,2.223,0.036
	C8.768,20.739,8.768,21.689,8.768,22.64z M8.767,23.697c0,0.944,0,1.89,0,2.832c-0.741-0.024-1.482-0.053-2.223-0.084
	c0-0.938,0-1.873,0-2.811C7.284,23.658,8.026,23.679,8.767,23.697z M8.766,27.587c0,0.949-0.001,1.898-0.001,2.85
	c-0.74-0.033-1.481-0.068-2.222-0.111c0-0.942,0-1.887,0-2.83C7.284,27.529,8.025,27.56,8.766,27.587z M8.765,31.494
	c0,0.951-0.001,1.9-0.001,2.852c-0.74-0.04-1.481-0.087-2.221-0.139c0-0.943,0-1.887,0-2.831C7.283,31.42,8.023,31.459,8.765,31.494
	z M8.763,35.404c0,0.949,0,1.899,0,2.851c-0.741-0.052-1.481-0.104-2.22-0.168c0-0.942,0-1.886,0-2.829
	C7.282,35.31,8.022,35.361,8.763,35.404z M8.762,39.312c0,0.949,0,1.899-0.001,2.852c-0.741-0.059-1.48-0.123-2.219-0.195
	c0-0.943,0-1.889,0-2.83C7.281,39.203,8.021,39.26,8.762,39.312z M8.76,43.219c0,0.944,0,1.888-0.001,2.832
	c-0.74-0.065-1.479-0.14-2.218-0.224c0-0.938,0-1.875,0-2.812C7.281,43.092,8.02,43.16,8.76,43.219z M8.759,47.109
	c0,0.951,0,1.9,0,2.851c-0.741-0.073-1.48-0.158-2.219-0.253c0-0.942,0-1.887,0-2.828C7.279,46.964,8.019,47.039,8.759,47.109z
	 M9.804,47.201c0.741,0.06,1.483,0.111,2.224,0.154c0,0.955,0,1.912,0,2.868c-0.742-0.045-1.484-0.103-2.225-0.166
	C9.804,49.107,9.804,48.154,9.804,47.201z M12.027,51.291c0,0.957,0,1.916,0,2.873c-0.742-0.053-1.484-0.114-2.225-0.188
	c0-0.951,0.001-1.904,0.001-2.857C10.544,51.187,11.285,51.244,12.027,51.291z M13.075,51.353c0.743,0.039,1.486,0.067,2.229,0.086
	c0,0.961,0,1.922,0,2.885c-0.743-0.021-1.487-0.053-2.229-0.094C13.075,53.269,13.075,52.312,13.075,51.353z M16.353,51.459
	c0.745,0.009,1.49,0.009,2.235,0c0,0.961,0,1.924,0,2.885c-0.745,0.013-1.491,0.013-2.235,0
	C16.353,53.382,16.353,52.42,16.353,51.459z M19.639,51.439c0.741-0.019,1.485-0.049,2.229-0.086c0,0.959,0,1.92,0.001,2.877
	c-0.743,0.041-1.485,0.072-2.229,0.094C19.639,53.361,19.639,52.4,19.639,51.439z M22.913,51.291
	c0.743-0.047,1.483-0.104,2.226-0.172c0,0.953,0,1.906,0,2.857c-0.74,0.073-1.481,0.135-2.224,0.188
	C22.914,53.205,22.914,52.248,22.913,51.291z M22.913,50.224c-0.001-0.956-0.001-1.912-0.001-2.869
	c0.742-0.043,1.484-0.095,2.225-0.154c0,0.953,0,1.906,0.002,2.857C24.396,50.123,23.654,50.179,22.913,50.224z M26.184,47.109
	c0.739-0.066,1.479-0.145,2.217-0.229c0,0.942,0,1.887,0,2.83c-0.736,0.092-1.478,0.177-2.217,0.252
	C26.184,49.009,26.184,48.06,26.184,47.109z M26.184,46.051c-0.002-0.944-0.002-1.888-0.002-2.832
	c0.739-0.06,1.48-0.127,2.219-0.202c0,0.938,0,1.873,0,2.811C27.662,45.912,26.923,45.986,26.184,46.051z M26.182,42.162
	c0-0.95-0.002-1.9-0.002-2.85c0.74-0.052,1.48-0.109,2.219-0.176c0.002,0.943,0.002,1.887,0.002,2.83
	C27.662,42.039,26.921,42.105,26.182,42.162z M26.18,38.253c0-0.95,0-1.9-0.002-2.852c0.742-0.041,1.482-0.093,2.221-0.146
	c0,0.942,0,1.887,0,2.829C27.66,38.15,26.92,38.203,26.18,38.253z M26.178,34.345c0-0.949,0-1.898,0-2.852
	c0.74-0.034,1.481-0.073,2.221-0.117c0,0.943,0,1.887,0,2.83C27.659,34.258,26.918,34.305,26.178,34.345z M26.177,30.437
	c0-0.949,0-1.9-0.001-2.85c0.741-0.027,1.481-0.059,2.221-0.092c0,0.943,0.002,1.888,0.002,2.83
	C27.659,30.367,26.918,30.404,26.177,30.437z M26.176,26.529c-0.001-0.942-0.001-1.888-0.001-2.832
	c0.742-0.018,1.482-0.039,2.222-0.063c0,0.938,0,1.873,0,2.811C27.657,26.476,26.917,26.503,26.176,26.529z M26.174,22.64
	c0-0.951-0.001-1.901-0.001-2.851c0.741-0.01,1.483-0.022,2.224-0.035c0,0.943,0,1.886,0,2.831
	C27.657,22.605,26.915,22.623,26.174,22.64z M8.769,15.881c0,0.95,0,1.9-0.001,2.85c-0.741-0.008-1.482-0.018-2.223-0.028
	c0-0.943,0-1.887,0-2.83C7.286,15.876,8.028,15.878,8.769,15.881z M6.54,50.758c0.738,0.097,1.478,0.183,2.218,0.258
	c0,0.95,0,1.901,0,2.853c-0.741-0.084-1.48-0.178-2.218-0.28C6.54,52.646,6.54,51.701,6.54,50.758z M26.184,53.869
	c0-0.95,0-1.899,0-2.853c0.739-0.075,1.479-0.163,2.217-0.259c0.002,0.941,0.002,1.889,0.002,2.83
	C27.663,53.693,26.925,53.785,26.184,53.869z"/&gt;
&lt;path id="highlight_2_" opacity="0.17" fill="#FFFFFF" enable-background="new    " d="M0,0.943h5.497c0,0,6.847-0.943,11.974-0.943
	C22.6,0,29.48,0.943,29.48,0.943h5.496v41.951c0,0-12.076-0.521-18.623-2.548C9.807,38.32,0,30.557,0,30.557V0.943z"/&gt;
&lt;/svg&gt;
</y:Resource>
    </y:Resources>
  </data>
</graphml>
