%!PS-Adobe-3.0 EPSF-3.0
%%BoundingBox: 0 0 1080 604
%%Creator: yExport 1.4.0.1
%%Producer: org.freehep.graphicsio.ps.PSGraphics2D Revision: 12753 
%%For: 
%%Title: 
%%CreationDate: Samstag, 5. September 2015 19:32 Uhr MESZ
%%LanguageLevel: 3
%%EndComments
%%BeginProlog
100 dict dup begin

%
% File: org/freehep/graphicsio.ps/PSProlog.txt
% Author: Charles Loomis
%

% Redefinitions which save some space in the output file.  These are also
% the same as the PDF operators.
/q {gsave} def
/Q {grestore} def

/n {newpath} def
/m {moveto} def
/l {lineto} def
/c {curveto} def
/h {closepath} def

/re {4 -2 roll moveto
     dup 0 exch rlineto exch 0 rlineto
     neg 0 exch rlineto closepath} def

/f {fill} def
/f* {eofill} def
/F {gsave vg&FC fill grestore} def
/F* {gsave vg&FC eofill grestore} def

/s {closepath stroke} def
/S {stroke} def

/b {closepath gsave vg&FC fill grestore
    gsave stroke grestore newpath} def
/B {gsave vg&FC fill grestore gsave stroke grestore newpath} def
/b* {closepath gsave vg&FC eofill grestore
    gsave stroke grestore newpath} def
/B* {gsave vg&FC eofill grestore gsave stroke grestore newpath} def

/g {1 array astore /vg&fcolor exch def} def
/G {setgray} def
/k {4 array astore /vg&fcolor exch def} def
/K {setcmykcolor} def
/rg {3 array astore /vg&fcolor exch def} def
/RG {setrgbcolor} def

% Initialize the fill color.
0 0 0 rg

/vg&FC {mark vg&fcolor aload pop
        counttomark 1 eq {G} if
        counttomark 3 eq {RG} if
        counttomark 4 eq {K} if
        cleartomark } def

/vg&DFC {/vg&fcolor exch def} def

/vg&C {mark exch aload pop
       counttomark 1 eq {G} if
       counttomark 3 eq {RG} if
       counttomark 4 eq {K} if
       cleartomark } def

/w {setlinewidth} def
/j {setlinejoin} def
/J {setlinecap} def
/M {setmiterlimit} def
/d {setdash} def
/i {setflat} def

/W {clip} def
/W* {eoclip} def

% Setup the default graphics state.
% (black; 1 pt. linewidth; miter join; butt-ends; solid)
/defaultGraphicsState {0 g 1 w 0 j 0 J [] 0 d} def

% Emulation of the rectangle operators for PostScript implementations
% which do not implement all Level 2 features.  This is an INCOMPLETE
% emulation; only the "x y width height rect..." form is emulated.
/*rf {gsave newpath re fill grestore} def
/*rs {gsave newpath re stroke grestore} def
/*rc {newpath re clip} def
/rf  /rectfill where {pop /rectfill}{/*rf} ifelse load def
/rs  /rectstroke where {pop /rectstroke}{/*rs} ifelse load def
/rc  /rectclip where {pop /rectclip}{/*rc} ifelse load def

% Emulation of the selectfont operator.  This includes a 20% increase in
% the fontsize which is necessary to get sizes similar to the Java fonts.
/*sf {exch findfont exch
      dup type /arraytype eq {makefont}{scalefont} ifelse setfont} bind def
/sf /selectfont where {pop {1.2 mul selectfont}}{{1.2 mul *sf}} ifelse def

% Special version of stroke which allows the dash pattern to continue
% across path segments.  (This may be needed for PostScript although
% modern printers seem to do this correctly.)
/vg&stroke {
  currentdash pop length 0 eq
  {stroke}
  {
    currentdash /vg&doffset exch def pop
    flattenpath
    {m vg&resetdash}
    {2 copy
     currentpoint
     3 -1 roll sub dup mul
     3 1 roll sub dup mul
     add sqrt
     3 1 roll l
     currentdash 3 -1 roll add setdash}
     {}
     {h vg&resetdash}
     pathforall
     stroke
     vg&resetdash
  } ifelse
} def
/vg&resetdash {currentdash pop vg&doffset setdash} def

% Initialize variables for safety.
/delta 0 def
/xv 0 def  /yv 0 def  /width 0 def  /height 0 def

% Initialize to portrait INTERNATIONAL (Letter-height, A4-width) page.
/pw 595 def  /ph 791  def  /po true def /ftp false def

% Initialize margins to 20 points.
/ml 20 def  /mr 20 def  /mt 20 def  /mb 20 def

% Temporary matrices.
/smatrix 0 def  /nmatrix 0 def

% set page size (usage: <page width><page height> setpagesize)
/setpagesize {/ph exch def /pw exch def} def

% set page orientation (usage: portrait or landscape)
/portrait {/po true def} def
/landscape {/po false def} def

% force natural size for image (usage: naturalsize)
/naturalsize {/ftp false def} def

% resize image to fill page (usage: fittopage)
/fittopage {/ftp true def} def

% set margins of the page (usage: <left><bottom><top><right> setmargins)
/setmargins {/mr exch def /mt exch def /mb exch def /ml exch def} def

% set the graphic's size (usage: <width><height> setsize)
/setsize {/gh exch def /gw exch def} def

% set the graphic's origin (usage: <x0><y0> setorigin)
/setorigin {/gy exch def /gx exch def} def

% calculate image center
/imagecenter {pw ml sub mr sub 2 div ml add
              ph mt sub mb sub 2 div mb add} def

% calculate the necessary scaling
/imagescale {po {gw}{gh} ifelse pw ml sub mr sub div
             po {gh}{gw} ifelse ph mt sub mb sub div
             2 copy lt {exch} if pop
             ftp not {1 2 copy lt {exch} if pop} if
             1 exch div /sfactor exch def
             /gw gw sfactor mul def /gh gh sfactor mul def} def

% calculate image origin
/imageorigin {pw ml sub mr sub 2 div ml add
              po {gw}{gh} ifelse 2 div sub
              ph mt sub mb sub 2 div mb add
              po {gh}{gw} ifelse 2 div po {add}{sub} ifelse} def

% calculate the clipping origin
/cliporigin  {pw ml sub mr sub 2 div ml add
              po {gw}{gh} ifelse 2 div sub floor
              ph mt sub mb sub 2 div mb add
              po {gh}{gw} ifelse 2 div sub floor} def

% Set the clipping region to the bounding box.
/cliptobounds {cliporigin po {gw}{gh} ifelse 1 add
                          po {gh}{gw} ifelse 1 add rc} def

% set the base transformation matrix (usage: setbasematrix)
/setbasematrix {imageorigin translate
                po {0}{90} ifelse rotate
                sfactor sfactor neg scale
                /defaultmatrix matrix currentmatrix def} def

% The lower-right bias in drawing 1 pt. wide lines.
/bias  {q 0.5 0.5 translate} def
/unbias {Q} def

% Define the composite fonts used to print Unicode strings.
% Undefine particular values in an encoding array.
/vg&undef { {exch dup 3 -1 roll /.notdef put} forall } def
/vg&redef { {3 -1 roll dup 4 2 roll put} forall } def

% usage: key encoding basefontname vg&newbasefont font
/vg&newbasefont {
findfont dup length dict copy
  begin
    currentdict /FID undef
    /Encoding exch def
    dup /FontName exch def
    currentdict
  end
definefont
} def

% usage: key encoding basefontname vg&newskewedbasefont font
/vg&newskewedbasefont {
findfont dup length dict copy
  begin
    currentdict /FID undef
    /Encoding exch def
    dup /FontName exch def
    exch FontMatrix exch matrix concatmatrix /FontMatrix exch def
    currentdict
  end
definefont
} def

% usage: basekey suffix vg&nconcat name
/vg&nconcat {
  2 {dup length string cvs exch} repeat
  dup length 3 -1 roll dup length 3 -1 roll add string
  dup 0 4 -1 roll dup length 5 1 roll putinterval
  dup 4 -2 roll exch putinterval cvn
} def

%usage: fontname vg&skewmatrix matrix
/vg&skewmatrix {
findfont dup /FontInfo known
  {
    /FontInfo get dup /ItalicAngle known
    {
      [ 1 0 4 -1 roll /ItalicAngle get neg dup sin exch cos div 1 0 0 ]
    }
    {pop matrix} ifelse
  }
  {pop matrix} ifelse
} def

% usage: newfontname basefontname vg&newcompositefont --
/vg&newcompositefont {
/vg&fstyle exch def
/vg&bfont exch def
/vg&fname exch def
<<
/FontStyleBits vg&fstyle
/FontType 0
/FontMatrix matrix
/FontName vg&fname
/FMapType 2
/Encoding [ 0 1 255 {pop 6} for ]
          dup 16#00 0 put % Latin
          dup 16#03 1 put % Greek
          dup 16#20 2 put % Punctuation
          dup 16#21 3 put % Arrows
          dup 16#22 4 put % MathOps
          dup 16#27 5 put % Dingbats

/FDepVector [
vg&bfont /-UC-Latin vg&nconcat UCLatinEncoding
vg&bfont vg&newbasefont

vg&bfont vg&skewmatrix
vg&bfont /-UC-Greek vg&nconcat UCGreekEncoding
/Symbol vg&newskewedbasefont

vg&bfont /-UC-Punctuation vg&nconcat UCPunctuationEncoding
vg&bfont vg&newbasefont

/Arrows-UC findfont
/MathOps-UC findfont
/Dingbats-UC findfont
/Undefined-UC findfont ]
>>
vg&fname exch definefont pop
} def

% Null encoding vector (all elements set to .notdef)
/NullEncoding [ 256 {/.notdef} repeat ] def

% Unicode Latin encoding (unicode codes \u0000-\u00ff)
/UCLatinEncoding
  ISOLatin1Encoding dup length array copy
  dup 16#60 /grave put
  [ 16#90 16#91 16#92 16#93 16#94 16#95 16#96
    16#97 16#98 16#9a 16#9b 16#9d 16#9e 16#9f
  ] vg&undef
  def

% Unicode Greek encoding (unicode codes \u0370-\u03ff)
/UCGreekEncoding
  NullEncoding dup length array copy
  << 16#91 /Alpha    16#92 /Beta      16#93 /Gamma    16#94 /Delta
     16#95 /Epsilon  16#96 /Zeta      16#97 /Eta      16#98 /Theta
     16#99 /Iota     16#9a /Kappa     16#9b /Lambda   16#9c /Mu
     16#9d /Nu       16#9e /Xi        16#9f /Omicron  16#a0 /Pi
     16#a1 /Rho      16#a3 /Sigma     16#a4 /Tau      16#a5 /Upsilon
     16#a6 /Phi      16#a7 /Chi       16#a8 /Psi      16#a9 /Omega
     16#b1 /alpha    16#b2 /beta      16#b3 /gamma    16#b4 /delta
     16#b5 /epsilon  16#b6 /zeta      16#b7 /eta      16#b8 /theta
     16#b9 /iota     16#ba /kappa     16#bb /lambda   16#bc /mu
     16#bd /nu       16#be /xi        16#bf /omicron  16#c0 /pi
     16#c1 /rho      16#c2 /sigma1    16#c3 /sigma    16#c4 /tau
     16#c5 /upsilon  16#c6 /phi1      16#c7 /chi      16#c8 /psi
     16#c9 /omega    16#7e /semicolon 16#87 /dotmath  16#d1 /theta1
     16#d2 /Upsilon1 16#d5 /phi       16#d6 /omega1
  >> vg&redef
  def

% Unicode punctuation encoding (unicode codes \u2000-\u206f)
/UCPunctuationEncoding
  NullEncoding dup length array copy
  << 16#10 /hyphen          16#11 /hyphen              16#12 /endash
     16#13 /emdash          16#18 /quoteleft           16#19 /quoteright
     16#1a /quotesinglbase  16#1b /quotesingle         16#1c /quotedblleft
     16#1d /quotedblright   16#1e /quotedblbase        16#1f /quotedbl
     16#20 /dagger          16#21 /daggerdbl           16#22 /bullet
     16#24 /period          16#26 /ellipsis            16#27 /periodcentered
     16#30 /perthousand     16#44 /fraction
     16#70 /zerosuperior    16#74 /foursuperior        16#75 /fivesuperior
     16#76 /sixsuperior     16#77 /sevensuperior       16#78 /eightsuperior
     16#79 /ninesuperior    16#7b /hyphensuperior      16#7d /parenleftsuperior
     16#7e /parenrightsuperior
     16#80 /zeroinferior    16#84 /fourinferior        16#85 /fiveinferior
     16#81 /oneinferior     16#82 /twoinferior         16#83 /threeinferior
     16#86 /sixinferior     16#87 /seveninferior       16#88 /eightinferior
     16#89 /nineinferior    16#8b /hypheninferior      16#8d /parenleftinferior
     16#8e /parenrightinferior
  >> vg&redef
  def

% Unicode mathematical operators encoding (unicode codes \u2200-\u22ff)
/UCMathOpsEncoding
  NullEncoding dup length array copy
  << 16#00 /universal       16#02 /partialdiff         16#03 /existential
     16#05 /emptyset        16#06 /Delta               16#07 /gradient
     16#08 /element         16#09 /notelement          16#0b /suchthat
     16#0f /product         16#11 /summation           16#12 /minus
     16#15 /fraction        16#17 /asteriskmath        16#19 /bullet
     16#1a /radical         16#1d /proportional        16#1e /infinity
     16#20 /angle           16#23 /bar                 16#27 /logicaland
     16#28 /logicalor       16#29 /intersection        16#2a /union
     16#2b /integral        16#34 /therefore           16#36 /colon
     16#3c /similar         16#45 /congruent           16#48 /approxequal
     16#60 /notequal        16#61 /equivalence         16#64 /lessequal
     16#65 /greaterequal    16#82 /propersubset        16#83 /propersuperset
     16#86 /reflexsubset    16#87 /reflexsuperset      16#95 /circleplus
     16#97 /circlemultiply  16#a5 /perpendicular       16#03 /existential
     16#c0 /logicaland      16#c1 /logicalor           16#c2 /intersection
     16#c3 /union           16#c4 /diamond             16#c5 /dotmath
  >> vg&redef
  def

% Unicode arrows encoding (unicode codes \u2190-\u21ff)
% Also includes those "Letterlike" unicode characters
% which are available in the symbol font. (unicode codes \u2100-\u214f)
/UCArrowsEncoding
  NullEncoding dup length array copy
  << 16#11 /Ifraktur        16#1c /Rfraktur            16#22 /trademarkserif
     16#35 /aleph
     16#90 /arrowleft       16#91 /arrowup             16#92 /arrowright
     16#93 /arrowdown       16#94 /arrowboth           16#d0 /arrowdblleft
     16#d1 /arrowdblup      16#d2 /arrowdblright       16#d3 /arrowdbldown
     16#d4 /arrowdblboth
  >> vg&redef
  def

/ZapfDingbats findfont /Encoding get
dup length array copy /UCDingbatsEncoding exch def
16#20 1 16#7f {
  dup 16#20 sub exch
  UCDingbatsEncoding exch get
  UCDingbatsEncoding 3 1 roll put
} for
16#a0 1 16#ff {
  dup 16#40 sub exch
  UCDingbatsEncoding exch get
  UCDingbatsEncoding 3 1 roll put
} for
UCDingbatsEncoding [ 16#c0 1 16#ff {} for ] vg&undef
[ 16#00  16#05 16#0a 16#0b  16#28 16#4c 16#4e  16#53 16#54 16#55  16#57 16#5f
  16#60  16#68 16#69 16#6a  16#6b 16#6c 16#6d  16#6e 16#6f 16#70  16#71 16#72
  16#73  16#74 16#75 16#95  16#96 16#97 16#b0  16#bf
] vg&undef pop

% Define the base fonts which don't change.
/Undefined-UC NullEncoding       /Helvetica    vg&newbasefont pop
/MathOps-UC   UCMathOpsEncoding  /Symbol       vg&newbasefont pop
/Arrows-UC    UCArrowsEncoding   /Symbol       vg&newbasefont pop
/Dingbats-UC  UCDingbatsEncoding /ZapfDingbats vg&newbasefont pop

% Make the SansSerif composite fonts.
/SansSerif /Helvetica 16#00 vg&newcompositefont
/SansSerif-Bold /Helvetica-Bold 16#01 vg&newcompositefont
/SansSerif-Italic /Helvetica-Oblique 16#02 vg&newcompositefont
/SansSerif-BoldItalic /Helvetica-BoldOblique 16#03 vg&newcompositefont

% Make the Serif composite fonts.
/Serif /Times-Roman 16#00 vg&newcompositefont
/Serif-Bold /Times-Bold 16#01 vg&newcompositefont
/Serif-Italic /Times-Italic 16#02 vg&newcompositefont
/Serif-BoldItalic /Times-BoldItalic 16#03 vg&newcompositefont

% Make the Monospaced composite fonts.
/Monospaced /Courier 16#00 vg&newcompositefont
/Monospaced-Bold /Courier-Bold 16#01 vg&newcompositefont
/Monospaced-Italic /Courier-Oblique 16#02 vg&newcompositefont
/Monospaced-BoldItalic /Courier-BoldOblique 16#03 vg&newcompositefont

% Make the Dialog composite fonts.
/Dialog /Helvetica 16#00 vg&newcompositefont
/Dialog-Bold /Helvetica-Bold 16#01 vg&newcompositefont
/Dialog-Italic /Helvetica-Oblique 16#02 vg&newcompositefont
/Dialog-BoldItalic /Helvetica-BoldOblique 16#03 vg&newcompositefont

% Make the DialogInput composite fonts.
/DialogInput /Courier 16#00 vg&newcompositefont
/DialogInput-Bold /Courier-Bold 16#01 vg&newcompositefont
/DialogInput-Italic /Courier-Oblique 16#02 vg&newcompositefont
/DialogInput-BoldItalic /Courier-BoldOblique 16#03 vg&newcompositefont

% Make the Typewriter composite fonts (JDK 1.1 only).
/Typewriter /Courier 16#00 vg&newcompositefont
/Typewriter-Bold /Courier-Bold 16#01 vg&newcompositefont
/Typewriter-Italic /Courier-Oblique 16#02 vg&newcompositefont
/Typewriter-BoldItalic /Courier-BoldOblique 16#03 vg&newcompositefont


/cfontH {
 dup /fontsize exch def /SansSerif exch sf
 /vg&fontstyles [{cfontH} {cfontHB} {cfontHI} {cfontHBI}] def
} def
/cfontHB {
  dup /fontsize exch def /SansSerif-Bold exch sf
 /vg&fontstyles [{cfontH} {cfontHB} {cfontHI} {cfontHBI}] def
} def
/cfontHI {
 dup /fontsize exch def /SansSerif-Italic exch sf
 /vg&fontstyles [{cfontH} {cfontHB} {cfontHI} {cfontHBI}] def
} def
/cfontHBI {
 dup /fontsize exch def /SansSerif-BoldItalic exch sf
 /vg&fontstyles [{cfontH} {cfontHB} {cfontHI} {cfontHBI}] def
} def

/cfontT {
 dup /fontsize exch def /Serif exch sf
 /vg&fontstyles [{cfontT} {cfontTB} {cfontTI} {cfontTBI}] def
} def
/cfontTB {
 dup /fontsize exch def /Serif-Bold exch sf
 /vg&fontstyles [{cfontT} {cfontTB} {cfontTI} {cfontTBI}] def
} def
/cfontTI {
 dup /fontsize exch def /Serif-Italic exch sf
 /vg&fontstyles [{cfontT} {cfontTB} {cfontTI} {cfontTBI}] def
} def
/cfontTBI {
 dup /fontsize exch def /Serif-BoldItalic exch sf
 /vg&fontstyles [{cfontT} {cfontTB} {cfontTI} {cfontTBI}] def
} def

/cfontC {
 dup /fontsize exch def /Typewriter exch sf
 /vg&fontstyles [{cfontC} {cfontCB} {cfontCI} {cfontCBI}] def
} def
/cfontCB {
 dup /fontsize exch def /Typewriter-Bold exch sf
 /vg&fontstyles [{cfontC} {cfontCB} {cfontCI} {cfontCBI}] def
} def
/cfontCI {
 dup /fontsize exch def /Typewriter-Italic exch sf
 /vg&fontstyles [{cfontC} {cfontCB} {cfontCI} {cfontCBI}] def
} def
/cfontCBI {
 dup /fontsize exch def /Typewriter-BoldItalic exch sf
 /vg&fontstyles [{cfontC} {cfontCB} {cfontCI} {cfontCBI}] def
} def

% Darken or lighten the current color.
/darken {0.7 exch exp 3 copy
         q 4 -1 roll vg&C
         currentrgbcolor 3 {4 -2 roll mul} repeat
         3 array astore Q} def

/displayColorMap
<< /Cr   [1.00 0.00 0.00]       /Cg     [0.00 1.00 0.00]
   /Cb   [0.00 0.00 1.00]       /Cc     [1.00 0.00 0.00 0.00]
   /Cm   [0.00 1.00 0.00 0.00]  /Cy     [0.00 0.00 1.00 0.00]
   /Co   [1.00 0.78 0.00]       /Cp     [1.00 0.67 0.67]
   /Cw   [1   ]                 /Cgrl   [0.75]
   /Cgr  [0.50]                 /Cgrd   [0.25]
   /Ck   [0   ]
   /CGr  [1.00 0.00 0.00]       /CGg    [0.00 1.00 0.00]
   /CGb  [0.00 0.00 1.00]       /CGc    [1.00 0.00 0.00 0.00]
   /CGm  [0.00 1.00 0.00 0.00]  /CGy    [0.00 0.00 1.00 0.00]
   /CGo  [1.00 0.78 0.00]       /CGp    [1.00 0.67 0.67]
   /CGw  [1   ]                 /CGgrl  [0.75]
   /CGgr [0.50]                 /CGgrd  [0.25]
   /CGk  [0   ]
   /CIr  [1.00 0.00 0.00]       /CIg    [0.00 1.00 0.00]
   /CIb  [0.00 0.00 1.00]       /CIc    [1.00 0.00 0.00 0.00]
   /CIm  [0.00 1.00 0.00 0.00]  /CIy    [0.00 0.00 1.00 0.00]
   /CIo  [1.00 0.78 0.00]       /CIp    [1.00 0.67 0.67]
   /CIw  [1   ]                 /CIgrl  [0.75]
   /CIgr [0.50]                 /CIgrd  [0.25]
   /CIk  [0   ]
>> def

/printColorMap
<< /Cr   [1.00 0.33 0.33]       /Cg     [0.33 1.00 0.33]
   /Cb   [0.33 0.33 1.00]       /Cc     [1.00 0.00 0.00 0.00]
   /Cm   [0.00 1.00 0.00 0.00]  /Cy     [0.00 0.00 1.00 0.00]
   /Co   [1.00 0.78 0.00]       /Cp     [1.00 0.67 0.67]
   /Cw   [1   ]                 /Cgrl   [0.75]
   /Cgr  [0.50]                 /Cgrd   [0.25]
   /Ck   [0   ]
   /CGr  [1.00 0.33 0.33]       /CGg    [0.33 1.00 0.33]
   /CGb  [0.33 0.33 1.00]       /CGc    [1.00 0.00 0.00 0.00]
   /CGm  [0.00 1.00 0.00 0.00]  /CGy    [0.00 0.00 1.00 0.00]
   /CGo  [1.00 0.78 0.00]       /CGp    [1.00 0.67 0.67]
   /CGw  [1   ]                 /CGgrl  [0.75]
   /CGgr [0.50]                 /CGgrd  [0.25]
   /CGk  [0   ]
   /CIr  [1.00 0.33 0.33]       /CIg    [0.33 1.00 0.33]
   /CIb  [0.33 0.33 1.00]       /CIc    [1.00 0.00 0.00 0.00]
   /CIm  [0.00 1.00 0.00 0.00]  /CIy    [0.00 0.00 1.00 0.00]
   /CIo  [1.00 0.78 0.00]       /CIp    [1.00 0.67 0.67]
   /CIw  [1   ]                 /CIgrl  [0.75]
   /CIgr [0.50]                 /CIgrd  [0.25]
   /CIk  [0   ]
>> def

/grayColorMap
<< /Cr   [0   ]                 /Cg     [0   ]
   /Cb   [0   ]                 /Cc     [0   ]
   /Cm   [0   ]                 /Cy     [0   ]
   /Co   [0   ]                 /Cp     [0   ]
   /Cw   [0   ]                 /Cgrl   [0   ]
   /Cgr  [0   ]                 /Cgrd   [0   ]
   /Ck   [0   ]
   /CGr  [0.75]                 /CGg    [1   ]
   /CGb  [0.50]                 /CGc    [0.75]
   /CGm  [0.50]                 /CGy    [1   ]
   /CGo  [0.75]                 /CGp    [1   ]
   /CGw  [0   ]                 /CGgrl  [0.25]
   /CGgr [0.50]                 /CGgrd  [0.75]
   /CGk  [1   ]
   /CIr  [1   ]                 /CIg    [1   ]
   /CIb  [1   ]                 /CIc    [1   ]
   /CIm  [1   ]                 /CIy    [1   ]
   /CIo  [1   ]                 /CIp    [1   ]
   /CIw  [1   ]                 /CIgrl  [1   ]
   /CIgr [1   ]                 /CIgrd  [1   ]
   /CIk  [1   ]
>> def

/bwColorMap
<< /Cr   [0   ]                 /Cg     [0   ]
   /Cb   [0   ]                 /Cc     [0   ]
   /Cm   [0   ]                 /Cy     [0   ]
   /Co   [0   ]                 /Cp     [0   ]
   /Cw   [0   ]                 /Cgrl   [0   ]
   /Cgr  [0   ]                 /Cgrd   [0   ]
   /Ck   [0   ]
   /CGr  [1   ]                 /CGg    [1   ]
   /CGb  [1   ]                 /CGc    [1   ]
   /CGm  [1   ]                 /CGy    [1   ]
   /CGo  [1   ]                 /CGp    [1   ]
   /CGw  [0   ]                 /CGgrl  [1   ]
   /CGgr [1   ]                 /CGgrd  [1   ]
   /CGk  [1   ]
   /CIr  [1   ]                 /CIg    [1   ]
   /CIb  [1   ]                 /CIc    [1   ]
   /CIm  [1   ]                 /CIy    [1   ]
   /CIo  [1   ]                 /CIp    [1   ]
   /CIw  [1   ]                 /CIgrl  [1   ]
   /CIgr [1   ]                 /CIgrd  [1   ]
   /CIk  [1   ]
>> def

%
% The following routines handle the alignment of and printing of
% tagged strings.
%

% Predefine the bounding box values.
/bbllx 0 def /bblly 0 def /bburx 0 def /bbury 0 def

% This routine pops the first unicode character off of a string and returns
% the remainder of the string, the character code of first character,
% and a "true" if the string was non-zero length.
% <string>      popfirst <remaining string> <true>
% <null string> popfirst <false>
/popfirst {
  dup length 1 gt
    {dup 0 get /vg&fbyte exch def
     dup 1 get /vg&cbyte exch def
     dup length 2 sub 2 exch getinterval true}
    {pop false} ifelse
} def

% This routine shows a single unicode character given the font and
% character codes.
% <font code> <char code> unicharshow --
/unicharshow {
  2 string
  dup 0 5 -1 roll put
  dup 1 4 -1 roll put
  internalshow
} def

% This is an internal routine to alternate between determining the
% bounding box for stringsize and showing the string for recshow.
% <string> internalshow --
/internalshow {show} def

% This is an internal routine to alternate between determining the
% bounding box for stringsize and stroking various ornaments.
% <string> internalstroke --
/internalstroke {S} def

% Sets up internalshow to use the null device to determine string size.
% -- nullinternalshow --
/nullinternalshow {/internalshow {false charpath flattenpath
                                  pathbbox updatebbox} def} def

% Sets up internalstroke to use the null device to determine string size.
% -- nullinternalstroke --
/nullinternalstroke {
 /internalstroke {flattenpath pathbbox updatebbox} def} def

% This routine tests to see if the character code matches the first
% character of a string.
% <char code> <string> testchar <char code> <true or false>
/testchar {exch dup 3 -1 roll 0 get eq} def

% Raise the text baseline for superscripts.
% -- raise --
/raise {
  0 fontsize 2 div rmoveto
  /fontsize fontsize 2 mul 3 div def
  currentfont /FontName get fontsize sf
} def

% Un-raise the text baseline for superscripts.
% -- unraise --
/unraise {
  /fontsize fontsize 1.5 mul def
  0 fontsize 2 div neg rmoveto
} def

% Lower the text baseline for subscripts.
% -- lower --
/lower {
  0 fontsize 3 div neg rmoveto
  /fontsize fontsize 2 mul 3 div def
  currentfont /FontName get fontsize sf
} def

% Un-lower the text baseline for subscripts.
% -- unlower --
/unlower {
  /fontsize fontsize 1.5 mul def
  0 fontsize 3 div rmoveto
} def

% Compare the top two elements on the stack and leave only the
% larger one.
/maxval {2 copy gt {pop} {exch pop} ifelse} def

% Tokenize a string.  Do not use the usual PostScript token because
% parentheses will not be interpreted correctly because of rescanning
% of the string.
/vg&token {/vg&string exch def /vg&index -1 def /vg&level 0 def
0 2 vg&string length 2 sub {
  dup dup 1 add exch vg&string exch get 8 bitshift vg&string 3 -1 roll get or
  dup 16#f0fe eq {pop 1}{16#f0ff eq {-1}{0} ifelse} ifelse
  /vg&level exch vg&level add def
  vg&level 0 eq {/vg&index exch def exit} if pop
} for
vg&index 0 ge {
  vg&string vg&index 2 add dup vg&string length exch sub getinterval
  vg&index 2 gt {vg&string 2 vg&index 2 sub getinterval}{()} ifelse
  true}
{false} ifelse
} bind def

% Recursively show an unicode string.
% <string> recshow --
/recshow {
  popfirst
  {
    % Test to see if this is a string attribute.
    vg&fbyte 16#f0 and 16#e0 eq
    {
      q

      % Font style.
      currentfont dup /FontStyleBits known {/FontStyleBits get}{pop 0} ifelse
      vg&cbyte or vg&fontstyles exch get fontsize exch exec

      vg&token pop recshow currentpoint Q m recshow
    }
    {
      vg&fbyte 16#F8 and 16#F0 eq {

        % Superscript and/or subscript.
        vg&cbyte 16#00 eq {
          vg&token pop exch vg&token pop 3 -1 roll
          q raise recshow unraise currentpoint pop Q exch
          q lower recshow unlower currentpoint pop Q
          maxval currentpoint exch pop m recshow } if

        % Strikeout.
        vg&cbyte 16#01 eq {
          vg&token pop currentpoint 3 -1 roll recshow
          q 0 J vg&underline vg&uthick w
          currentpoint 4 -2 roll fontsize 3 div add moveto
          fontsize 3 div add lineto internalstroke Q
          recshow} if

        % Underline.
        vg&cbyte 16#02 eq {
          vg&token pop currentpoint 3 -1 roll recshow
          q 0 J vg&underline vg&uthick w
          currentpoint 4 -2 roll vg&uoffset add moveto
          vg&uoffset add lineto internalstroke Q
          recshow} if

        % Dashed underline.
        vg&cbyte 16#03 eq {
          vg&token pop currentpoint 3 -1 roll recshow
          q 0 J [ vg&uthick 5 mul vg&uthick 2 mul] 0 d
          vg&underline vg&uthick w
          currentpoint 4 -2 roll vg&uoffset add moveto
          vg&uoffset add lineto internalstroke Q
          recshow} if

        % Dotted underline.
        vg&cbyte 16#04 eq {
          vg&token pop currentpoint 3 -1 roll recshow
          q 1 J [ 0 vg&uthick 3 mul] 0 d
          vg&underline vg&uthick w
          currentpoint 4 -2 roll vg&uoffset add moveto
          vg&uoffset add lineto internalstroke Q
          recshow} if

        % Thick underline.
        vg&cbyte 16#05 eq {
          vg&token pop currentpoint 3 -1 roll recshow
          q 0 J vg&underline vg&uthick 2 mul w
          currentpoint 4 -2 roll vg&uoffset vg&uthick 2 div sub add moveto
          vg&uoffset vg&uthick 2 div sub add lineto internalstroke Q
          recshow} if

        % Gray thick underline.
        vg&cbyte 16#06 eq {
          vg&token pop currentpoint 3 -1 roll recshow
          q 0 J vg&underline vg&uthick 2 mul w 0.5 setgray
          currentpoint 4 -2 roll vg&uoffset vg&uthick 2 div sub add moveto
          vg&uoffset vg&uthick 2 div sub add lineto internalstroke Q
          recshow} if

        % Overbar.
        vg&cbyte 16#07 eq {
          vg&token pop dup stringsize relative 4 1 roll pop pop exch
          3 -1 roll recshow
          q 0 J vg&underline vg&uthick w
          vg&uoffset neg add dup currentpoint pop exch m l internalstroke Q
          recshow} if
      }
      {
        vg&fbyte vg&cbyte unicharshow recshow
      } ifelse
    } ifelse
  } if
} def

% Get the underline position and thickness from the current font.
/vg&underline {

currentfont dup /FontType get 0 eq {/FDepVector get 0 get} if
dup dup /FontInfo known {
  /FontInfo get dup
  dup /UnderlinePosition known {
    /UnderlinePosition get /vg&uoffset exch def
  }
  {
    pop /vg&uoffset 0 def
  } ifelse
  dup /UnderlineThickness known {
    /UnderlineThickness get /vg&uthick exch def
  }
  {
    pop /vg&uthick 0 def
  } ifelse
}
{
  pop /vg&uoffset 0 def /vg&uthick 0 def
} ifelse
/FontMatrix get
currentfont dup /FontType get 0 eq
{/FontMatrix get matrix concatmatrix}{pop} ifelse
dup 0 vg&uoffset 3 -1 roll transform /vg&uoffset exch def pop
0 vg&uthick 3 -1 roll transform /vg&uthick exch def pop
} def

% Make a frame with the coordinates on the stack.
% <llx> <lly> <urx> <ury> frame --
/frame {4 copy m 3 1 roll exch l 4 -2 roll l l h} def

% Resets the accumulated bounding box to a degenerate box at the
% current point.
% -- resetbbox --
/resetbbox {
  currentpoint 2 copy
  /bbury exch def
  /bburx exch def
  /bblly exch def
  /bbllx exch def
} def

% Update the accumulated bounding box.
% <llx'> <lly'> <urx'> <ury'> updatebbox --
/updatebbox {
  dup bbury gt {/bbury exch def} {pop} ifelse
  dup bburx gt {/bburx exch def} {pop} ifelse
  dup bblly lt {/bblly exch def} {pop} ifelse
  dup bbllx lt {/bbllx exch def} {pop} ifelse
} def

% Set the bounding box to the values on the stack.
% <llx'> <lly'> <urx'> <ury'> updatebbox --
/restorebbox {
  /bbury exch def /bburx exch def /bblly exch def /bbllx exch def
} def

% Push the accumulated bounding box onto the stack.
% -- pushbbox <llx> <lly> <urx> <ury>
/pushbbox {bbllx bblly bburx bbury} def

% Make the relative bounding box relative to the currentpoint.
% <llx'> <lly'> <urx'> <ury'> inflate <llx> <lly> <urx> <ury>
/inflate {
  2 {fontsize 0.2 mul add 4 1 roll} repeat
  2 {fontsize 0.2 mul sub 4 1 roll} repeat
} def

% Make the relative bounding box relative to the currentpoint.
% <llx'> <lly'> <urx'> <ury'> relative <llx> <lly> <urx> <ury>
/relative {
  currentpoint 3 -1 roll add 3 1 roll add exch 4 2 roll
  currentpoint 3 -1 roll add 3 1 roll add exch 4 2 roll
} def

% Returns the size of a string appropriate for recshow.
% <string> stringsize <llx> <lly> <urx> <ury>
/stringsize {
  pushbbox /internalshow load /internalstroke load 7 -1 roll
  q
  nulldevice 0 0 m
  nullinternalshow nullinternalstroke
  resetbbox
  recshow
  /internalstroke exch def /internalshow exch def
  pushbbox 8 -4 roll restorebbox
  Q
} def

% Calculate values for string positioning.
/calcval {4 copy
  3 -1 roll sub /widy exch def sub neg /widx exch def
  pop pop /dy exch def /dx exch def} def

% Utilities to position a string.
% First letter (U=upper, C=center, B=baseline, L=lower)
% Second letter (L=left, C=center, R=right)
/align [
{calcval dx neg widy dy add neg rmoveto} % UL
{calcval dx neg widy 2 div dy add neg rmoveto} % CL
{calcval dx neg 0 rmoveto} % BL
{calcval dx neg dy neg rmoveto} % LL
{calcval widx dx add neg widy dy add neg rmoveto} % UR
{calcval widx dx add neg widy 2 div dy add neg rmoveto} % CR
{calcval widx dx add neg 0 rmoveto} % BR
{calcval widx dx add neg dy neg rmoveto} % LR
{calcval widx 2 div dx add neg widy dy add neg rmoveto} % UC
{calcval widx 2 div dx add neg widy 2 div dy add neg rmoveto} % CC
{calcval widx 2 div dx add neg 0 rmoveto} % BC
{calcval widx 2 div dx add neg dy neg rmoveto} % LC
] def

/vg&str {m q 1 -1 scale dup stringsize 4 copy align 11 -1 roll get exec
         q inflate relative frame exch exec Q recshow Q} def

end /procDict exch def
%%EndProlog

%%BeginSetup
save
procDict begin
printColorMap begin
1080 604 setpagesize
0 0 0 0 setmargins
0 0 setorigin
1080 604 setsize
naturalsize
portrait
imagescale
cliptobounds
setbasematrix
/Helvetica 10 sf
defaultGraphicsState
%%EndSetup

0.00000 0.00000 0.00000 RG
[ 1.00000 0.00000 0.00000 1.00000 0.00000 0.00000 ] defaultmatrix matrix concatmatrix setmatrix
cliprestore
1.00000 1.00000 1.00000 RG
newpath
0.00000 0.00000 m
1080.00 0.00000 l
1080.00 604.000 l
0.00000 604.000 l
0.00000 0.00000 l
h
f
0.00000 0.00000 0.00000 RG
0 0 1080 604 rc
q
[ 2.00000 0.00000 0.00000 2.00000 0.00000 0.00000 ] concat
[ 1.00000 0.00000 0.00000 1.00000 -82.0000 -205.000 ] concat
1.00000 1.00000 1.00000 RG
newpath
82.0000 205.000 m
622.000 205.000 l
622.000 507.000 l
82.0000 507.000 l
82.0000 205.000 l
h
f
0.00000 0.00000 0.00000 RG
[ 2.00000 0.00000 0.00000 2.00000 -164.000 -410.000 ] defaultmatrix matrix concatmatrix setmatrix
[ 2.00000 0.00000 0.00000 2.00000 -164.000 -410.000 ] defaultmatrix matrix concatmatrix setmatrix
[ 1.00000 0.00000 0.00000 1.00000 0.00000 0.00000 ] defaultmatrix matrix concatmatrix setmatrix
[ 2.00000 0.00000 0.00000 2.00000 -164.000 -410.000 ] defaultmatrix matrix concatmatrix setmatrix
q
q
.925490 .960784 1.00000 RG
newpath
90.0000 213.000 m
90.0000 243.000 l
614.000 243.000 l
614.000 213.000 l
h
f
newpath
90.0000 243.000 m
614.000 243.000 l
614.000 499.000 l
90.0000 499.000 l
90.0000 243.000 l
h
f
0.00000 0.00000 0.00000 RG
.443137 .572549 .698039 RG
newpath
114.000 243.000 m
614.000 243.000 l
614.000 243.000 l
114.000 243.000 l
114.000 243.000 l
h
f
.768627 .843137 .929412 RG
newpath
90.0000 243.000 m
114.000 243.000 l
114.000 394.000 l
90.0000 394.000 l
90.0000 243.000 l
h
f
newpath
114.000 243.000 m
614.000 243.000 l
614.000 394.000 l
114.000 394.000 l
114.000 243.000 l
h
f
.670588 .784314 .886275 RG
newpath
90.0000 394.000 m
114.000 394.000 l
114.000 499.000 l
90.0000 499.000 l
90.0000 394.000 l
h
f
newpath
114.000 394.000 m
614.000 394.000 l
614.000 499.000 l
114.000 499.000 l
114.000 394.000 l
h
f
0 J
1.45000 M
0.00000 0.00000 0.00000 RG
newpath
90.0000 213.000 m
614.000 213.000 l
614.000 499.000 l
90.0000 499.000 l
90.0000 213.000 l
h
S
.670588 .784314 .886275 RG
2 J
10.0000 M
0.00000 0.00000 0.00000 RG
0 J
1.45000 M
newpath
114.000 243.000 m
614.000 243.000 l
614.000 499.000 l
114.000 499.000 l
114.000 243.000 l
h
S
newpath
90.0000 243.000 m
614.000 243.000 l
614.000 394.000 l
90.0000 394.000 l
90.0000 243.000 l
h
S
newpath
90.0000 394.000 m
614.000 394.000 l
614.000 499.000 l
90.0000 499.000 l
90.0000 394.000 l
h
S
Q
0 J
1.45000 M
newpath
315.584 233.502 m
315.584 223.812 l
311.739 223.812 l
311.739 222.662 l
320.967 222.662 l
320.967 223.812 l
317.122 223.812 l
317.122 233.502 l
h
328.365 233.246 m
327.398 233.539 326.570 233.685 325.882 233.685  c
324.710 233.685 323.754 233.296 323.014 232.517  c
322.275 231.738 321.905 230.729 321.905 229.488  c
321.905 228.282 322.231 227.293 322.883 226.522  c
323.534 225.750 324.368 225.365 325.384 225.365  c
326.346 225.365 327.089 225.707 327.614 226.390  c
328.139 227.074 328.401 228.045 328.401 229.305  c
328.394 229.752 l
323.377 229.752 l
323.587 231.642 324.512 232.586 326.153 232.586  c
326.753 232.586 327.491 232.425 328.365 232.103  c
h
323.443 228.668 m
326.951 228.668 l
326.951 227.188 326.399 226.449 325.296 226.449  c
324.188 226.449 323.570 227.188 323.443 228.668  c
h
333.001 233.685 m
332.342 233.685 331.541 233.531 330.599 233.224  c
330.599 231.898 l
331.541 232.367 332.361 232.601 333.060 232.601  c
333.475 232.601 333.819 232.489 334.092 232.264  c
334.366 232.040 334.502 231.759 334.502 231.422  c
334.502 230.929 334.119 230.521 333.353 230.199  c
332.510 229.840 l
331.265 229.322 330.643 228.578 330.643 227.606  c
330.643 226.913 330.888 226.367 331.379 225.969  c
331.869 225.571 332.542 225.372 333.396 225.372  c
333.841 225.372 334.390 225.433 335.044 225.555  c
335.345 225.614 l
335.345 226.815 l
334.539 226.576 333.899 226.456 333.426 226.456  c
332.498 226.456 332.034 226.793 332.034 227.467  c
332.034 227.901 332.386 228.268 333.089 228.565  c
333.785 228.858 l
334.571 229.190 335.127 229.541 335.455 229.909  c
335.782 230.278 335.945 230.738 335.945 231.290  c
335.945 231.988 335.669 232.562 335.118 233.011  c
334.566 233.460 333.860 233.685 333.001 233.685  c
h
340.926 233.685 m
340.193 233.685 339.622 233.475 339.212 233.055  c
338.802 232.635 338.597 232.052 338.597 231.305  c
338.597 226.632 l
337.601 226.632 l
337.601 225.548 l
338.597 225.548 l
338.597 224.105 l
340.040 223.966 l
340.040 225.548 l
342.120 225.548 l
342.120 226.632 l
340.040 226.632 l
340.040 231.041 l
340.040 232.081 340.489 232.601 341.387 232.601  c
341.578 232.601 341.810 232.569 342.083 232.506  c
342.083 233.502 l
341.639 233.624 341.253 233.685 340.926 233.685  c
h
344.148 233.502 m
344.148 225.548 l
345.591 225.548 l
345.591 227.042 l
346.294 225.929 347.198 225.372 348.301 225.372  c
349.366 225.372 350.091 225.929 350.477 227.042  c
351.160 225.924 352.049 225.365 353.143 225.365  c
353.846 225.365 354.390 225.571 354.776 225.984  c
355.162 226.396 355.354 226.974 355.354 227.716  c
355.354 233.502 l
353.904 233.502 l
353.904 227.943 l
353.904 227.035 353.545 226.581 352.828 226.581  c
352.081 226.581 351.297 227.110 350.477 228.170  c
350.477 233.502 l
349.026 233.502 l
349.026 227.943 l
349.026 227.030 348.660 226.573 347.928 226.573  c
347.200 226.573 346.421 227.105 345.591 228.170  c
345.591 233.502 l
h
361.265 233.685 m
360.127 233.685 359.219 233.308 358.541 232.553  c
357.862 231.799 357.522 230.790 357.522 229.525  c
357.522 228.246 357.863 227.234 358.544 226.489  c
359.225 225.744 360.149 225.372 361.316 225.372  c
362.483 225.372 363.407 225.744 364.089 226.489  c
364.770 227.234 365.110 228.241 365.110 229.510  c
365.110 230.809 364.769 231.830 364.085 232.572  c
363.401 233.314 362.461 233.685 361.265 233.685  c
h
361.287 232.601 m
362.815 232.601 363.580 231.571 363.580 229.510  c
363.580 227.474 362.825 226.456 361.316 226.456  c
359.812 226.456 359.061 227.479 359.061 229.525  c
359.061 231.576 359.803 232.601 361.287 232.601  c
h
372.471 233.502 m
372.471 232.008 l
371.885 233.126 371.001 233.685 369.820 233.685  c
368.863 233.685 368.110 233.336 367.560 232.638  c
367.011 231.939 366.736 230.985 366.736 229.774  c
366.736 228.451 367.048 227.386 367.670 226.581  c
368.293 225.775 369.112 225.372 370.127 225.372  c
371.070 225.372 371.851 225.733 372.471 226.456  c
372.471 221.937 l
373.921 221.937 l
373.921 233.502 l
h
372.471 227.445 m
371.724 226.786 371.016 226.456 370.347 226.456  c
368.965 226.456 368.274 227.513 368.274 229.627  c
368.274 231.488 368.890 232.418 370.120 232.418  c
370.921 232.418 371.705 231.981 372.471 231.107  c
h
382.637 233.246 m
381.670 233.539 380.843 233.685 380.154 233.685  c
378.982 233.685 378.027 233.296 377.287 232.517  c
376.547 231.738 376.177 230.729 376.177 229.488  c
376.177 228.282 376.503 227.293 377.155 226.522  c
377.807 225.750 378.641 225.365 379.656 225.365  c
380.618 225.365 381.362 225.707 381.886 226.390  c
382.411 227.074 382.674 228.045 382.674 229.305  c
382.667 229.752 l
377.649 229.752 l
377.859 231.642 378.785 232.586 380.425 232.586  c
381.026 232.586 381.763 232.425 382.637 232.103  c
h
377.715 228.668 m
381.224 228.668 l
381.224 227.188 380.672 226.449 379.568 226.449  c
378.460 226.449 377.842 227.188 377.715 228.668  c
h
385.164 233.502 m
385.164 221.937 l
386.607 221.937 l
386.607 233.502 l
h
389.500 233.502 m
389.500 221.937 l
390.943 221.937 l
390.943 233.502 l
h
f
2 J
10.0000 M
q
[ -1.83697E-16 -1.00000 1.00000 -1.83697E-16 93.0000 374.465 ] concat
0 J
1.45000 M
newpath
3.11328 13.6016 m
3.11328 4.92969 l
4.34375 4.92969 l
4.34375 13.6016 l
h
6.61133 13.6016 m
6.61133 7.23828 l
7.76562 7.23828 l
7.76562 8.43359 l
8.37500 7.54297 9.12109 7.09766 10.0039 7.09766  c
10.5547 7.09766 10.9941 7.27246 11.3223 7.62207  c
11.6504 7.97168 11.8145 8.44141 11.8145 9.03125  c
11.8145 13.6016 l
10.6602 13.6016 l
10.6602 9.40625 l
10.6602 8.93359 10.5908 8.59668 10.4521 8.39551  c
10.3135 8.19434 10.0840 8.09375 9.76367 8.09375  c
9.05664 8.09375 8.39062 8.55664 7.76562 9.48242  c
7.76562 13.6016 l
h
15.9688 13.7480 m
15.3828 13.7480 14.9258 13.5801 14.5977 13.2441  c
14.2695 12.9082 14.1055 12.4414 14.1055 11.8438  c
14.1055 8.10547 l
13.3086 8.10547 l
13.3086 7.23828 l
14.1055 7.23828 l
14.1055 6.08398 l
15.2598 5.97266 l
15.2598 7.23828 l
16.9238 7.23828 l
16.9238 8.10547 l
15.2598 8.10547 l
15.2598 11.6328 l
15.2598 12.4648 15.6191 12.8809 16.3379 12.8809  c
16.4902 12.8809 16.6758 12.8555 16.8945 12.8047  c
16.8945 13.6016 l
16.5391 13.6992 16.2305 13.7480 15.9688 13.7480  c
h
23.2109 13.3965 m
22.4375 13.6309 21.7754 13.7480 21.2246 13.7480  c
20.2871 13.7480 19.5225 13.4365 18.9307 12.8135  c
18.3389 12.1904 18.0430 11.3828 18.0430 10.3906  c
18.0430 9.42578 18.3037 8.63477 18.8252 8.01758  c
19.3467 7.40039 20.0137 7.09180 20.8262 7.09180  c
21.5957 7.09180 22.1904 7.36523 22.6104 7.91211  c
23.0303 8.45898 23.2402 9.23633 23.2402 10.2441  c
23.2344 10.6016 l
19.2207 10.6016 l
19.3887 12.1133 20.1289 12.8691 21.4414 12.8691  c
21.9219 12.8691 22.5117 12.7402 23.2109 12.4824  c
h
19.2734 9.73438 m
22.0801 9.73438 l
22.0801 8.55078 21.6387 7.95898 20.7559 7.95898  c
19.8691 7.95898 19.3750 8.55078 19.2734 9.73438  c
h
25.2559 15.7168 m
25.3906 14.7148 l
26.0586 15.0312 26.7168 15.1895 27.3652 15.1895  c
28.6660 15.1895 29.3164 14.5000 29.3164 13.1211  c
29.3164 12.1191 l
28.8906 13.0098 28.1914 13.4551 27.2188 13.4551  c
26.4570 13.4551 25.8516 13.1777 25.4023 12.6230  c
24.9531 12.0684 24.7285 11.3203 24.7285 10.3789  c
24.7285 9.41016 24.9844 8.62109 25.4961 8.01172  c
26.0078 7.40234 26.6699 7.09766 27.4824 7.09766  c
28.1934 7.09766 28.8047 7.38672 29.3164 7.96484  c
29.3164 7.23828 l
30.4766 7.23828 l
30.4766 11.8672 l
30.4766 12.8633 30.4248 13.6006 30.3213 14.0791  c
30.2178 14.5576 30.0234 14.9492 29.7383 15.2539  c
29.2344 15.7891 28.4512 16.0566 27.3887 16.0566  c
26.6465 16.0566 25.9355 15.9434 25.2559 15.7168  c
h
29.3164 11.3984 m
29.3164 8.75586 l
28.8086 8.22852 28.2559 7.96484 27.6582 7.96484  c
27.1270 7.96484 26.7109 8.17773 26.4102 8.60352  c
26.1094 9.02930 25.9590 9.61328 25.9590 10.3555  c
25.9590 11.7500 26.4492 12.4473 27.4297 12.4473  c
28.0977 12.4473 28.7266 12.0977 29.3164 11.3984  c
h
32.7148 13.6016 m
32.7148 7.23828 l
33.8691 7.23828 l
33.8691 8.43359 l
34.3262 7.54297 34.9902 7.09766 35.8613 7.09766  c
35.9785 7.09766 36.1016 7.10742 36.2305 7.12695  c
36.2305 8.20508 l
36.0312 8.13867 35.8555 8.10547 35.7031 8.10547  c
34.9727 8.10547 34.3613 8.53906 33.8691 9.40625  c
33.8691 13.6016 l
h
40.9062 12.7930 m
40.2148 13.4297 39.5488 13.7480 38.9082 13.7480  c
38.3809 13.7480 37.9434 13.5830 37.5957 13.2529  c
37.2480 12.9229 37.0742 12.5059 37.0742 12.0020  c
37.0742 11.3066 37.3662 10.7725 37.9502 10.3994  c
38.5342 10.0264 39.3711 9.83984 40.4609 9.83984  c
40.7363 9.83984 l
40.7363 9.07227 l
40.7363 8.33398 40.3574 7.96484 39.5996 7.96484  c
38.9902 7.96484 38.3320 8.15234 37.6250 8.52734  c
37.6250 7.57227 l
38.4023 7.25586 39.1309 7.09766 39.8105 7.09766  c
40.5215 7.09766 41.0459 7.25781 41.3838 7.57812  c
41.7217 7.89844 41.8906 8.39648 41.8906 9.07227  c
41.8906 11.9551 l
41.8906 12.6152 42.0938 12.9453 42.5000 12.9453  c
42.5508 12.9453 42.6250 12.9375 42.7227 12.9219  c
42.8047 13.5605 l
42.5430 13.6855 42.2539 13.7480 41.9375 13.7480  c
41.3984 13.7480 41.0547 13.4297 40.9062 12.7930  c
h
40.7363 12.1660 m
40.7363 10.5195 l
40.3496 10.5078 l
39.7168 10.5078 39.2051 10.6279 38.8145 10.8682  c
38.4238 11.1084 38.2285 11.4238 38.2285 11.8145  c
38.2285 12.0918 38.3262 12.3262 38.5215 12.5176  c
38.7168 12.7090 38.9551 12.8047 39.2363 12.8047  c
39.7168 12.8047 40.2168 12.5918 40.7363 12.1660  c
h
46.1621 13.7480 m
45.5762 13.7480 45.1191 13.5801 44.7910 13.2441  c
44.4629 12.9082 44.2988 12.4414 44.2988 11.8438  c
44.2988 8.10547 l
43.5020 8.10547 l
43.5020 7.23828 l
44.2988 7.23828 l
44.2988 6.08398 l
45.4531 5.97266 l
45.4531 7.23828 l
47.1172 7.23828 l
47.1172 8.10547 l
45.4531 8.10547 l
45.4531 11.6328 l
45.4531 12.4648 45.8125 12.8809 46.5312 12.8809  c
46.6836 12.8809 46.8691 12.8555 47.0879 12.8047  c
47.0879 13.6016 l
46.7324 13.6992 46.4238 13.7480 46.1621 13.7480  c
h
48.7402 13.6016 m
48.7402 7.23828 l
49.8945 7.23828 l
49.8945 13.6016 l
h
48.7402 6.08398 m
48.7402 4.92969 l
49.8945 4.92969 l
49.8945 6.08398 l
h
54.6992 13.7480 m
53.7891 13.7480 53.0625 13.4463 52.5195 12.8428  c
51.9766 12.2393 51.7051 11.4316 51.7051 10.4199  c
51.7051 9.39648 51.9775 8.58691 52.5225 7.99121  c
53.0674 7.39551 53.8066 7.09766 54.7402 7.09766  c
55.6738 7.09766 56.4131 7.39551 56.9580 7.99121  c
57.5029 8.58691 57.7754 9.39258 57.7754 10.4082  c
57.7754 11.4473 57.5020 12.2637 56.9551 12.8574  c
56.4082 13.4512 55.6562 13.7480 54.6992 13.7480  c
h
54.7168 12.8809 m
55.9395 12.8809 56.5508 12.0566 56.5508 10.4082  c
56.5508 8.77930 55.9473 7.96484 54.7402 7.96484  c
53.5371 7.96484 52.9355 8.78320 52.9355 10.4199  c
52.9355 12.0605 53.5293 12.8809 54.7168 12.8809  c
h
59.5801 13.6016 m
59.5801 7.23828 l
60.7344 7.23828 l
60.7344 8.43359 l
61.3438 7.54297 62.0898 7.09766 62.9727 7.09766  c
63.5234 7.09766 63.9629 7.27246 64.2910 7.62207  c
64.6191 7.97168 64.7832 8.44141 64.7832 9.03125  c
64.7832 13.6016 l
63.6289 13.6016 l
63.6289 9.40625 l
63.6289 8.93359 63.5596 8.59668 63.4209 8.39551  c
63.2822 8.19434 63.0527 8.09375 62.7324 8.09375  c
62.0254 8.09375 61.3594 8.55664 60.7344 9.48242  c
60.7344 13.6016 l
h
68.7148 13.7480 m
68.1875 13.7480 67.5469 13.6250 66.7930 13.3789  c
66.7930 12.3184 l
67.5469 12.6934 68.2031 12.8809 68.7617 12.8809  c
69.0938 12.8809 69.3691 12.7910 69.5879 12.6113  c
69.8066 12.4316 69.9160 12.2070 69.9160 11.9375  c
69.9160 11.5430 69.6094 11.2168 68.9961 10.9590  c
68.3223 10.6719 l
67.3262 10.2578 66.8281 9.66211 66.8281 8.88477  c
66.8281 8.33008 67.0244 7.89355 67.4170 7.57520  c
67.8096 7.25684 68.3477 7.09766 69.0312 7.09766  c
69.3867 7.09766 69.8262 7.14648 70.3496 7.24414  c
70.5898 7.29102 l
70.5898 8.25195 l
69.9453 8.06055 69.4336 7.96484 69.0547 7.96484  c
68.3125 7.96484 67.9414 8.23438 67.9414 8.77344  c
67.9414 9.12109 68.2227 9.41406 68.7852 9.65234  c
69.3418 9.88672 l
69.9707 10.1523 70.4160 10.4326 70.6777 10.7275  c
70.9395 11.0225 71.0703 11.3906 71.0703 11.8320  c
71.0703 12.3906 70.8496 12.8496 70.4082 13.2090  c
69.9668 13.5684 69.4023 13.7480 68.7148 13.7480  c
h
72.8574 10.5664 m
72.8574 9.69922 l
78.0605 9.69922 l
78.0605 10.5664 l
h
82.1152 13.6016 m
82.1152 5.84961 l
79.0391 5.84961 l
79.0391 4.92969 l
86.4219 4.92969 l
86.4219 5.84961 l
83.3457 5.84961 l
83.3457 13.6016 l
h
92.3398 13.3965 m
91.5664 13.6309 90.9043 13.7480 90.3535 13.7480  c
89.4160 13.7480 88.6514 13.4365 88.0596 12.8135  c
87.4678 12.1904 87.1719 11.3828 87.1719 10.3906  c
87.1719 9.42578 87.4326 8.63477 87.9541 8.01758  c
88.4756 7.40039 89.1426 7.09180 89.9551 7.09180  c
90.7246 7.09180 91.3193 7.36523 91.7393 7.91211  c
92.1592 8.45898 92.3691 9.23633 92.3691 10.2441  c
92.3633 10.6016 l
88.3496 10.6016 l
88.5176 12.1133 89.2578 12.8691 90.5703 12.8691  c
91.0508 12.8691 91.6406 12.7402 92.3398 12.4824  c
h
88.4023 9.73438 m
91.2090 9.73438 l
91.2090 8.55078 90.7676 7.95898 89.8848 7.95898  c
88.9980 7.95898 88.5039 8.55078 88.4023 9.73438  c
h
96.0488 13.7480 m
95.5215 13.7480 94.8809 13.6250 94.1270 13.3789  c
94.1270 12.3184 l
94.8809 12.6934 95.5371 12.8809 96.0957 12.8809  c
96.4277 12.8809 96.7031 12.7910 96.9219 12.6113  c
97.1406 12.4316 97.2500 12.2070 97.2500 11.9375  c
97.2500 11.5430 96.9434 11.2168 96.3301 10.9590  c
95.6562 10.6719 l
94.6602 10.2578 94.1621 9.66211 94.1621 8.88477  c
94.1621 8.33008 94.3584 7.89355 94.7510 7.57520  c
95.1436 7.25684 95.6816 7.09766 96.3652 7.09766  c
96.7207 7.09766 97.1602 7.14648 97.6836 7.24414  c
97.9238 7.29102 l
97.9238 8.25195 l
97.2793 8.06055 96.7676 7.96484 96.3887 7.96484  c
95.6465 7.96484 95.2754 8.23438 95.2754 8.77344  c
95.2754 9.12109 95.5566 9.41406 96.1191 9.65234  c
96.6758 9.88672 l
97.3047 10.1523 97.7500 10.4326 98.0117 10.7275  c
98.2734 11.0225 98.4043 11.3906 98.4043 11.8320  c
98.4043 12.3906 98.1836 12.8496 97.7422 13.2090  c
97.3008 13.5684 96.7363 13.7480 96.0488 13.7480  c
h
102.389 13.7480 m
101.803 13.7480 101.346 13.5801 101.018 13.2441  c
100.689 12.9082 100.525 12.4414 100.525 11.8438  c
100.525 8.10547 l
99.7285 8.10547 l
99.7285 7.23828 l
100.525 7.23828 l
100.525 6.08398 l
101.680 5.97266 l
101.680 7.23828 l
103.344 7.23828 l
103.344 8.10547 l
101.680 8.10547 l
101.680 11.6328 l
101.680 12.4648 102.039 12.8809 102.758 12.8809  c
102.910 12.8809 103.096 12.8555 103.314 12.8047  c
103.314 13.6016 l
102.959 13.6992 102.650 13.7480 102.389 13.7480  c
h
106.654 13.7480 m
106.127 13.7480 105.486 13.6250 104.732 13.3789  c
104.732 12.3184 l
105.486 12.6934 106.143 12.8809 106.701 12.8809  c
107.033 12.8809 107.309 12.7910 107.527 12.6113  c
107.746 12.4316 107.855 12.2070 107.855 11.9375  c
107.855 11.5430 107.549 11.2168 106.936 10.9590  c
106.262 10.6719 l
105.266 10.2578 104.768 9.66211 104.768 8.88477  c
104.768 8.33008 104.964 7.89355 105.356 7.57520  c
105.749 7.25684 106.287 7.09766 106.971 7.09766  c
107.326 7.09766 107.766 7.14648 108.289 7.24414  c
108.529 7.29102 l
108.529 8.25195 l
107.885 8.06055 107.373 7.96484 106.994 7.96484  c
106.252 7.96484 105.881 8.23438 105.881 8.77344  c
105.881 9.12109 106.162 9.41406 106.725 9.65234  c
107.281 9.88672 l
107.910 10.1523 108.355 10.4326 108.617 10.7275  c
108.879 11.0225 109.010 11.3906 109.010 11.8320  c
109.010 12.3906 108.789 12.8496 108.348 13.2090  c
107.906 13.5684 107.342 13.7480 106.654 13.7480  c
h
f
2 J
10.0000 M
Q
q
[ -1.83697E-16 -1.00000 1.00000 -1.83697E-16 93.0000 479.329 ] concat
0 J
1.45000 M
newpath
3.04883 4.92969 m
4.27930 4.92969 l
4.27930 10.4023 l
4.27930 11.2734 4.44043 11.9072 4.76270 12.3037  c
5.08496 12.7002 5.59766 12.8984 6.30078 12.8984  c
6.98828 12.8984 7.47559 12.7119 7.76270 12.3389  c
8.04980 11.9658 8.19336 11.3340 8.19336 10.4434  c
8.19336 4.92969 l
9.27148 4.92969 l
9.27148 10.4258 l
9.27148 11.6094 9.02832 12.4707 8.54199 13.0098  c
8.05566 13.5488 7.28125 13.8184 6.21875 13.8184  c
5.13672 13.8184 4.33789 13.5391 3.82227 12.9805  c
3.30664 12.4219 3.04883 11.5586 3.04883 10.3906  c
h
11.4688 13.6016 m
11.4688 7.23828 l
12.6230 7.23828 l
12.6230 8.43359 l
13.2324 7.54297 13.9785 7.09766 14.8613 7.09766  c
15.4121 7.09766 15.8516 7.27246 16.1797 7.62207  c
16.5078 7.97168 16.6719 8.44141 16.6719 9.03125  c
16.6719 13.6016 l
15.5176 13.6016 l
15.5176 9.40625 l
15.5176 8.93359 15.4482 8.59668 15.3096 8.39551  c
15.1709 8.19434 14.9414 8.09375 14.6211 8.09375  c
13.9141 8.09375 13.2480 8.55664 12.6230 9.48242  c
12.6230 13.6016 l
h
18.9160 13.6016 m
18.9160 7.23828 l
20.0703 7.23828 l
20.0703 13.6016 l
h
18.9160 6.08398 m
18.9160 4.92969 l
20.0703 4.92969 l
20.0703 6.08398 l
h
24.2949 13.7480 m
23.7090 13.7480 23.2520 13.5801 22.9238 13.2441  c
22.5957 12.9082 22.4316 12.4414 22.4316 11.8438  c
22.4316 8.10547 l
21.6348 8.10547 l
21.6348 7.23828 l
22.4316 7.23828 l
22.4316 6.08398 l
23.5859 5.97266 l
23.5859 7.23828 l
25.2500 7.23828 l
25.2500 8.10547 l
23.5859 8.10547 l
23.5859 11.6328 l
23.5859 12.4648 23.9453 12.8809 24.6641 12.8809  c
24.8164 12.8809 25.0020 12.8555 25.2207 12.8047  c
25.2207 13.6016 l
24.8652 13.6992 24.5566 13.7480 24.2949 13.7480  c
h
26.5859 10.5664 m
26.5859 9.69922 l
31.7891 9.69922 l
31.7891 10.5664 l
h
35.8438 13.6016 m
35.8438 5.84961 l
32.7676 5.84961 l
32.7676 4.92969 l
40.1504 4.92969 l
40.1504 5.84961 l
37.0742 5.84961 l
37.0742 13.6016 l
h
46.0684 13.3965 m
45.2949 13.6309 44.6328 13.7480 44.0820 13.7480  c
43.1445 13.7480 42.3799 13.4365 41.7881 12.8135  c
41.1963 12.1904 40.9004 11.3828 40.9004 10.3906  c
40.9004 9.42578 41.1611 8.63477 41.6826 8.01758  c
42.2041 7.40039 42.8711 7.09180 43.6836 7.09180  c
44.4531 7.09180 45.0479 7.36523 45.4678 7.91211  c
45.8877 8.45898 46.0977 9.23633 46.0977 10.2441  c
46.0918 10.6016 l
42.0781 10.6016 l
42.2461 12.1133 42.9863 12.8691 44.2988 12.8691  c
44.7793 12.8691 45.3691 12.7402 46.0684 12.4824  c
h
42.1309 9.73438 m
44.9375 9.73438 l
44.9375 8.55078 44.4961 7.95898 43.6133 7.95898  c
42.7266 7.95898 42.2324 8.55078 42.1309 9.73438  c
h
49.7773 13.7480 m
49.2500 13.7480 48.6094 13.6250 47.8555 13.3789  c
47.8555 12.3184 l
48.6094 12.6934 49.2656 12.8809 49.8242 12.8809  c
50.1562 12.8809 50.4316 12.7910 50.6504 12.6113  c
50.8691 12.4316 50.9785 12.2070 50.9785 11.9375  c
50.9785 11.5430 50.6719 11.2168 50.0586 10.9590  c
49.3848 10.6719 l
48.3887 10.2578 47.8906 9.66211 47.8906 8.88477  c
47.8906 8.33008 48.0869 7.89355 48.4795 7.57520  c
48.8721 7.25684 49.4102 7.09766 50.0938 7.09766  c
50.4492 7.09766 50.8887 7.14648 51.4121 7.24414  c
51.6523 7.29102 l
51.6523 8.25195 l
51.0078 8.06055 50.4961 7.96484 50.1172 7.96484  c
49.3750 7.96484 49.0039 8.23438 49.0039 8.77344  c
49.0039 9.12109 49.2852 9.41406 49.8477 9.65234  c
50.4043 9.88672 l
51.0332 10.1523 51.4785 10.4326 51.7402 10.7275  c
52.0020 11.0225 52.1328 11.3906 52.1328 11.8320  c
52.1328 12.3906 51.9121 12.8496 51.4707 13.2090  c
51.0293 13.5684 50.4648 13.7480 49.7773 13.7480  c
h
56.1172 13.7480 m
55.5312 13.7480 55.0742 13.5801 54.7461 13.2441  c
54.4180 12.9082 54.2539 12.4414 54.2539 11.8438  c
54.2539 8.10547 l
53.4570 8.10547 l
53.4570 7.23828 l
54.2539 7.23828 l
54.2539 6.08398 l
55.4082 5.97266 l
55.4082 7.23828 l
57.0723 7.23828 l
57.0723 8.10547 l
55.4082 8.10547 l
55.4082 11.6328 l
55.4082 12.4648 55.7676 12.8809 56.4863 12.8809  c
56.6387 12.8809 56.8242 12.8555 57.0430 12.8047  c
57.0430 13.6016 l
56.6875 13.6992 56.3789 13.7480 56.1172 13.7480  c
h
60.3828 13.7480 m
59.8555 13.7480 59.2148 13.6250 58.4609 13.3789  c
58.4609 12.3184 l
59.2148 12.6934 59.8711 12.8809 60.4297 12.8809  c
60.7617 12.8809 61.0371 12.7910 61.2559 12.6113  c
61.4746 12.4316 61.5840 12.2070 61.5840 11.9375  c
61.5840 11.5430 61.2773 11.2168 60.6641 10.9590  c
59.9902 10.6719 l
58.9941 10.2578 58.4961 9.66211 58.4961 8.88477  c
58.4961 8.33008 58.6924 7.89355 59.0850 7.57520  c
59.4775 7.25684 60.0156 7.09766 60.6992 7.09766  c
61.0547 7.09766 61.4941 7.14648 62.0176 7.24414  c
62.2578 7.29102 l
62.2578 8.25195 l
61.6133 8.06055 61.1016 7.96484 60.7227 7.96484  c
59.9805 7.96484 59.6094 8.23438 59.6094 8.77344  c
59.6094 9.12109 59.8906 9.41406 60.4531 9.65234  c
61.0098 9.88672 l
61.6387 10.1523 62.0840 10.4326 62.3457 10.7275  c
62.6074 11.0225 62.7383 11.3906 62.7383 11.8320  c
62.7383 12.3906 62.5176 12.8496 62.0762 13.2090  c
61.6348 13.5684 61.0703 13.7480 60.3828 13.7480  c
h
f
2 J
10.0000 M
Q
Q
.200000 .600000 .400000 RG
newpath
291.500 257.000 m
416.500 257.000 l
416.500 292.000 l
291.500 292.000 l
291.500 257.000 l
h
f
0.00000 0.00000 0.00000 RG
0 J
1.45000 M
newpath
330.478 279.035 m
328.245 270.363 l
329.429 270.363 l
331.204 277.213 l
332.839 270.363 l
334.022 270.363 l
335.569 277.119 l
337.479 270.363 l
338.481 270.363 l
336.050 279.035 l
334.825 279.035 l
333.296 272.350 l
331.696 279.035 l
h
343.110 279.252 m
341.907 279.252 340.939 278.835 340.207 278.001  c
339.475 277.167 339.108 276.064 339.108 274.693  c
339.108 273.314 339.477 272.212 340.213 271.386  c
340.949 270.560 341.933 270.146 343.163 270.146  c
344.390 270.146 345.372 270.559 346.110 271.383  c
346.849 272.207 347.218 273.307 347.218 274.682  c
347.218 276.084 346.849 277.196 346.110 278.019  c
345.372 278.841 344.372 279.252 343.110 279.252  c
h
343.128 278.332 m
344.015 278.332 344.700 278.013 345.185 277.374  c
345.669 276.735 345.911 275.834 345.911 274.670  c
345.911 273.541 345.668 272.658 345.182 272.021  c
344.695 271.385 344.022 271.066 343.163 271.066  c
342.300 271.066 341.626 271.386 341.142 272.024  c
340.657 272.663 340.415 273.551 340.415 274.688  c
340.415 275.820 340.655 276.711 341.136 277.359  c
341.616 278.008 342.280 278.332 343.128 278.332  c
h
348.940 279.035 m
348.940 270.363 l
350.147 270.363 l
354.513 277.061 l
354.513 270.363 l
355.567 270.363 l
355.567 279.035 l
354.366 279.035 l
349.995 272.338 l
349.995 279.035 l
h
357.806 279.035 m
357.806 270.363 l
360.688 270.363 l
361.548 270.363 362.242 270.459 362.771 270.650  c
363.301 270.842 363.759 271.166 364.146 271.623  c
364.759 272.350 365.065 273.307 365.065 274.494  c
365.065 275.936 364.685 277.053 363.923 277.846  c
363.161 278.639 362.089 279.035 360.706 279.035  c
h
359.036 278.115 m
360.612 278.115 l
361.737 278.115 362.534 277.812 363.003 277.207  c
363.507 276.562 363.759 275.697 363.759 274.611  c
363.759 273.592 363.511 272.791 363.015 272.209  c
362.714 271.854 362.354 271.610 361.937 271.479  c
361.519 271.349 360.890 271.283 360.050 271.283  c
359.036 271.283 l
h
366.794 279.035 m
366.794 270.363 l
371.640 270.363 l
371.640 271.283 l
368.024 271.283 l
368.024 274.066 l
371.054 274.066 l
371.054 274.975 l
368.024 274.975 l
368.024 278.115 l
371.892 278.115 l
371.892 279.035 l
h
373.298 279.035 m
373.298 270.363 l
375.923 270.363 l
376.755 270.363 377.393 270.547 377.836 270.914  c
378.279 271.281 378.501 271.814 378.501 272.514  c
378.501 273.670 377.917 274.490 376.749 274.975  c
379.644 279.035 l
378.132 279.035 l
375.665 275.367 l
374.517 275.367 l
374.517 279.035 l
h
374.517 274.447 m
374.915 274.447 l
376.462 274.447 377.235 273.840 377.235 272.625  c
377.235 271.730 376.587 271.283 375.290 271.283  c
374.517 271.283 l
h
f
2 J
10.0000 M
.200000 .600000 .400000 RG
0 J
1.45000 M
0.00000 0.00000 0.00000 RG
newpath
291.500 257.000 m
416.500 257.000 l
416.500 292.000 l
291.500 292.000 l
291.500 257.000 l
h
S
2 J
10.0000 M
.600000 .800000 0.00000 RG
newpath
359.375 335.500 m
484.375 335.500 l
484.375 370.500 l
359.375 370.500 l
359.375 335.500 l
h
f
0.00000 0.00000 0.00000 RG
0 J
1.45000 M
newpath
408.899 357.535 m
405.624 348.863 l
406.854 348.863 l
409.538 355.965 l
412.128 348.863 l
413.206 348.863 l
410.060 357.535 l
h
414.413 357.535 m
414.413 351.172 l
415.567 351.172 l
415.567 357.535 l
h
414.413 350.018 m
414.413 348.863 l
415.567 348.863 l
415.567 350.018 l
h
421.966 357.535 m
421.966 356.340 l
421.497 357.234 420.790 357.682 419.845 357.682  c
419.079 357.682 418.477 357.402 418.037 356.844  c
417.598 356.285 417.378 355.521 417.378 354.553  c
417.378 353.494 417.627 352.643 418.125 351.998  c
418.623 351.354 419.278 351.031 420.091 351.031  c
420.845 351.031 421.470 351.320 421.966 351.898  c
421.966 348.283 l
423.126 348.283 l
423.126 357.535 l
h
421.966 352.689 m
421.368 352.162 420.802 351.898 420.267 351.898  c
419.161 351.898 418.608 352.744 418.608 354.436  c
418.608 355.924 419.101 356.668 420.085 356.668  c
420.726 356.668 421.353 356.318 421.966 355.619  c
h
430.099 357.330 m
429.325 357.564 428.663 357.682 428.112 357.682  c
427.175 357.682 426.410 357.370 425.818 356.747  c
425.227 356.124 424.931 355.316 424.931 354.324  c
424.931 353.359 425.191 352.568 425.713 351.951  c
426.234 351.334 426.901 351.025 427.714 351.025  c
428.483 351.025 429.078 351.299 429.498 351.846  c
429.918 352.393 430.128 353.170 430.128 354.178  c
430.122 354.535 l
426.108 354.535 l
426.276 356.047 427.017 356.803 428.329 356.803  c
428.810 356.803 429.399 356.674 430.099 356.416  c
h
426.161 353.668 m
428.968 353.668 l
428.968 352.484 428.526 351.893 427.644 351.893  c
426.757 351.893 426.263 352.484 426.161 353.668  c
h
434.610 357.682 m
433.700 357.682 432.974 357.380 432.431 356.776  c
431.888 356.173 431.616 355.365 431.616 354.354  c
431.616 353.330 431.889 352.521 432.434 351.925  c
432.979 351.329 433.718 351.031 434.651 351.031  c
435.585 351.031 436.324 351.329 436.869 351.925  c
437.414 352.521 437.687 353.326 437.687 354.342  c
437.687 355.381 437.413 356.197 436.866 356.791  c
436.319 357.385 435.567 357.682 434.610 357.682  c
h
434.628 356.814 m
435.851 356.814 436.462 355.990 436.462 354.342  c
436.462 352.713 435.858 351.898 434.651 351.898  c
433.448 351.898 432.847 352.717 432.847 354.354  c
432.847 355.994 433.440 356.814 434.628 356.814  c
h
f
2 J
10.0000 M
.600000 .800000 0.00000 RG
0 J
1.45000 M
0.00000 0.00000 0.00000 RG
newpath
359.375 335.500 m
484.375 335.500 l
484.375 370.500 l
359.375 370.500 l
359.375 335.500 l
h
S
2 J
10.0000 M
.600000 .800000 0.00000 RG
newpath
522.000 335.500 m
595.000 335.500 l
595.000 370.500 l
522.000 370.500 l
522.000 335.500 l
h
f
0.00000 0.00000 0.00000 RG
0 J
1.45000 M
newpath
546.954 354.219 m
545.478 350.480 l
543.995 354.219 l
h
548.255 357.535 m
547.312 355.133 l
543.638 355.133 l
542.683 357.535 l
541.540 357.535 l
544.979 348.863 l
546.198 348.863 l
549.585 357.535 l
h
554.853 357.535 m
554.853 356.340 l
554.239 357.234 553.495 357.682 552.620 357.682  c
552.065 357.682 551.624 357.507 551.296 357.157  c
550.968 356.808 550.804 356.336 550.804 355.742  c
550.804 351.172 l
551.958 351.172 l
551.958 355.367 l
551.958 355.844 552.027 356.183 552.166 356.384  c
552.305 356.585 552.536 356.686 552.860 356.686  c
553.563 356.686 554.228 356.223 554.853 355.297  c
554.853 351.172 l
556.007 351.172 l
556.007 357.535 l
h
562.405 357.535 m
562.405 356.340 l
561.937 357.234 561.229 357.682 560.284 357.682  c
559.519 357.682 558.916 357.402 558.477 356.844  c
558.037 356.285 557.817 355.521 557.817 354.553  c
557.817 353.494 558.066 352.643 558.564 351.998  c
559.062 351.354 559.718 351.031 560.530 351.031  c
561.284 351.031 561.909 351.320 562.405 351.898  c
562.405 348.283 l
563.565 348.283 l
563.565 357.535 l
h
562.405 352.689 m
561.808 352.162 561.241 351.898 560.706 351.898  c
559.601 351.898 559.048 352.744 559.048 354.436  c
559.048 355.924 559.540 356.668 560.524 356.668  c
561.165 356.668 561.792 356.318 562.405 355.619  c
h
565.874 357.535 m
565.874 351.172 l
567.028 351.172 l
567.028 357.535 l
h
565.874 350.018 m
565.874 348.863 l
567.028 348.863 l
567.028 350.018 l
h
571.833 357.682 m
570.923 357.682 570.196 357.380 569.653 356.776  c
569.110 356.173 568.839 355.365 568.839 354.354  c
568.839 353.330 569.111 352.521 569.656 351.925  c
570.201 351.329 570.940 351.031 571.874 351.031  c
572.808 351.031 573.547 351.329 574.092 351.925  c
574.637 352.521 574.909 353.326 574.909 354.342  c
574.909 355.381 574.636 356.197 574.089 356.791  c
573.542 357.385 572.790 357.682 571.833 357.682  c
h
571.851 356.814 m
573.073 356.814 573.685 355.990 573.685 354.342  c
573.685 352.713 573.081 351.898 571.874 351.898  c
570.671 351.898 570.069 352.717 570.069 354.354  c
570.069 355.994 570.663 356.814 571.851 356.814  c
h
f
2 J
10.0000 M
.600000 .800000 0.00000 RG
0 J
1.45000 M
0.00000 0.00000 0.00000 RG
newpath
522.000 335.500 m
595.000 335.500 l
595.000 370.500 l
522.000 370.500 l
522.000 335.500 l
h
S
2 J
10.0000 M
.600000 .800000 0.00000 RG
newpath
248.750 335.500 m
321.750 335.500 l
321.750 370.500 l
248.750 370.500 l
248.750 335.500 l
h
f
0.00000 0.00000 0.00000 RG
0 J
1.45000 M
newpath
276.341 357.535 m
276.341 348.863 l
281.187 348.863 l
281.187 349.783 l
277.571 349.783 l
277.571 352.689 l
280.606 352.689 l
280.606 353.598 l
277.571 353.598 l
277.571 357.535 l
h
282.810 357.535 m
282.810 351.172 l
283.964 351.172 l
283.964 357.535 l
h
282.810 350.018 m
282.810 348.863 l
283.964 348.863 l
283.964 350.018 l
h
286.278 357.535 m
286.278 348.283 l
287.433 348.283 l
287.433 357.535 l
h
294.411 357.330 m
293.638 357.564 292.976 357.682 292.425 357.682  c
291.487 357.682 290.723 357.370 290.131 356.747  c
289.539 356.124 289.243 355.316 289.243 354.324  c
289.243 353.359 289.504 352.568 290.025 351.951  c
290.547 351.334 291.214 351.025 292.026 351.025  c
292.796 351.025 293.391 351.299 293.811 351.846  c
294.230 352.393 294.440 353.170 294.440 354.178  c
294.435 354.535 l
290.421 354.535 l
290.589 356.047 291.329 356.803 292.642 356.803  c
293.122 356.803 293.712 356.674 294.411 356.416  c
h
290.474 353.668 m
293.280 353.668 l
293.280 352.484 292.839 351.893 291.956 351.893  c
291.069 351.893 290.575 352.484 290.474 353.668  c
h
f
2 J
10.0000 M
.600000 .800000 0.00000 RG
0 J
1.45000 M
0.00000 0.00000 0.00000 RG
newpath
248.750 335.500 m
321.750 335.500 l
321.750 370.500 l
248.750 370.500 l
248.750 335.500 l
h
S
2 J
10.0000 M
1.00000 .800000 0.00000 RG
newpath
565.000 444.500 m
595.000 444.500 l
595.000 474.500 l
565.000 474.500 l
565.000 444.500 l
h
f
0.00000 0.00000 0.00000 RG
0 J
1.45000 M
newpath
574.955 464.035 m
574.955 456.283 l
571.879 456.283 l
571.879 455.363 l
579.262 455.363 l
579.262 456.283 l
576.186 456.283 l
576.186 464.035 l
h
580.480 464.035 m
580.480 455.363 l
581.688 455.363 l
586.053 462.061 l
586.053 455.363 l
587.107 455.363 l
587.107 464.035 l
585.906 464.035 l
581.535 457.338 l
581.535 464.035 l
h
f
2 J
10.0000 M
1.00000 .800000 0.00000 RG
0 J
1.45000 M
0.00000 0.00000 0.00000 RG
newpath
565.000 444.500 m
595.000 444.500 l
595.000 474.500 l
565.000 474.500 l
565.000 444.500 l
h
S
2 J
10.0000 M
1.00000 .800000 0.00000 RG
newpath
516.000 444.500 m
552.000 444.500 l
552.000 474.500 l
516.000 474.500 l
516.000 444.500 l
h
f
0.00000 0.00000 0.00000 RG
0 J
1.45000 M
newpath
521.689 464.035 m
521.689 456.283 l
518.613 456.283 l
518.613 455.363 l
525.996 455.363 l
525.996 456.283 l
522.920 456.283 l
522.920 464.035 l
h
527.215 464.035 m
527.215 455.363 l
528.422 455.363 l
532.787 462.061 l
532.787 455.363 l
533.842 455.363 l
533.842 464.035 l
532.641 464.035 l
528.270 457.338 l
528.270 464.035 l
h
535.828 461.000 m
535.828 460.133 l
541.031 460.133 l
541.031 461.000 l
h
543.709 464.035 m
543.709 463.168 l
545.443 463.168 l
545.443 456.324 l
543.709 456.758 l
543.709 455.867 l
546.604 455.146 l
546.604 463.168 l
548.338 463.168 l
548.338 464.035 l
h
f
2 J
10.0000 M
1.00000 .800000 0.00000 RG
0 J
1.45000 M
0.00000 0.00000 0.00000 RG
newpath
516.000 444.500 m
552.000 444.500 l
552.000 474.500 l
516.000 474.500 l
516.000 444.500 l
h
S
2 J
10.0000 M
1.00000 .800000 0.00000 RG
newpath
473.000 444.500 m
503.000 444.500 l
503.000 474.500 l
473.000 474.500 l
473.000 444.500 l
h
f
0.00000 0.00000 0.00000 RG
0 J
1.45000 M
newpath
483.477 464.035 m
483.477 462.588 l
484.924 462.588 l
484.924 464.035 l
h
487.273 464.035 m
487.273 462.588 l
488.721 462.588 l
488.721 464.035 l
h
491.070 464.035 m
491.070 462.588 l
492.518 462.588 l
492.518 464.035 l
h
f
2 J
10.0000 M
1.00000 .800000 0.00000 RG
0 J
1.45000 M
0.00000 0.00000 0.00000 RG
newpath
473.000 444.500 m
503.000 444.500 l
503.000 474.500 l
473.000 474.500 l
473.000 444.500 l
h
S
2 J
10.0000 M
1.00000 .800000 0.00000 RG
newpath
424.000 444.500 m
454.000 444.500 l
454.000 474.500 l
424.000 474.500 l
424.000 444.500 l
h
f
0.00000 0.00000 0.00000 RG
0 J
1.45000 M
newpath
434.477 464.035 m
434.477 462.588 l
435.924 462.588 l
435.924 464.035 l
h
438.273 464.035 m
438.273 462.588 l
439.721 462.588 l
439.721 464.035 l
h
442.070 464.035 m
442.070 462.588 l
443.518 462.588 l
443.518 464.035 l
h
f
2 J
10.0000 M
1.00000 .800000 0.00000 RG
0 J
1.45000 M
0.00000 0.00000 0.00000 RG
newpath
424.000 444.500 m
454.000 444.500 l
454.000 474.500 l
424.000 474.500 l
424.000 444.500 l
h
S
2 J
10.0000 M
1.00000 .800000 0.00000 RG
newpath
375.000 444.500 m
405.000 444.500 l
405.000 474.500 l
375.000 474.500 l
375.000 444.500 l
h
f
0.00000 0.00000 0.00000 RG
0 J
1.45000 M
newpath
385.477 464.035 m
385.477 462.588 l
386.924 462.588 l
386.924 464.035 l
h
389.273 464.035 m
389.273 462.588 l
390.721 462.588 l
390.721 464.035 l
h
393.070 464.035 m
393.070 462.588 l
394.518 462.588 l
394.518 464.035 l
h
f
2 J
10.0000 M
1.00000 .800000 0.00000 RG
0 J
1.45000 M
0.00000 0.00000 0.00000 RG
newpath
375.000 444.500 m
405.000 444.500 l
405.000 474.500 l
375.000 474.500 l
375.000 444.500 l
h
S
2 J
10.0000 M
1.00000 .800000 0.00000 RG
newpath
326.000 444.500 m
356.000 444.500 l
356.000 474.500 l
326.000 474.500 l
326.000 444.500 l
h
f
0.00000 0.00000 0.00000 RG
0 J
1.45000 M
newpath
336.477 464.035 m
336.477 462.588 l
337.924 462.588 l
337.924 464.035 l
h
340.273 464.035 m
340.273 462.588 l
341.721 462.588 l
341.721 464.035 l
h
344.070 464.035 m
344.070 462.588 l
345.518 462.588 l
345.518 464.035 l
h
f
2 J
10.0000 M
1.00000 .800000 0.00000 RG
0 J
1.45000 M
0.00000 0.00000 0.00000 RG
newpath
326.000 444.500 m
356.000 444.500 l
356.000 474.500 l
326.000 474.500 l
326.000 444.500 l
h
S
2 J
10.0000 M
1.00000 .800000 0.00000 RG
newpath
277.000 444.500 m
307.000 444.500 l
307.000 474.500 l
277.000 474.500 l
277.000 444.500 l
h
f
0.00000 0.00000 0.00000 RG
0 J
1.45000 M
newpath
287.477 464.035 m
287.477 462.588 l
288.924 462.588 l
288.924 464.035 l
h
291.273 464.035 m
291.273 462.588 l
292.721 462.588 l
292.721 464.035 l
h
295.070 464.035 m
295.070 462.588 l
296.518 462.588 l
296.518 464.035 l
h
f
2 J
10.0000 M
1.00000 .800000 0.00000 RG
0 J
1.45000 M
0.00000 0.00000 0.00000 RG
newpath
277.000 444.500 m
307.000 444.500 l
307.000 474.500 l
277.000 474.500 l
277.000 444.500 l
h
S
2 J
10.0000 M
1.00000 .800000 0.00000 RG
newpath
228.000 444.500 m
258.000 444.500 l
258.000 474.500 l
228.000 474.500 l
228.000 444.500 l
h
f
0.00000 0.00000 0.00000 RG
0 J
1.45000 M
newpath
238.594 464.035 m
238.594 456.283 l
235.518 456.283 l
235.518 455.363 l
242.900 455.363 l
242.900 456.283 l
239.824 456.283 l
239.824 464.035 l
h
244.219 463.971 m
244.219 462.893 l
245.047 463.221 245.699 463.385 246.176 463.385  c
246.727 463.385 247.175 463.224 247.521 462.901  c
247.866 462.579 248.039 462.162 248.039 461.650  c
248.039 460.432 247.186 459.822 245.479 459.822  c
245.021 459.822 l
245.021 459.043 l
245.426 459.037 l
247.027 459.037 247.828 458.473 247.828 457.344  c
247.828 456.457 247.301 456.014 246.246 456.014  c
245.668 456.014 245.031 456.176 244.336 456.500  c
244.336 455.492 l
245.020 455.262 245.684 455.146 246.328 455.146  c
248.102 455.146 248.988 455.816 248.988 457.156  c
248.988 458.176 248.385 458.902 247.178 459.336  c
248.576 459.660 249.275 460.426 249.275 461.633  c
249.275 462.449 249.006 463.090 248.467 463.555  c
247.928 464.020 247.188 464.252 246.246 464.252  c
245.711 464.252 245.035 464.158 244.219 463.971  c
h
f
2 J
10.0000 M
1.00000 .800000 0.00000 RG
0 J
1.45000 M
0.00000 0.00000 0.00000 RG
newpath
228.000 444.500 m
258.000 444.500 l
258.000 474.500 l
228.000 474.500 l
228.000 444.500 l
h
S
2 J
10.0000 M
1.00000 .800000 0.00000 RG
newpath
179.000 444.500 m
209.000 444.500 l
209.000 474.500 l
179.000 474.500 l
179.000 444.500 l
h
f
0.00000 0.00000 0.00000 RG
0 J
1.45000 M
newpath
189.594 464.035 m
189.594 456.283 l
186.518 456.283 l
186.518 455.363 l
193.900 455.363 l
193.900 456.283 l
190.824 456.283 l
190.824 464.035 l
h
194.996 464.035 m
194.996 463.021 l
195.332 462.236 196.012 461.381 197.035 460.455  c
197.697 459.863 l
198.549 459.094 198.975 458.330 198.975 457.572  c
198.975 457.088 198.829 456.707 198.538 456.430  c
198.247 456.152 197.848 456.014 197.340 456.014  c
196.738 456.014 196.029 456.246 195.213 456.711  c
195.213 455.691 l
195.982 455.328 196.746 455.146 197.504 455.146  c
198.316 455.146 198.969 455.365 199.461 455.803  c
199.953 456.240 200.199 456.820 200.199 457.543  c
200.199 458.062 200.075 458.523 199.827 458.926  c
199.579 459.328 199.117 459.816 198.441 460.391  c
197.996 460.771 l
197.070 461.557 196.535 462.307 196.391 463.021  c
200.158 463.021 l
200.158 464.035 l
h
f
2 J
10.0000 M
1.00000 .800000 0.00000 RG
0 J
1.45000 M
0.00000 0.00000 0.00000 RG
newpath
179.000 444.500 m
209.000 444.500 l
209.000 474.500 l
179.000 474.500 l
179.000 444.500 l
h
S
2 J
10.0000 M
1.00000 .800000 0.00000 RG
newpath
136.500 444.500 m
166.500 444.500 l
166.500 474.500 l
136.500 474.500 l
136.500 444.500 l
h
f
0.00000 0.00000 0.00000 RG
0 J
1.45000 M
newpath
147.094 464.035 m
147.094 456.283 l
144.018 456.283 l
144.018 455.363 l
151.400 455.363 l
151.400 456.283 l
148.324 456.283 l
148.324 464.035 l
h
153.305 464.035 m
153.305 463.168 l
155.039 463.168 l
155.039 456.324 l
153.305 456.758 l
153.305 455.867 l
156.199 455.146 l
156.199 463.168 l
157.934 463.168 l
157.934 464.035 l
h
f
2 J
10.0000 M
1.00000 .800000 0.00000 RG
0 J
1.45000 M
0.00000 0.00000 0.00000 RG
newpath
136.500 444.500 m
166.500 444.500 l
166.500 474.500 l
136.500 474.500 l
136.500 444.500 l
h
S
2 J
10.0000 M
.600000 .800000 0.00000 RG
newpath
136.500 335.500 m
209.500 335.500 l
209.500 370.500 l
136.500 370.500 l
136.500 335.500 l
h
f
0.00000 0.00000 0.00000 RG
0 J
1.45000 M
newpath
164.401 357.752 m
163.054 357.752 162.013 357.356 161.278 356.565  c
160.544 355.774 160.177 354.654 160.177 353.205  c
160.177 351.760 160.551 350.639 161.299 349.842  c
162.047 349.045 163.101 348.646 164.460 348.646  c
165.237 348.646 166.147 348.773 167.190 349.027  c
167.190 350.182 l
166.003 349.771 165.087 349.566 164.442 349.566  c
163.501 349.566 162.772 349.885 162.257 350.521  c
161.741 351.158 161.483 352.057 161.483 353.217  c
161.483 354.322 161.759 355.194 162.310 355.833  c
162.860 356.472 163.612 356.791 164.565 356.791  c
165.386 356.791 166.265 356.539 167.202 356.035  c
167.202 357.090 l
166.347 357.531 165.413 357.752 164.401 357.752  c
h
169.024 357.535 m
169.024 348.283 l
170.179 348.283 l
170.179 352.367 l
170.788 351.477 171.534 351.031 172.417 351.031  c
172.968 351.031 173.407 351.206 173.735 351.556  c
174.063 351.905 174.228 352.375 174.228 352.965  c
174.228 357.535 l
173.073 357.535 l
173.073 353.340 l
173.073 352.867 173.004 352.530 172.865 352.329  c
172.727 352.128 172.497 352.027 172.177 352.027  c
171.470 352.027 170.804 352.490 170.179 353.416  c
170.179 357.535 l
h
179.753 356.727 m
179.062 357.363 178.396 357.682 177.755 357.682  c
177.228 357.682 176.790 357.517 176.442 357.187  c
176.095 356.856 175.921 356.439 175.921 355.936  c
175.921 355.240 176.213 354.706 176.797 354.333  c
177.381 353.960 178.218 353.773 179.308 353.773  c
179.583 353.773 l
179.583 353.006 l
179.583 352.268 179.204 351.898 178.446 351.898  c
177.837 351.898 177.179 352.086 176.472 352.461  c
176.472 351.506 l
177.249 351.189 177.978 351.031 178.657 351.031  c
179.368 351.031 179.893 351.191 180.230 351.512  c
180.568 351.832 180.737 352.330 180.737 353.006  c
180.737 355.889 l
180.737 356.549 180.940 356.879 181.347 356.879  c
181.397 356.879 181.472 356.871 181.569 356.855  c
181.651 357.494 l
181.390 357.619 181.101 357.682 180.784 357.682  c
180.245 357.682 179.901 357.363 179.753 356.727  c
h
179.583 356.100 m
179.583 354.453 l
179.196 354.441 l
178.563 354.441 178.052 354.562 177.661 354.802  c
177.271 355.042 177.075 355.357 177.075 355.748  c
177.075 356.025 177.173 356.260 177.368 356.451  c
177.563 356.643 177.802 356.738 178.083 356.738  c
178.563 356.738 179.063 356.525 179.583 356.100  c
h
185.009 357.682 m
184.423 357.682 183.966 357.514 183.638 357.178  c
183.310 356.842 183.146 356.375 183.146 355.777  c
183.146 352.039 l
182.349 352.039 l
182.349 351.172 l
183.146 351.172 l
183.146 350.018 l
184.300 349.906 l
184.300 351.172 l
185.964 351.172 l
185.964 352.039 l
184.300 352.039 l
184.300 355.566 l
184.300 356.398 184.659 356.814 185.378 356.814  c
185.530 356.814 185.716 356.789 185.935 356.738  c
185.935 357.535 l
185.579 357.633 185.271 357.682 185.009 357.682  c
h
f
2 J
10.0000 M
.600000 .800000 0.00000 RG
0 J
1.45000 M
0.00000 0.00000 0.00000 RG
newpath
136.500 335.500 m
209.500 335.500 l
209.500 370.500 l
136.500 370.500 l
136.500 335.500 l
h
S
2 J
10.0000 M
0 J
1.45000 M
newpath
369.131 292.000 m
401.511 329.448 l
S
newpath
406.744 335.500 m
402.677 323.152 l
400.857 328.692 l
395.113 329.693 l
h
f
2 J
10.0000 M
0 J
1.45000 M
newpath
399.589 292.000 m
514.531 336.122 l
S
newpath
522.000 338.989 m
512.589 330.021 l
513.598 335.764 l
509.005 339.357 l
h
f
2 J
10.0000 M
0 J
1.45000 M
newpath
338.674 292.000 m
305.847 329.482 l
S
newpath
300.576 335.500 m
312.244 329.767 l
306.506 328.729 l
304.721 323.178 l
h
f
2 J
10.0000 M
0 J
1.45000 M
newpath
562.033 370.500 m
575.389 436.658 l
S
newpath
576.972 444.500 m
579.498 431.748 l
575.191 435.678 l
569.696 433.727 l
h
f
2 J
10.0000 M
0 J
1.45000 M
newpath
554.474 370.500 m
539.244 436.704 l
S
newpath
537.451 444.500 m
545.014 433.926 l
539.468 435.729 l
535.268 431.684 l
h
f
2 J
10.0000 M
0 J
1.45000 M
newpath
432.741 370.500 m
474.467 437.703 l
S
newpath
478.687 444.500 m
476.605 431.668 l
473.939 436.854 l
468.109 436.943 l
h
f
2 J
10.0000 M
0 J
1.45000 M
newpath
546.915 370.500 m
502.345 437.829 l
S
newpath
497.930 444.500 m
508.723 437.254 l
502.897 436.995 l
500.384 431.734 l
h
f
2 J
10.0000 M
0 J
1.45000 M
newpath
424.689 370.500 m
435.318 436.601 l
S
newpath
436.588 444.500 m
439.620 431.858 l
435.159 435.614 l
429.746 433.446 l
h
f
2 J
10.0000 M
0 J
1.45000 M
newpath
416.637 370.500 m
396.783 436.836 l
S
newpath
394.489 444.500 m
402.720 434.437 l
397.070 435.878 l
393.140 431.570 l
h
f
2 J
10.0000 M
0 J
1.45000 M
newpath
408.586 370.500 m
357.229 438.129 l
S
newpath
352.391 444.500 m
363.630 437.967 l
357.834 437.332 l
355.666 431.919 l
h
f
2 J
10.0000 M
0 J
1.45000 M
newpath
294.411 370.500 m
329.438 437.412 l
S
newpath
333.148 444.500 m
332.012 431.550 l
328.974 436.526 l
323.153 436.187 l
h
f
2 J
10.0000 M
0 J
1.45000 M
newpath
522.761 370.500 m
363.185 448.637 l
S
newpath
356.000 452.155 m
368.976 451.369 l
364.083 448.197 l
364.579 442.387 l
h
f
2 J
10.0000 M
0 J
1.45000 M
newpath
286.359 370.500 m
290.543 436.516 l
S
newpath
291.049 444.500 m
295.280 432.208 l
290.480 435.518 l
285.300 432.840 l
h
f
2 J
10.0000 M
0 J
1.45000 M
newpath
278.308 370.500 m
251.901 437.064 l
S
newpath
248.951 444.500 m
258.023 435.189 l
252.270 436.134 l
248.728 431.502 l
h
f
2 J
10.0000 M
0 J
1.45000 M
newpath
270.256 370.500 m
212.057 438.425 l
S
newpath
206.852 444.500 m
218.457 438.641 l
212.708 437.666 l
210.863 432.134 l
h
f
2 J
10.0000 M
0 J
1.45000 M
newpath
313.650 292.000 m
216.839 333.987 l
S
newpath
209.500 337.170 m
222.499 336.982 l
217.757 333.589 l
218.520 327.808 l
h
f
2 J
10.0000 M
0 J
1.45000 M
newpath
169.467 370.500 m
156.111 436.658 l
S
newpath
154.528 444.500 m
161.804 433.727 l
156.309 435.678 l
152.002 431.748 l
h
f
2 J
10.0000 M
0 J
1.45000 M
newpath
176.451 370.500 m
189.495 436.651 l
S
newpath
191.042 444.500 m
193.626 431.759 l
189.301 435.670 l
183.815 433.694 l
h
f
2 J
10.0000 M
0 J
1.45000 M
newpath
184.502 370.500 m
228.747 437.815 l
S
newpath
233.141 444.500 m
230.728 431.726 l
228.198 436.979 l
222.372 437.218 l
h
f
2 J
10.0000 M
0 J
1.45000 M
newpath
200.606 370.500 m
319.243 445.708 l
S
newpath
326.000 449.991 m
318.542 439.343 l
318.399 445.172 l
313.188 447.789 l
h
f
2 J
10.0000 M
Q
[ 1.00000 0.00000 0.00000 1.00000 0.00000 0.00000 ] defaultmatrix matrix concatmatrix setmatrix
cliprestore
end end restore showpage

%%Trailer
%%EOF
